<?xml version="1.0" encoding="utf-8"?>
<!-- Generator: Adobe Illustrator 16.0.0, SVG Export Plug-In . SVG Version: 6.00 Build 0)  -->
<!DOCTYPE svg PUBLIC "-//W3C//DTD SVG 1.1//EN" "http://www.w3.org/Graphics/SVG/1.1/DTD/svg11.dtd">
<svg version="1.1" id="Layer_1" xmlns="http://www.w3.org/2000/svg" xmlns:xlink="http://www.w3.org/1999/xlink" x="0px" y="0px"
	 width="199.501px" height="197.384px" viewBox="0 0 199.501 197.384" enable-background="new 0 0 199.501 197.384"
	 xml:space="preserve">
<g>
	<g>
		<circle fill="#D7F3F4" cx="99.751" cy="98.692" r="92.5"/>
		<g>
			<defs>
				<circle id="SVGID_59_" cx="99.751" cy="98.692" r="92.5"/>
			</defs>
			<clipPath id="SVGID_2_">
				<use xlink:href="#SVGID_59_"  overflow="visible"/>
			</clipPath>
		</g>
		<g>
			<circle fill-rule="evenodd" clip-rule="evenodd" fill="#29B0B0" cx="99.751" cy="98.692" r="64"/>
			<circle fill-rule="evenodd" clip-rule="evenodd" fill="#80B8BE" cx="99.751" cy="98.692" r="64"/>
			<path fill-rule="evenodd" clip-rule="evenodd" fill="#659497" d="M51.118,98.692c0-32.744,24.596-59.727,56.316-63.525
				c-2.521-0.301-5.082-0.475-7.684-0.475c-35.348,0-64,28.653-64,64s28.652,64,64,64c2.602,0,5.162-0.174,7.684-0.475
				C75.714,158.418,51.118,131.436,51.118,98.692z"/>
			<g>
				<defs>
					<circle id="SVGID_61_" cx="99.751" cy="98.692" r="64"/>
				</defs>
				<clipPath id="SVGID_4_">
					<use xlink:href="#SVGID_61_"  overflow="visible"/>
				</clipPath>
				<g clip-path="url(#SVGID_4_)">
					<path fill-rule="evenodd" clip-rule="evenodd" fill="#C0E0E2" d="M162.7,89.756c0.6-0.856,0.633-1.788,0.404-2.772
						c-2.131-9.271-5.447-18.07-11.152-25.749c-10.924-14.703-25.422-23.668-43.59-26.543c-0.801,1.378-3.895,0.348-3.377,2.845
						c0.482,2.34,2.279,3.509,4.801,3.467c1.32-0.022,2.689,0.056,3.959,0.379c2.584,0.657,3.766,2.659,3.701,5.122
						c-0.061,2.257,0.539,5.105-2.951,5.747c-0.885,0.162-2.223-0.058-2.416,1.1c-0.195,1.174,1.062,1.831,1.805,2.545
						c1.625,1.567,4.465,1.521,5.34,0.423c2.873-3.612,6.029-4.091,10.523-4.329c3.494-0.187,6.617,0.675,9.896,0.897
						c0.664,0.046,2.674,1.993,0.766,2.792c-2.76,1.154-5.582,3.001-8.969,1.671c-3.758-1.478-6.973,0.082-10.195,1.983
						c-2.322,1.371-3.734,2.931-3.207,5.769c0.051,0.27-0.254,0.725-0.521,0.914c-2.32,1.636-1.941,3.967-1.605,6.245
						c0.387,2.624,1.031,5.215,1.301,7.847c0.602,5.897,0.574,5.801,6.1,7.746c1.982,0.698,3.57,0.689,5.482-0.247
						c2.148-1.05,4.514-1.75,6.855-2.29c2.211-0.51,4.791-0.118,5.916,1.759c1.85,3.088,4.156,5.908,5.5,9.339
						c0.939,2.4-1.33,4.939-0.07,6.676c3.146,4.344,1.268,8.569,0.504,12.838c-0.631,3.521,3.033,5.217,3.307,8.331
						c0.014,0.155,1.434,0.482,1.994,0.246c1.992-0.843,4.408-1.69,4.785-4.036c1.244-7.712,5.549-14.703,5.24-22.761
						C162.724,95.06,162.739,92.408,162.7,89.756z"/>
					<path fill-rule="evenodd" clip-rule="evenodd" fill="#C0E0E2" d="M128.142,152.856c-1.658,0.789-3.043,2.042-5.059,2.1
						c-3.875,0.112-7.395,1.529-11.027,2.751c-2.934,0.985-6.484,3.005-9.141-1.058c-0.861-1.317-1.646-0.256-2.113,0.585
						c-0.883,1.591-1.725,3.182-3.607,3.814c-0.707,0.579-0.609,1.245-0.205,1.941c0.791,0.882,1.865,1.062,2.949,1.125
						c4.469,0.264,8.863-0.367,13.229-1.226c1.107-0.218,1.992-0.806,2.654-1.722c1.684-0.483,3.365-0.968,5.049-1.454
						c5.602-2.504,11.422-4.595,16.217-8.617C133.505,148.317,130.798,151.59,128.142,152.856z"/>
					<path fill-rule="evenodd" clip-rule="evenodd" fill="#C0E0E2" d="M78.976,45.232c-0.281,1.051,0.893,1.677,2.191,1.84
						c3.018,0.382,3.66-2.013,5.107-3.743c2.426-2.902,4.289-5.472-0.227-8.048c-0.42,0.029-0.842,0.06-1.264,0.09
						c-1.49,2.477-4.033,1.327-6.113,1.774c-0.416,0.083-0.832,0.166-1.248,0.25C77.327,40.107,79.765,42.269,78.976,45.232z"/>
					<path fill-rule="evenodd" clip-rule="evenodd" fill="#C0E0E2" d="M98.804,126.599c0.773-0.458,1.023-1.333,1.016-2.218
						c-0.035-3.282,1.195-5.953,3.246-8.558c2.463-3.127-0.961-9.905-4.936-9.716c-2.635,0.123-4.697-0.646-6.795-1.874
						c-1.062-0.625-2.098-1.16-3.369-0.411c-0.961,0.568-2.027,0.268-2.666-0.469c-3.16-3.655-7.424-5.248-11.91-6.16
						c-4.549-0.927-9.414-1.736-13.252,1.712c-2.484,2.231-4.039,1.903-6.471,0.048c-2.984-2.275-4.215-5.514-5.914-8.54
						c-3.299-6.198-3.299-6.198,1.518-11.784c0.072-0.082,0.08-0.221,0.119-0.332c1.311-0.549,1.939,0.374,2.734,1.152
						c0.943,0.929,1.494,3.103,3.25,2.089c1.43-0.823,1.865-2.659,2.086-4.411c0.492-3.917,2.244-7.212,4.492-10.512
						c2.588-3.797,9.025-2.568,9.916-8.154c0.016-0.098,0.438-0.2,0.666-0.19c2.021,0.092,3.918-1.151,3.367-2.774
						c-0.732-2.161-1.609-4.819-4.107-5.874c-2.254-0.947-5.117,1.13-6.162,4.62c-0.486,1.625-1.59,2.366-2.824,2.146
						c-1.256-0.224-3.465-0.328-2.625-2.824c1.053-0.95,1.438-2.454,2.686-3.242c0.758-1.178,1.605-2.267,2.895-2.915
						c1.732-0.899,3.543-1.56,5.529-1.332c1.922,0.221,2.521-0.729,2.676-2.48c0.135-1.512-0.432-2.841-0.684-4.252
						c-3.686-1.561-5.75,1.454-8.344,2.966c-0.709,0.916-1.562,1.649-2.613,2.141c-0.707,0.419-1.359,0.902-1.857,1.569
						c-0.674,0.94-1.705,1.447-2.57,2.159c-0.842,1.022-1.949,1.719-2.994,2.492c-0.752,0.921-1.744,1.597-2.547,2.466
						c-0.842,0.736-1.934,1.057-2.828,1.698c-6.604,6.562-11.188,14.271-13.264,23.4c0.057,1.742,0.072,3.483,0.24,5.216
						c0.111,0.563,0.232,1.124,0.396,1.677c0.279,1.405,0.23,2.85,0.482,4.262c0.883,4.928,6.238,9.789,11.102,10.072
						c5.658,2.891,10.498,6.16,10.111,13.751c-0.217,4.315,2.092,7.428,6.078,9.857c4.641,2.829,10.299,5.555,9.047,12.85
						c-0.098,0.561,0.459,1.394,0.939,1.865c1.77,1.729,2.527,4.158,4.045,5.957c3.094,3.674,4.486,9.267,10.705,9.664
						c2.498,0.16,3.484-0.282,2.742-2.893c-0.361-1.271-0.504-2.606-0.76-3.908c-0.482-2.449-1.951-4.935-0.52-7.387
						C93.38,134.932,93.997,129.45,98.804,126.599z"/>
					<path fill-rule="evenodd" clip-rule="evenodd" fill="#C0E0E2" d="M111.565,48.448c1.15-0.991,0.277-2.168-0.514-2.735
						c-1.523-1.093-6.217-4.405-5.602-2.384c0.697,2.132,1.984,1.235,3.266,4.683C109.177,49.256,110.646,49.241,111.565,48.448z"/>
					<path fill-rule="evenodd" clip-rule="evenodd" fill="#C0E0E2" d="M65.747,89.618c0.625-1.248-3.281-1.146-3.746-1.092
						c-3.311-1.88-8.902,0.781-6.908,1.393C58.263,90.101,62.868,91.53,65.747,89.618z"/>
					<path fill-rule="evenodd" clip-rule="evenodd" fill="#C0E0E2" d="M53.251,85.253c-0.207,0.082-0.426,0.778-0.318,0.896
						c0.934,1.014,1.729-0.042,3.889,0.538C58.019,86.107,54.601,84.708,53.251,85.253z"/>
				</g>
			</g>
		</g>
		<g>
			<defs>
				<circle id="SVGID_63_" cx="99.751" cy="98.692" r="92.5"/>
			</defs>
			<clipPath id="SVGID_6_">
				<use xlink:href="#SVGID_63_"  overflow="visible"/>
			</clipPath>
		</g>
	</g>
	<g>
		<defs>
			<circle id="SVGID_65_" cx="99.751" cy="98.692" r="92.5"/>
		</defs>
		<clipPath id="SVGID_8_">
			<use xlink:href="#SVGID_65_"  overflow="visible"/>
		</clipPath>
	</g>
	<g>
		<defs>
			<circle id="SVGID_67_" cx="99.751" cy="98.692" r="92.5"/>
		</defs>
		<clipPath id="SVGID_10_">
			<use xlink:href="#SVGID_67_"  overflow="visible"/>
		</clipPath>
	</g>
	<circle fill="none" stroke="#80B8BE" stroke-width="6" stroke-miterlimit="10" cx="99.751" cy="98.692" r="92.5"/>
</g>
</svg>
