<?xml version="1.0" encoding="utf-8"?>
<!-- Generator: Adobe Illustrator 16.0.0, SVG Export Plug-In . SVG Version: 6.00 Build 0)  -->
<!DOCTYPE svg PUBLIC "-//W3C//DTD SVG 1.1//EN" "http://www.w3.org/Graphics/SVG/1.1/DTD/svg11.dtd">
<svg version="1.1" id="Layer_1" xmlns="http://www.w3.org/2000/svg" xmlns:xlink="http://www.w3.org/1999/xlink" x="0px" y="0px"
	 width="24px" height="11.369px" viewBox="0 0 24 11.369" enable-background="new 0 0 24 11.369" xml:space="preserve">
<g>
	<path fill="#4A586A" d="M11.994,11.369c0,0-0.02-0.001-0.029-0.001c-0.011,0-0.021,0.001-0.021,0.001H11.994z"/>
	<path fill="#4A586A" d="M11.934,0c0,0,0.021,0.001,0.031,0.001c0.01,0,0.02-0.001,0.02-0.001H11.934z"/>
	<path fill="#4A586A" d="M11.965,0.001C3.975,0.015,0,5.618,0,5.618v0.116c0,0,3.975,5.62,11.965,5.634
		C19.953,11.354,24,5.733,24,5.733V5.602C24,5.602,19.953,0.015,11.965,0.001z M12,9.62c-2.174,0-3.936-1.762-3.936-3.936
		S9.826,1.749,12,1.749s3.936,1.762,3.936,3.936S14.174,9.62,12,9.62z"/>
</g>
</svg>
