<?xml version="1.0" encoding="utf-8"?>
<!-- Generator: Adobe Illustrator 16.0.0, SVG Export Plug-In . SVG Version: 6.00 Build 0)  -->
<!DOCTYPE svg PUBLIC "-//W3C//DTD SVG 1.1//EN" "http://www.w3.org/Graphics/SVG/1.1/DTD/svg11.dtd">
<svg version="1.1" id="Layer_1" xmlns="http://www.w3.org/2000/svg" xmlns:xlink="http://www.w3.org/1999/xlink" x="0px" y="0px"
	 width="13.836px" height="11.762px" viewBox="0 0 13.836 11.762" enable-background="new 0 0 13.836 11.762" xml:space="preserve">
<g>
	<path id="Espírito_Santo" fill="#E7EBEB" d="M11.565,6.939V6.933V6.926V6.911h0.014v0.008h0.008l-0.008-0.021l-0.008-0.006h0.008
		l0.008-0.008l-0.008-0.007l0.008-0.008l0.006-0.006V6.855l0.008-0.006l0.007-0.015l0.014-0.008l-0.007-0.006h0.007l0.007-0.008
		l0.007-0.006L11.628,6.8v0.008L11.621,6.8l0.007-0.014h-0.014h-0.021l-0.006-0.007V6.772l0.006-0.007l0.008-0.008V6.744
		l0.014-0.021V6.717l0.007-0.008h0.014V6.702V6.695l-0.007-0.021l0.007-0.007V6.646l0.007-0.014V6.597V6.583V6.568l-0.034-0.006
		l-0.015-0.035V6.521h-0.014l0.008-0.021V6.493l0.014-0.008l-0.008-0.014h0.008h0.007l0.007-0.007l0.007-0.008l0.014-0.006
		l0.007-0.008V6.438h0.021l0.008-0.008l-0.008-0.007l0.008-0.021l0.006-0.007V6.367V6.359l0.008-0.007V6.346h0.098h0.217h0.042
		V6.339l0.006-0.007l0.008,0.007l0.021-0.014l0.007-0.021V6.297l0.007-0.007l0.008-0.015l0.007-0.007h-0.007l0.014-0.014
		l-0.007-0.007l0.007-0.014V6.22l0.007-0.007l0.007-0.021V6.185l0.007-0.006l0.008-0.008V6.15l0.014-0.014l-0.007-0.014V6.115
		l-0.007-0.015l0.007-0.006l0.007-0.028l0.007-0.008h0.027L12.2,6.053l0.008,0.006h0.008l0.014-0.021V6.024l0.021-0.007l0.007,0.007
		l0.014-0.015l0.008-0.006V5.961h0.006V5.954L12.278,5.94h0.006l0.008-0.021L12.3,5.905l-0.016-0.007V5.892h0.008l-0.008-0.014
		L12.271,5.87V5.856l0.014-0.007l-0.006-0.007l0.006-0.015V5.822V5.808l0.008-0.007l-0.008-0.007l0.008-0.021L12.3,5.766h0.014
		l0.014-0.007l0.007-0.014h0.007h0.007l0.007-0.007l0.008-0.035h0.007l0.006-0.008h0.009h0.006V5.682h0.021V5.675l0.021-0.007V5.661
		l-0.008-0.015l-0.007-0.014l0.007-0.021l-0.007-0.014V5.584l0.021,0.007l0.021,0.007h0.035V5.591l0.02-0.027V5.556l0.008-0.006
		l-0.014-0.008V5.528l-0.008-0.007V5.514l0.008-0.006V5.494V5.486l0.027-0.021V5.458l0.008-0.007L12.53,5.444V5.43l0.006-0.02h0.008
		l0.007-0.008h0.007l0.007-0.014l-0.007-0.008h-0.007h-0.007h-0.008V5.374l0.008-0.007H12.53L12.522,5.36l0.014-0.007h0.015V5.332
		l-0.015-0.007H12.53l0.006-0.007L12.53,5.312V5.297h0.006l0.008-0.006V5.276L12.536,5.27l0.008-0.007h-0.008V5.256H12.53V5.241
		l-0.008-0.006l-0.008-0.008l0.008-0.014h-0.014V5.199l-0.008-0.006h-0.006V5.186l-0.008-0.007L12.48,5.172h-0.014H12.46V5.165
		V5.151l-0.007,0.007V5.144h-0.008l-0.007,0.008l-0.007-0.015h-0.021V5.123h-0.007l-0.008-0.007l0.008-0.015L12.39,5.089
		l0.007-0.008V5.066h0.015l0.027-0.021h0.007V5.039V5.032l-0.007,0.007h-0.007h-0.008h-0.007l-0.006-0.007V5.024h-0.007
		l-0.008-0.014V5.004h-0.013V4.996L12.362,4.99l-0.008-0.007h-0.007V4.969l-0.007-0.007l-0.007-0.014L12.32,4.941h-0.007h-0.008
		V4.935L12.3,4.92l-0.008-0.007L12.271,4.92h-0.007L12.25,4.906V4.92v0.007l-0.007,0.008l-0.014-0.021h-0.008l-0.006-0.007
		l0.006-0.007h-0.006l0.006-0.014l-0.006-0.015l0.014-0.021h0.062H12.3h0.014l0.014-0.008l0.007,0.015l0.007,0.008v0.006
		l0.014,0.021h0.015h0.015h0.033h0.021h0.062l0.014-0.007l0.008-0.008l0.008,0.008l0.006-0.008l0.008-0.007l0.007-0.006V4.857V4.851
		l-0.015-0.008l0.008-0.006L12.53,4.822V4.781V4.773l-0.008-0.042l-0.008-0.007L12.48,4.718l-0.007-0.007H12.46l-0.015-0.015h-0.014
		l0.007-0.007h-0.007V4.683l-0.015,0.007l0.007-0.007l-0.013-0.007V4.668h0.006l0.007-0.006l0.008-0.008V4.647l-0.008-0.007
		l0.008-0.056h0.007V4.564l0.007-0.063V4.494V4.487h-0.007L12.404,4.48h-0.029l-0.091-0.008l-0.006-0.006l0.014-0.021l0.014-0.008
		l0.015-0.006H12.3V4.417V4.403h0.014V4.396V4.382V4.361l-0.008-0.008V4.326l0.008-0.007l0.021-0.021l0.035-0.027l-0.007-0.007
		V4.257V4.25h0.007V4.242l-0.007-0.006V4.229l0.007-0.007V4.208l0.027-0.015h0.015V4.187V4.18l0.021-0.007l-0.008,0.014h0.008
		l0.007-0.021h0.015V4.18h0.021l0.007-0.021l0.007-0.006l0.014,0.006l0.008,0.008h0.006V4.158V4.152V4.138h0.008l0.008,0.007h0.006
		l0.015-0.014l0.007-0.007h0.007V4.117l0.007,0.007l0.007-0.007v0.014h0.015l0.014,0.007v0.015h0.007l0.007,0.006h0.008h0.014h0.007
		l0.021,0.008l0.007,0.007l0.028-0.007l-0.007-0.049l-0.133-0.126l0.007-0.008h0.007l0.007-0.014l0.008,0.014h0.006l0.008,0.008
		l0.007-0.008l0.021-0.027h0.008l0.007,0.007l0.007-0.007l0.007-0.007l0.007,0.007h0.007l0.008,0.014l-0.008,0.014l0.015-0.007
		h0.007v0.007h0.007l-0.007,0.021h0.007h0.007l0.015,0.007l0.007-0.007h0.014h0.014V4.02l0.007,0.006l0.021-0.014l0.007,0.008
		l0.007-0.008l0.014,0.008l0.008-0.008l0.006-0.015l0.021-0.006V3.977l0.015-0.007l-0.007-0.007l0.007-0.014V3.941V3.936h0.015
		h0.013V3.914h0.021l0.021-0.015l0.021-0.014h0.007l0.014,0.021h0.021l0.021,0.021l0.007-0.014l0.028,0.007h0.014h0.028v0.007h0.014
		l0.007-0.007l0.014,0.007l0.008-0.007h0.014l0.014,0.015h0.008l0.007,0.014l0.014-0.008v0.008l0.021,0.014h0.008l0.014,0.007
		l0.027,0.014l0.168,0.105l0.119,0.077l0.027,0.021l0.008,0.007l0.23,0.146l0.014,0.008l0.007,0.006v0.014v0.008l-0.034,0.07v0.007
		l-0.014,0.049l-0.015,0.035v0.049v0.007v0.034l0.007,0.015l-0.015,0.042l-0.007,0.069l-0.006,0.085v0.056l0.013,0.118l0.022,0.154
		l0.006,0.076l0.015,0.077l0.007,0.07l-0.007,0.062l-0.035,0.104l-0.042,0.098L13.696,5.73v0.021l-0.014,0.007h-0.008h-0.013
		l-0.035,0.014l-0.042,0.021l-0.021,0.014L13.515,5.85l-0.041,0.042L13.444,5.92l-0.007,0.014v0.014l-0.007,0.021l-0.014,0.021
		L13.41,6.004L13.403,6.01v0.008l-0.008,0.007v0.014l-0.021,0.015l-0.014,0.006l-0.007,0.015V6.08l0.007,0.008l-0.007,0.007
		l-0.008,0.014v0.007l-0.006,0.014v0.008l-0.008,0.028l-0.028,0.006l-0.007,0.014l0.021,0.021V6.24l-0.015,0.05v0.021l-0.007,0.007
		v0.021l-0.007,0.014l-0.014,0.028l-0.021,0.021L13.25,6.423V6.43l-0.015,0.008V6.43V6.423l-0.006-0.014h-0.016L13.2,6.416
		L13.193,6.43L13.2,6.438l-0.007,0.006h0.014v0.008h-0.014H13.2h0.007v0.006H13.2v0.008v0.007l0.014-0.007h0.008h-0.008v0.007h0.008
		h-0.008v0.007h0.008h-0.008h-0.007L13.2,6.499l-0.007,0.008l-0.021,0.034l-0.008,0.027v0.008l-0.027,0.057l-0.015,0.034v0.007
		h-0.007l-0.007,0.021l-0.027,0.042v0.021l-0.021,0.028L13.054,6.8h0.007h-0.007l-0.007,0.008V6.8h-0.014l0.007-0.007h-0.007
		l-0.015-0.007v0.007L13.013,6.8l0.006,0.008h-0.006v0.006v0.008l0.006-0.008l-0.006,0.014h-0.009V6.821l-0.006-0.008L12.99,6.821
		l-0.007,0.006h-0.007v0.008l0.014-0.008l-0.007,0.008h0.007h-0.007v0.007h-0.007L12.97,6.863l-0.014,0.028l0.007,0.006h-0.007
		v0.008h-0.008v0.006h-0.006h-0.014l-0.021,0.028l-0.008,0.015v0.007l-0.007,0.014h0.007l-0.007,0.007l-0.007-0.007l-0.014,0.007
		L12.858,7.01h-0.008v0.007h-0.006V7.003l0.006-0.007l-0.006-0.008l-0.021-0.014l0.006-0.014l0.008-0.007l-0.008,0.007h-0.006v0.006
		l-0.008,0.008l0.008,0.007l-0.015,0.007h-0.007v0.008h-0.007v0.007h-0.007L12.781,7.01h-0.007L12.76,7.017h-0.006V7.01h-0.008
		v0.007V7.01l0.008,0.007v0.007h-0.008l0.008-0.007h-0.008l-0.014,0.007L12.726,7.03l-0.015,0.015v0.007v0.007v0.008l-0.014,0.006
		v0.015l-0.021,0.021l-0.007,0.015v0.006l-0.007,0.021v0.028l0.007,0.014h-0.007v0.006l-0.007,0.028l-0.014,0.008l-0.028,0.091
		l-0.028,0.014l-0.007,0.014l-0.021,0.015l-0.014,0.021l-0.029,0.05l-0.006,0.021v0.027v0.021h-0.008V7.498h-0.006V7.492h-0.008
		V7.484L12.48,7.492h-0.007l-0.007-0.008V7.471L12.46,7.45h-0.007h-0.015l-0.015,0.007l-0.013-0.021l-0.015-0.008H12.39
		l-0.006-0.007h-0.009l-0.006-0.007l-0.007,0.007l-0.021,0.007h-0.014L12.32,7.437l-0.015,0.006H12.3h-0.016h-0.006l0.006-0.006
		l-0.006,0.006V7.437v0.006h-0.008V7.45V7.442h-0.007h-0.007L12.25,7.437h-0.014V7.429h-0.007V7.422h-0.008h-0.006H12.2
		l-0.006,0.015h-0.008h-0.006v0.006l-0.008-0.006h-0.007h-0.007l-0.014-0.021l-0.007,0.007V7.415h-0.008l-0.007-0.007h-0.007
		l-0.028-0.007h-0.007l-0.007-0.007v0.007h-0.007h-0.007l-0.007-0.007l-0.008,0.007l-0.006-0.007v0.007h-0.008L12.02,7.415h-0.015
		l-0.006-0.007l-0.015-0.007L11.97,7.395V7.381h-0.006h-0.015l-0.007-0.008h-0.007v0.014l-0.014-0.014l-0.021,0.008l-0.008-0.015
		l-0.007,0.015L11.88,7.373V7.366l-0.014-0.007l-0.008-0.015l-0.021,0.007l-0.022-0.014h-0.005h-0.008h-0.008V7.331l-0.013-0.007
		V7.317h-0.008l-0.007,0.007V7.317h-0.007l-0.007-0.007H11.74v0.007h-0.015V7.311l0.015-0.007V7.296h-0.015h-0.007h-0.007V7.289
		l0.014-0.027h-0.007V7.254h-0.007V7.24h0.007v0.007h0.007V7.233L11.719,7.22V7.212h0.007l0.008-0.007l-0.015-0.008l0.007-0.006
		V7.178h0.008V7.164h-0.008V7.136l-0.014-0.008l-0.007-0.021h0.007l0.007-0.007l0.007-0.021h-0.007V7.072l0.007-0.021h0.008
		l-0.015-0.007l-0.014,0.007V7.045L11.698,7.03l0.007-0.021V7.003V6.996l-0.007-0.008l-0.007,0.008V6.981h-0.015V6.975h-0.006
		h-0.021l-0.008,0.007h-0.014l0.007-0.015l-0.007,0.008l-0.014-0.008V6.961l-0.007-0.007l-0.015-0.008l-0.006-0.014l-0.016,0.007
		H11.565z M13.123,6.682h0.007H13.123z M13.109,6.779V6.772V6.779z M13.096,6.758h-0.007H13.096z M12.977,6.827h-0.014h-0.007V6.821
		l-0.008,0.021h-0.006l-0.008-0.007v0.007h0.008h0.006L12.942,6.85l0.014,0.006l0.007-0.006h-0.015l0.008-0.015l0.007-0.008
		l0.014,0.008V6.827z M13.103,6.779V6.772V6.779z M13.187,6.527h0.007H13.187z"/>
	<path id="Minas_Gerais" fill="#E7EBEB" d="M2.139,5.898L2.132,5.884l0.014-0.02L2.124,5.843V5.836l0.008-0.008l0.007-0.034
		l0.014-0.028l0.007-0.007l0.021-0.056l0.006-0.015l0.016-0.007h0.006l0.021,0.007h0.007H2.25V5.675V5.653L2.243,5.64L2.208,5.591
		V5.577l0.015-0.014l0.014-0.008L2.271,5.57l0.063,0.021h0.007l0.015-0.014V5.57L2.341,5.55L2.306,5.521L2.3,5.514L2.306,5.5V5.494
		l0.014-0.015l0.008-0.028L2.341,5.43V5.41l0.007-0.015V5.389l0.014-0.021L2.39,5.339h0.021l0.021-0.027l0.008-0.015V5.291V5.276
		l0.007-0.014l0.056-0.014l0.007-0.014L2.502,5.214l0.007-0.007h0.014h0.014H2.6l0.014-0.014l0.028-0.015V5.172h0.007l0.014-0.028
		l0.027-0.042V5.074L2.684,5.066l0.006-0.021L2.676,5.011V4.996L2.689,4.99l0.029-0.014h0.007l0.021-0.028l0.021-0.056V4.886
		l0.007-0.008l0.021-0.007H2.81l0.006-0.006l0.021-0.057L2.872,4.76l0.014-0.015l0.014-0.007l0.007-0.007l0.015-0.007l0.021-0.007
		l0.035,0.007h0.021l0.034-0.021l0.084,0.014l0.021-0.021l0.014-0.014l0.014-0.035l0.008-0.007h0.014h0.034l0.008,0.014l0.042,0.008
		h0.028l0.02-0.015h0.008l0.007,0.007L3.34,4.662h0.015l0.014,0.014h0.021l0.022,0.007h0.006h0.007l0.007-0.015l0.008-0.014
		l0.014-0.007l0.014,0.007h0.008l0.014-0.007l0.021-0.014l0.015-0.008h0.014h0.008l0.02,0.015h0.008l0.006-0.015L3.557,4.605
		l0.007-0.007V4.592l0.021-0.007l0.056-0.007l0.015,0.007l0.006-0.007h0.008V4.57l0.007-0.006L3.669,4.536l0.007-0.008h0.007
		l0.015-0.006l0.021,0.006h0.007l0.007,0.008v0.007v0.021v0.014l0.008,0.021l0.049,0.049l0.014,0.035h0.007l0.014,0.007l0.021-0.007
		l0.008-0.007l0.006-0.021l0.021-0.021l0.015-0.035h0.007L3.92,4.605l0.008-0.007l0.007-0.021L3.941,4.57l0.007-0.006h0.008
		l0.021-0.008l0.007-0.021l0.014-0.027l0.014-0.015l0.015-0.007L4.032,4.48V4.473V4.467L4.011,4.452V4.445l0.008-0.008l0.021,0.008
		l0.028-0.008l0.006-0.006L4.101,4.41h0.022v0.007L4.116,4.424v0.008H4.13l0.007,0.006h0.015v0.008l0.027-0.014l0.008-0.015V4.403
		l0.02-0.014l0.021,0.007h0.007l0.008-0.015h0.006V4.361h0.008l0.007-0.008l0.014-0.006l0.021-0.021h0.021L4.326,4.34h0.027
		L4.36,4.354l0.035,0.008l0.006,0.006L4.41,4.403h0.013l0.015-0.021l0.014-0.007l0.014,0.007l0.021-0.015l0.021,0.008l0.021-0.008
		l0.014,0.008l0.014-0.008h0.016h0.014h0.014V4.361V4.354l0.007-0.006l0.041,0.006h0.008l0.007-0.006h0.021l0.007,0.006v0.014
		l0.008,0.008h0.021L4.729,4.39l0.022-0.015h0.007l0.007,0.007L4.759,4.396l0.007,0.007l0.036-0.021L4.814,4.39l0.015-0.008h0.007
		h0.007v0.015H4.85h0.035L4.899,4.39l0.006,0.007h0.008h0.006L4.927,4.41H4.94h0.007V4.403L4.934,4.396V4.39l0.027-0.022
		l0.015-0.014h0.007h0.007l0.008,0.014h0.027v0.015L5.031,4.39H5.06L5.08,4.396h0.014V4.41l0.015,0.014v0.014L5.13,4.445
		l0.014,0.007l0.021,0.007h0.007h0.014l0.008-0.007l0.007-0.015h0.007l0.008,0.008L5.22,4.459l0.015,0.008l0.014,0.006V4.48
		l0.007,0.007h0.007l0.021-0.015V4.48v0.014v0.015h0.006h0.008v0.02l0.007,0.008l0.007-0.008l0.015-0.006h0.006L5.34,4.501
		l0.006-0.007l0.028,0.015l0.007-0.008l0.007,0.008h0.007l0.007-0.008V4.494L5.395,4.487L5.401,4.48V4.473l0.008-0.006l0.006,0.006
		L5.431,4.48h0.006V4.473L5.431,4.467l0.006-0.015V4.438L5.45,4.432l0.008-0.008l0.007,0.008h0.007L5.465,4.438l0.007,0.008h0.007
		l0.007,0.007l0.014-0.007l0.007-0.008h0.015V4.432L5.514,4.424L5.521,4.41l0.008-0.007h0.006L5.528,4.39h0.027v0.014h0.007h0.007
		L5.584,4.39V4.382H5.59h0.008l0.014-0.034h0.007l0.008,0.006v0.008L5.64,4.354h0.007V4.348L5.66,4.333L5.646,4.326L5.64,4.312
		L5.632,4.306L5.64,4.298l0.014-0.007L5.646,4.277L5.66,4.271v0.007l0.008,0.007V4.277V4.271V4.264L5.681,4.25h0.008h0.007
		L5.681,4.242h0.015l0.007-0.006L5.71,4.222h0.006l0.014-0.014h0.008v0.006v0.022v0.006L5.743,4.25V4.242V4.236l0.016-0.008V4.214
		l0.014-0.006l0.007,0.006l0.007-0.006h0.008L5.786,4.2l0.008-0.007V4.187l0.013,0.007V4.187h0.007l0.015-0.014h0.007L5.843,4.18
		h0.006V4.173L5.843,4.166l0.006-0.014h0.015v0.006L5.87,4.152h0.014V4.145H5.87l0.014-0.007V4.124l0.007,0.007l0.008-0.007h0.014
		V4.117l0.014-0.008V4.103H5.919V4.089l0.014,0.007l0.007-0.007L5.96,4.075h0.008l0.014,0.007L5.975,4.067h0.007h0.008l0.007-0.007
		V4.047L5.989,4.033H5.981h0.008L5.981,4.025L5.989,4.02L5.981,4.012L5.968,4.005V3.997H5.96V3.983V3.977h0.008V3.963L5.947,3.949
		V3.936H5.939V3.928L5.933,3.921h0.007L5.933,3.914l0.007-0.007H5.933l0.007-0.008L5.933,3.894H5.926L5.919,3.886h0.007L5.919,3.88
		l0.007-0.015L5.919,3.858V3.852V3.844L5.912,3.83L5.904,3.823l0.008-0.007L5.919,3.81l0.007-0.008h0.007L5.919,3.795h0.007
		l0.007-0.007L5.926,3.781V3.774l0.014-0.007V3.761l0.008-0.008V3.747L5.939,3.739V3.732l0.008-0.008L5.96,3.711l0.008-0.014V3.683
		l0.007-0.006h0.007V3.669h0.015l0.013-0.014V3.648V3.642H6.003V3.635V3.62h0.014V3.599V3.585L6.009,3.571L5.996,3.551L5.975,3.529
		L5.968,3.516L5.96,3.501L5.947,3.495L5.926,3.501L5.904,3.495L5.891,3.488H5.877L5.863,3.495L5.828,3.501L5.821,3.509H5.813H5.807
		L5.8,3.48L5.786,3.501L5.779,3.495H5.772V3.488V3.467V3.453L5.765,3.446L5.759,3.432L5.737,3.425H5.729L5.737,3.41h0.014V3.396
		V3.39H5.743V3.383L5.737,3.376h0.014V3.368H5.743V3.362L5.737,3.354h0.006V3.348V3.341l0.008,0.007l0.008-0.007V3.32L5.751,3.312
		l0.021-0.014H5.765V3.285v0.007l0.015,0.007v0.008h0.007v0.006l0.021-0.006L5.813,3.32l0.008-0.008L5.813,3.307h0.015v0.006
		l0.007-0.006L5.821,3.292h0.007V3.285h0.007l0.008-0.007l0.014,0.007V3.278L5.849,3.265l0.008-0.008V3.25L5.849,3.243H5.843V3.236
		l0.021-0.008V3.223L5.856,3.215H5.87V3.209V3.201h0.014l0.007,0.008l0.008-0.008L5.891,3.194h0.008L5.891,3.181l0.008-0.008h0.006
		h0.015V3.166V3.159l0.007-0.007v0.007h0.007V3.152L5.926,3.146L5.919,3.139h0.007h0.007h0.007L5.926,3.131l0.007-0.007L5.926,3.117
		h0.021L5.954,3.11L5.947,3.104l0.007-0.008v0.008l0.014-0.008L5.975,3.11l0.007-0.007L5.975,3.096L5.989,3.09l0.014,0.006
		L5.996,3.082l0.007-0.007V3.068h0.006L6.003,3.062l0.006-0.014l0.008,0.014V3.04l0.007,0.008V3.04L6.03,3.048h0.008V3.026v0.008
		l0.006-0.008l0.008,0.008H6.06H6.052V3.026H6.06V3.02L6.08,3.026L6.073,3.02L6.08,3.013L6.087,3.02l0.007-0.007H6.087V3.006h0.007
		l0.007-0.008v0.008l0.007-0.008H6.101V2.978h0.007v0.007l0.014,0.007L6.114,2.984h0.007V2.978l0.007-0.007v0.007V2.971l0.008,0.007
		V2.971h0.007L6.136,2.964h0.007h0.007L6.143,2.956L6.156,2.95V2.942L6.143,2.95V2.942h0.007V2.936H6.136l0.021-0.007l0.008-0.007
		L6.156,2.914L6.143,2.908V2.9L6.136,2.908L6.128,2.9l0.008-0.006L6.121,2.887l0.007-0.006L6.121,2.872L6.114,2.881V2.872
		L6.107,2.866l0.021-0.007L6.121,2.852H6.114L6.107,2.838H6.101L6.087,2.845l0.007-0.014H6.087L6.08,2.824h0.007l0.007-0.007H6.087
		V2.81H6.08L6.073,2.796h0.014V2.789L6.08,2.768l0.014-0.014L6.073,2.761V2.754L6.08,2.747L6.065,2.739V2.733V2.726V2.719V2.712
		V2.705H6.052V2.691H6.06H6.052L6.044,2.684L6.052,2.67L6.06,2.663L6.052,2.656H6.06V2.649V2.636L6.044,2.628H6.038H6.03
		l0.008-0.007V2.6L6.03,2.607L6.023,2.6l0.015-0.006L6.03,2.586H6.023H6.03L6.023,2.572L6.017,2.58L6.009,2.586L6.003,2.58V2.565
		H5.996V2.559V2.552L5.989,2.559V2.544H5.981L5.975,2.552V2.544L5.968,2.53L5.96,2.537l0.008-0.014L5.96,2.517v0.007L5.947,2.537
		L5.939,2.53l0.008-0.007L5.939,2.517h0.008H5.939V2.51H5.926V2.502L5.912,2.51v0.007H5.904V2.51V2.496H5.891v0.006L5.884,2.496
		V2.488H5.877H5.863L5.87,2.481H5.863L5.87,2.475H5.863L5.87,2.467L5.863,2.46L5.856,2.467L5.849,2.46v0.007L5.843,2.46l0.006-0.007
		H5.835V2.439L5.828,2.426L5.821,2.419V2.411V2.397V2.377l0.007-0.008l0.007-0.014l0.014-0.007l0.008-0.021L5.849,2.3l0.008-0.007
		l0.007-0.008l0.014-0.006l0.021-0.036l0.006-0.014h0.008l0.007-0.021l0.007-0.007V2.188l0.007-0.006L5.926,2.174l0.007-0.015
		l0.015-0.007V2.146h0.007L5.96,2.125L5.954,2.104H5.96L5.954,2.097L5.947,2.09h0.007L5.947,2.076H5.939l0.008-0.008V2.062
		L5.939,2.055H5.933l0.007-0.006L5.933,2.041l0.007-0.007H5.933V2.027L5.926,2.021l0.014-0.008V2.006h0.008L5.939,1.999l0.008-0.007
		V1.985V1.979V1.971l0.007,0.008V1.971H5.96v0.008l0.008-0.008V1.965h0.007V1.957L5.968,1.951l0.007-0.008V1.937V1.93V1.923H5.968
		l0.007-0.008H5.968l0.014-0.006V1.895v0.007V1.895h0.008h0.007V1.888l0.007,0.007V1.888v0.007h0.021L6.03,1.901l0.014-0.007h0.008
		H6.06h0.006V1.888l0.008-0.007L6.08,1.873V1.867h0.007V1.859h0.007h0.007V1.853V1.846l0.007,0.007h0.007l0.007-0.007H6.114h0.007
		L6.114,1.838h0.007H6.114V1.831h0.007H6.114l0.007-0.014l0.007,0.007V1.817h0.008V1.811h0.007l0.007-0.007H6.143h0.007l0.007,0.007
		L6.149,1.824l0.015-0.007l0.013,0.014l0.008,0.007l0.007-0.007l0.007,0.007l0.007-0.007l0.028-0.021L6.331,1.79l0.141-0.036h0.014
		V1.748L6.492,1.74V1.727L6.472,1.691l0.006-0.007L6.472,1.678L6.485,1.65L6.472,1.614V1.594L6.45,1.573L6.437,1.545L6.442,1.51
		L6.437,1.496l0.006-0.014V1.476L6.415,1.468V1.461H6.408L6.395,1.447L6.372,1.439L6.345,1.419V1.405V1.37l0.014-0.042V1.286
		l0.021-0.027l0.016-0.015l0.014-0.006L6.429,1.23l0.014-0.014V1.21L6.422,1.202l0.015-0.014H6.45l0.007-0.027L6.422,1.119H6.401
		v-0.05H6.395H6.388L6.379,1.077L6.366,1.091L6.353,1.063l0.006-0.008L6.353,1.035l0.02-0.028l0.007-0.021l0.016-0.027l0.007-0.015
		l0.007-0.006L6.395,0.93V0.916L6.379,0.909L6.366,0.896V0.881l0.006-0.007l0.057-0.035l0.008-0.014l0.035,0.007l0.041,0.007
		l0.028,0.015l0.028,0.006l0.028,0.015l0.021,0.007l0.027,0.021l0.014,0.008l0.014,0.007l0.021-0.007h0.008l0.014-0.008l0.014,0.008
		l0.014-0.014L6.75,0.889h0.007l0.014-0.015h0.008l0.014,0.007L6.8,0.874L6.792,0.846L6.785,0.839V0.832L6.771,0.825l0.008-0.021
		l0.007-0.008V0.79V0.783L6.771,0.776L6.765,0.769V0.755L6.757,0.741l0.008-0.034l0.006-0.015l0.015-0.035L6.771,0.637H6.765
		L6.743,0.629V0.623V0.615L6.736,0.602V0.588l0.021-0.015V0.553h0.008l0.021-0.007l0.007-0.007L6.8,0.531L6.792,0.518L6.8,0.504
		l0.014,0.007l0.021-0.007v0.007l0.008,0.021h0.021l0.014,0.021l0.028,0.014l0.027,0.028h0.008l0.007,0.007h0.007l0.021,0.008v0.014
		h0.015v0.021v0.014l0.007,0.008h0.014L7.002,0.686L6.995,0.692v0.007L6.988,0.713h0.007l0.007,0.008h0.015v0.014l0.007,0.007h0.027
		l0.014-0.007h0.015l0.006,0.021h0.016V0.749h0.006l0.028,0.014l0.021-0.021L7.148,0.721h0.007v0.007L7.17,0.741h0.007l0.008-0.007
		h0.013l0.008,0.015h0.007h0.015l0.006-0.008l0.007-0.028l0.015,0.008l0.014-0.021l0.007-0.014h0.007v0.007h0.015l0.021,0.021
		L7.31,0.741h0.014l0.008,0.014l0.021,0.008v0.021v0.027L7.345,0.818v0.007v0.034L7.31,0.896L7.302,0.901v0.015L7.288,0.924v0.014
		L7.274,0.943L7.268,0.958v0.008l0.007,0.006v0.014L7.268,0.993V1L7.254,1.007H7.239v0.007H7.227L7.219,1.021H7.197v0.014
		l0.021,0.014v0.021l0.008,0.014l0.006-0.006v0.006l0.007,0.015l0.028-0.007L7.261,1.083l0.007-0.006l0.007-0.008l0.007-0.006V1.049
		l0.007-0.007V1.035V1.028H7.31h0.007h0.007h0.015l0.007-0.021L7.338,1h0.014V0.979l0.014-0.014l0.034-0.008l0.05,0.027l0.007-0.006
		h0.008V0.972h0.013l0.008-0.006h0.007V0.951h0.007V0.943h0.007l0.008-0.006l0.014,0.006L7.54,0.938l0.015,0.006h0.014h0.007h0.014
		l0.008-0.006v0.006V0.938h0.006V0.93h0.007V0.924V0.916l0.008,0.008V0.916h0.014h0.007V0.909h0.008h0.006V0.901l0.015-0.021
		l0.007-0.014L7.666,0.859l0.007-0.014H7.68v0.008l0.007-0.021l0.007,0.007v0.007l0.015-0.007l0.008-0.007l0.006-0.021h0.008V0.805
		h0.006V0.79l0.008,0.007V0.79l0.021-0.021V0.763h0.014l0.007-0.008h0.008h0.007l0.015,0.014h0.006l0.015-0.006l0.014,0.014
		l0.021-0.014h0.007v0.006h0.008V0.763L7.89,0.755H7.883l0.014-0.006l0.007-0.015H7.91v0.007h0.008l0.021-0.014L7.96,0.707h0.007
		V0.699V0.692l0.007-0.007V0.679l0.006,0.007h0.008V0.679V0.672h0.021l0.007-0.015l0.007,0.008L8.03,0.651L8.021,0.637L8.03,0.644
		h0.006V0.637h0.007h0.015L8.05,0.629V0.623l0.015-0.008l0.007-0.014l0.007,0.008l0.007-0.015l0.007-0.007l0.007,0.007l0.015-0.014
		V0.566L8.127,0.56l0.007-0.014l0.021,0.007V0.546h0.007h0.007V0.539l0.015-0.008L8.176,0.539l0.014,0.007l0.063,0.007H8.26
		l0.008-0.007L8.28,0.524l0.015-0.028l0.007-0.007v0.007l0.007-0.007V0.476l0.042-0.014V0.454l0.014,0.008V0.454V0.448h0.015
		L8.372,0.44l0.014-0.014l0.008,0.008l0.006-0.008h0.007V0.42h0.007l0.021-0.008V0.406h0.008V0.398h0.013l0.008-0.007h0.014V0.385
		v0.007L8.49,0.371h0.008h0.006h0.008V0.356L8.504,0.364H8.498V0.356V0.351l0.006,0.006V0.351V0.336l0.008-0.007h0.006h0.015
		L8.526,0.322H8.518l0.009-0.008L8.518,0.309h0.009l0.006-0.008L8.518,0.295V0.287l0.021,0.008l0.008-0.008L8.539,0.281h0.015H8.56
		V0.272h0.008l0.007-0.006h0.014h0.008V0.259l0.007,0.008l0.007-0.008V0.252h0.007L8.63,0.245V0.23l0.007,0.008l0.007-0.014V0.23
		H8.65h0.007V0.217h0.008V0.203h0.008V0.196L8.687,0.21V0.196l0.006,0.007L8.7,0.196L8.692,0.189L8.7,0.176h0.007l0.007,0.006
		l0.007-0.006H8.714l0.007-0.008l0.007,0.008l0.007-0.021h0.008l0.007-0.007h0.007h0.008l0.013-0.014l0.008-0.008v0.008V0.126h0.007
		h0.007V0.12h0.007V0.112L8.818,0.12V0.105h0.015h0.015l0.007-0.008v0.008L8.86,0.098l0.008,0.008h0.007l0.007-0.008l0.006-0.006
		h0.009V0.084l0.006,0.008l0.007-0.008l0.015-0.006l0.014-0.015l0.021-0.007L8.966,0.05h0.006h0.008v0.007L8.987,0.05V0.042
		L8.993,0.05l0.008-0.008h0.007l0.007-0.006h0.007L9.015,0.028h0.014V0.022L9.05,0.015l0.021,0.014l0.006-0.006h0.008h0.007h0.007
		h0.021l0.008,0.014V0.028H9.119l0.008-0.006l0.007,0.006V0.022V0.015h0.021V0.008V0l0.006,0.008v0.015h0.007v0.006h0.021
		l0.015,0.014H9.21V0.028l0.028,0.008V0.05H9.231l0.007,0.007L9.252,0.05l0.007-0.021h0.008v0.014L9.272,0.05H9.28l0.006-0.008V0.05
		h0.008V0.042H9.3V0.05v0.007h0.009h0.007L9.322,0.05v0.007h0.007l0.007,0.007V0.057l0.007,0.007L9.35,0.05h0.014V0.042H9.37h0.021
		H9.386L9.399,0.05v0.007L9.406,0.05h0.007L9.42,0.063h0.007v0.015V0.063h0.007l0.008,0.015L9.447,0.07l0.008,0.008V0.07h0.007
		l0.007,0.008V0.07l0.007,0.008V0.07h0.008l0.006,0.008V0.07v0.014h0.015l0.007,0.008V0.084l0.006,0.008l0.015-0.008v0.008H9.524
		l0.007,0.006l0.008-0.006v0.006l0.007-0.014L9.56,0.092h0.007L9.56,0.098h0.007v0.008l0.007-0.008l0.008,0.015h0.014L9.601,0.12
		l-0.02,0.027v0.007L9.566,0.168L9.553,0.217L9.546,0.238L9.539,0.245L9.511,0.309L9.504,0.351v0.006L9.497,0.378v0.007v0.007
		l0.007-0.007v0.021h0.007V0.42L9.497,0.427l0.014,0.008H9.497h0.007L9.497,0.44h0.007L9.497,0.448l0.007,0.006V0.448h0.007v0.014
		h0.006l0.008,0.007h0.015l0.042,0.014h0.02l0.008,0.007h0.008h0.006L9.63,0.496h0.027l0.007,0.008l0.007,0.007v0.007L9.664,0.524
		v0.007h0.015l0.006-0.007H9.7v0.007h0.006h0.008l0.007,0.008l0.007,0.007l0.035,0.007L9.776,0.56h0.008l0.013-0.007h0.015
		l0.006,0.014l0.036,0.021L9.86,0.595H9.854v0.015L9.86,0.623h0.007l0.007-0.014l0.007,0.006V0.602h0.015l0.006-0.007h0.008h0.006
		h0.008V0.588L9.909,0.573l0.006-0.007h0.016L9.938,0.56L9.931,0.546l0.007-0.007H9.95V0.531l0.008-0.007h0.007l0.007-0.007
		l0.007,0.007l0.022-0.014l0.027-0.015h0.006h0.015l0.014-0.014l0.007-0.007h0.007l0.015-0.007l0.007,0.007h0.015l0.006-0.007V0.462
		l0.049-0.008h0.008h0.021l0.006-0.006h0.007l0.015,0.006V0.448l0.027,0.014h0.021l0.014,0.014h0.007V0.469L10.3,0.476l0.014,0.007
		l0.008,0.014l0.008-0.007h0.006l0.008-0.014l0.007,0.014h0.007l0.014-0.007h0.007v0.007l0.021,0.015l0.007-0.008l0.021,0.008
		l0.006-0.008l0.021,0.015h0.014l0.008,0.007l0.007,0.021v0.007h0.007l0.007,0.007V0.546l0.007,0.021h0.007V0.56l0.007,0.007
		l0.008,0.007h0.006l0.008-0.007l0.007,0.007h-0.007v0.008l0.014,0.007l0.006,0.014h0.016v0.008l0.007,0.006l0.028,0.021
		l0.014,0.015l0.035,0.006l0.006,0.015l0.015,0.014l0.014,0.007v0.007l0.014-0.007h-0.007h0.015v0.007h0.007l-0.007,0.008
		l0.014,0.006l0.007,0.008l0.008-0.008l0.014,0.015V0.721l0.007,0.014h0.007h-0.007l0.021,0.015l0.013,0.014l0.008-0.014
		l0.014-0.015l0.014,0.007l0.008,0.008l0.006,0.006l0.014,0.021h0.008l0.021,0.007v0.014h0.014h0.007l0.021,0.014l0.021,0.028h0.035
		v0.015l-0.007,0.027l0.027,0.008l0.021,0.013l0.021-0.006l0.008,0.006l0.014,0.022l0.021-0.022h0.007l0.007,0.015l0.008,0.008
		l0.027,0.006l0.007,0.014l0.008-0.006l0.013,0.014l0.015-0.014l0.021-0.014l0.014,0.006l0.014-0.006l0.008,0.006l0.014-0.006V0.909
		h0.006l0.008,0.015h0.015v0.014l0.007,0.006l0.006,0.008l0.015,0.007l0.014,0.014l0.007,0.021h0.007v0.021h0.008h0.007l0.014-0.007
		l0.042-0.014l0.035-0.008l0.007,0.008h0.014l0.028,0.014L11.51,1V0.985h0.014l0.007-0.006h0.014l0.007-0.008l0.015-0.006
		l0.006-0.022h0.016l0.014-0.006l0.027-0.008l0.007-0.006h0.007l0.252,0.229l0.098,0.091l0.077,0.077l0.028,0.021V1.35l0.021,0.146
		l0.007,0.112h0.007h0.021l0.014-0.008h0.007l0.014,0.014l0.021-0.006l0.014-0.008h0.021l0.021,0.014h0.007l0.021,0.008l0.014,0.007
		l0.015,0.007l0.007-0.007l0.007-0.021h0.007l0.028-0.008L12.39,1.58l0.021,0.007l0.021-0.014h0.028l0.021-0.021h0.007V1.531
		l0.008-0.007l0.006-0.007V1.503l0.014,0.015h0.016h0.006h0.008h0.014l0.007,0.035h0.014h0.007l0.028-0.008l0.007-0.007l0.008,0.007
		l0.006-0.014h0.008V1.51V1.503h0.014V1.51l0.028,0.015l0.007,0.014l-0.007,0.015l0.007,0.014l0.014,0.007l0.021-0.007l0.007-0.008
		h0.007l-0.007-0.014l0.007-0.014h0.015l0.013-0.007h0.008v0.007h0.007l0.014,0.021v0.006l0.021,0.008l0.014,0.027h0.008
		l0.008-0.014h0.006l0.015,0.021h0.007l0.008,0.008v0.006l-0.008,0.008l0.014,0.007v0.007l0.027,0.007l-0.006,0.015l0.006,0.014
		h0.016l0.014-0.007h0.021V1.65l0.007-0.015l0.014-0.007l0.007,0.007l0.008,0.007l0.006-0.007l0.015-0.021l0.007,0.008h0.008
		l0.021,0.021l0.007,0.028l0.007,0.007V1.671l0.015,0.014V1.678l0.007,0.007h0.014l0.007,0.007l0.007-0.007l0.014-0.007l0.008,0.007
		h0.007l0.007,0.007l0.008-0.007h0.006h0.008h0.021l0.014-0.007l0.007,0.007l0.008-0.007h0.008h0.006l0.015-0.007h0.007l0.006,0.014
		v0.007h0.008v0.015h0.007v0.006h0.007v0.015h0.007v0.007l0.007-0.007l0.021,0.014h0.007v0.027l-0.014,0.008l0.007,0.007
		l0.007-0.007v0.007h0.007V1.775h0.008h0.006l0.008-0.008v0.015h0.007l0.014-0.007l0.008,0.007h0.006h0.007V1.775l0.015-0.008v0.008
		L13.403,1.79l0.007,0.007h0.007l0.007-0.015h0.007l-0.007,0.021V1.797v0.014h-0.007v0.007l0.007-0.007l0.007,0.007v0.007
		l0.007,0.007h-0.007v0.007h0.014l0.008,0.008h-0.008l0.008,0.007h0.006h0.008l-0.008,0.007h0.008v0.008h0.008V1.859h0.006
		l0.008,0.014h0.006v0.008h0.008V1.873h0.014v0.015h0.021V1.873h0.006h0.029l0.006,0.008h0.008h-0.008l-0.014,0.021v0.008h0.014
		l0.021,0.021v0.014l0.014,0.008l0.007,0.014v0.014h0.015v0.014l0.008,0.007v0.014l-0.022,0.015v0.007h-0.007l-0.007-0.007h-0.007
		l0.007,0.014h0.007l0.007,0.014l-0.007,0.027L13.599,2.09v0.007l-0.014,0.008v0.007l-0.021,0.027l0.008,0.014l0.006,0.007
		l0.008,0.022h-0.021l-0.006,0.006l-0.016,0.008l-0.006,0.027h-0.008l-0.007-0.007h-0.007V2.209h-0.007l-0.007,0.007v0.014
		l-0.014,0.008v0.006l-0.008,0.008l-0.006,0.007l-0.016,0.035l-0.006,0.014v0.007l-0.008,0.021h-0.014v0.014l-0.007,0.014
		L13.41,2.369l-0.007-0.014h-0.008l0.008-0.014l-0.008-0.015l-0.007,0.015l-0.006,0.021l-0.008,0.015h-0.007l-0.014,0.028
		l-0.021,0.021l-0.007,0.007h-0.007v0.014h-0.007l0.007,0.007h0.007v0.021h0.007v0.014v0.008h-0.014l-0.021-0.008l-0.007-0.007
		v0.007h-0.014l-0.021-0.014H13.25l-0.008,0.007v0.007l-0.007-0.007l-0.006,0.007h-0.016L13.2,2.517v0.007l-0.007,0.014
		l-0.007,0.035L13.173,2.6v0.015l0.007,0.007l0.007,0.007L13.18,2.642v0.021L13.165,2.67l-0.014,0.035l-0.014,0.007l0.014,0.007
		l0.014,0.007h0.028L13.2,2.733l0.014-0.008l0.016,0.008v0.014l0.006,0.007v0.014l0.007,0.008l-0.007,0.006v0.008h-0.014v0.007
		l-0.008,0.007v0.021l-0.007,0.014h-0.014l-0.007-0.014l-0.014,0.014h-0.008l-0.006,0.007l-0.015-0.014h-0.007V2.824L13.116,2.81
		l-0.007,0.008l-0.021,0.007h-0.007l-0.008,0.007h-0.007l-0.014-0.007h-0.007h-0.014l-0.008-0.007V2.81h-0.021L12.99,2.817v0.021
		l-0.014,0.028L12.963,2.9l-0.021,0.021h-0.008L12.929,2.95v0.006v0.008l-0.021,0.042V3.02v0.007h0.014v0.008l-0.008,0.041
		l-0.014,0.021l0.008,0.035l0.021,0.008v0.014l-0.016,0.014l0.008,0.021l-0.008,0.007h-0.006v0.015l0.006,0.006v0.014l0.021,0.015
		L12.907,3.25l-0.015,0.021h-0.007v0.015h-0.014v0.014l0.014,0.008L12.872,3.32l0.008,0.007v0.014v0.007v0.007l-0.029,0.014
		l0.021,0.015L12.88,3.39l0.02-0.007l0.014,0.007l0.016,0.015l0.034,0.006v0.008v0.007l0.014,0.021h0.007V3.46h0.015V3.48
		L12.99,3.495l0.008,0.006l0.006,0.008l0.015,0.034l0.021,0.015l0.014-0.015h0.021l-0.007,0.008l0.007,0.015h-0.007v0.006v0.014
		l0.015,0.008l0.007,0.014l0.014-0.014h0.007l0.014,0.021l0.007,0.014l0.008-0.021V3.593l0.007,0.006l0.007,0.015l0.014,0.007
		l-0.006,0.015l0.006,0.007l0.015,0.007l0.007,0.007v0.021l0.007,0.006H13.2l0.007,0.021l0.007,0.007l0.021-0.007l0.007,0.015h0.008
		h0.013l0.015,0.021l-0.007,0.014l0.007,0.015l-0.007,0.014l0.014,0.014l0.007,0.015l-0.007,0.014l0.007-0.007l0.014,0.007
		l0.008,0.015v0.006l-0.035,0.05l-0.056,0.027v0.007l0.008,0.008l0.021,0.014l0.013,0.007v0.027L13.235,3.97l-0.014-0.007h-0.008
		l-0.021-0.014V3.941L13.18,3.949l-0.007-0.014h-0.008l-0.014-0.015h-0.014L13.13,3.928l-0.014-0.007l-0.007,0.007h-0.014V3.921
		h-0.028h-0.014l-0.028-0.007l-0.007,0.014l-0.021-0.021h-0.021l-0.014-0.021h-0.007l-0.021,0.014l-0.021,0.015h-0.021v0.021H12.88
		h-0.015v0.006v0.008l-0.007,0.014l0.007,0.007l-0.015,0.007v0.015l-0.021,0.006l-0.006,0.015L12.815,4.02l-0.014-0.008L12.795,4.02
		l-0.007-0.008l-0.021,0.014L12.76,4.02V4.005h-0.014h-0.014l-0.007,0.007l-0.015-0.007h-0.007h-0.007l0.007-0.021h-0.007V3.977
		H12.69l-0.015,0.007l0.008-0.014l-0.008-0.014h-0.007l-0.007-0.007l-0.007,0.007l-0.007,0.007l-0.007-0.007h-0.008l-0.021,0.027
		l-0.007,0.008l-0.008-0.008h-0.006L12.585,3.97l-0.007,0.014h-0.007l-0.007,0.008l0.133,0.126l0.007,0.049l-0.028,0.007
		l-0.007-0.007l-0.021-0.008h-0.007h-0.014H12.62l-0.007-0.006h-0.007V4.138l-0.014-0.007h-0.015V4.117l-0.007,0.007l-0.007-0.007
		v0.007h-0.007l-0.007,0.007l-0.015,0.014H12.53l-0.008-0.007h-0.008v0.015v0.006v0.008h-0.006l-0.008-0.008l-0.014-0.006
		L12.48,4.158L12.474,4.18h-0.021V4.166h-0.015l-0.007,0.021h-0.008l0.008-0.014L12.411,4.18v0.007v0.007h-0.015l-0.027,0.015v0.014
		l-0.007,0.007v0.008l0.007,0.006V4.25h-0.007v0.007v0.007l0.007,0.007l-0.035,0.027l-0.021,0.021l-0.008,0.007v0.027l0.008,0.008
		v0.021v0.015v0.007H12.3v0.014v0.015h0.021l-0.015,0.006l-0.014,0.008l-0.014,0.021l0.006,0.006l0.091,0.008h0.029l0.034,0.007
		h0.007v0.007v0.007l-0.007,0.063v0.021h-0.007l-0.008,0.056l0.008,0.007v0.007l-0.008,0.008l-0.007,0.006h-0.006v0.008l0.013,0.007
		l-0.007,0.007l0.015-0.007v0.007h0.007l-0.007,0.007h0.014l0.015,0.015h0.014l0.007,0.007l0.034,0.007l0.008,0.007l0.008,0.042
		v0.008v0.041l0.014,0.015l-0.008,0.006l0.015,0.008v0.007v0.008l-0.007,0.006l-0.008,0.007L12.53,4.886l-0.008-0.008l-0.008,0.008
		l-0.014,0.007h-0.062h-0.021h-0.033h-0.015h-0.015l-0.014-0.021V4.865l-0.007-0.008l-0.007-0.015l-0.014,0.008H12.3h-0.008h-0.062
		l-0.014,0.021l0.006,0.015l-0.006,0.014h0.006l-0.006,0.007l0.006,0.007h0.008l0.014,0.021l0.007-0.008V4.92V4.906l0.014,0.014
		h0.007l0.021-0.007L12.3,4.92l0.006,0.015v0.007h0.008h0.007l0.014,0.007l0.007,0.014l0.007,0.007v0.015h0.007l0.008,0.007
		l0.021,0.006v0.008h0.013v0.007l0.008,0.014h0.007v0.008l0.006,0.007h0.007h0.008h0.007l0.007-0.007v0.007v0.007h-0.007
		l-0.027,0.021h-0.015v0.015L12.39,5.089l0.015,0.013l-0.008,0.015l0.008,0.007h0.007v0.014h0.021l0.007,0.015l0.007-0.008h0.008
		v0.015l0.007-0.007v0.014v0.007h0.007h0.014l0.007,0.007l0.008,0.007v0.008h0.006l0.008,0.006v0.015h0.014l-0.008,0.014
		l0.008,0.008l0.008,0.006v0.015h0.006v0.007h0.008L12.536,5.27l0.008,0.007v0.015l-0.008,0.006H12.53v0.015l0.006,0.007
		L12.53,5.325h0.006l0.015,0.007v0.021h-0.015L12.522,5.36l0.008,0.007h0.014l-0.008,0.007v0.007h0.008h0.007h0.007l0.007,0.008
		l-0.007,0.014h-0.007L12.544,5.41h-0.008L12.53,5.43v0.015l0.014,0.007l-0.008,0.007v0.008l-0.027,0.021v0.008v0.014l-0.008,0.006
		v0.008l0.008,0.007v0.014l0.014,0.008l-0.008,0.006v0.008l-0.02,0.027v0.007H12.46l-0.021-0.007l-0.021-0.007v0.014l0.007,0.014
		l-0.007,0.021l0.007,0.014l0.008,0.015v0.007l-0.021,0.007v0.007H12.39v0.014h-0.006h-0.009l-0.006,0.008h-0.007l-0.008,0.035
		l-0.007,0.007h-0.007h-0.007l-0.007,0.014l-0.014,0.007H12.3l-0.008,0.007l-0.008,0.021l0.008,0.007l-0.008,0.007v0.015v0.006
		l-0.006,0.015l0.006,0.007l-0.014,0.007V5.87l0.014,0.008l0.008,0.014h-0.008v0.007L12.3,5.905L12.292,5.92L12.284,5.94h-0.006
		l0.006,0.014v0.007h-0.006v0.043L12.271,6.01l-0.014,0.015L12.25,6.018l-0.021,0.007v0.014l-0.014,0.021h-0.008L12.2,6.053
		l-0.014,0.006h-0.027l-0.007,0.008l-0.007,0.028l-0.007,0.006l0.007,0.015v0.008l0.007,0.014L12.139,6.15v0.021l-0.008,0.008
		l-0.007,0.006v0.008l-0.007,0.021L12.11,6.22v0.015l-0.007,0.014l0.007,0.007l-0.014,0.014h0.007l-0.007,0.007L12.089,6.29
		l-0.007,0.007v0.007l-0.007,0.021l-0.021,0.014l-0.008-0.007l-0.006,0.007v0.007h-0.042h-0.217h-0.098v0.007l-0.008,0.007v0.008
		v0.027l-0.006,0.007l-0.008,0.021l0.008,0.007l-0.008,0.008h-0.021v0.006l-0.007,0.008l-0.014,0.006l-0.007,0.008l-0.007,0.007
		h-0.007h-0.008l0.008,0.014l-0.014,0.008v0.006l-0.008,0.021h0.014v0.007l0.015,0.035l0.034,0.006v0.015v0.014v0.036l-0.007,0.014
		v0.021l-0.007,0.007l0.007,0.021v0.007v0.007h-0.014l-0.007,0.008v0.007l-0.014,0.021v0.014l-0.008,0.008l-0.006,0.007v0.007
		l0.006,0.007h0.021h0.014L11.621,6.8l0.007,0.008V6.8l0.007,0.008l-0.007,0.006l-0.007,0.008h-0.007l0.007,0.006l-0.014,0.008
		L11.601,6.85l-0.008,0.006v0.008l-0.006,0.006l-0.008,0.008l0.008,0.007l-0.008,0.008h-0.008l0.008,0.006l0.008,0.021h-0.008V6.911
		h-0.014v0.015v0.007v0.007l-0.008,0.007l0.008,0.008l-0.008,0.007h-0.014l-0.007,0.006H11.53h-0.007H11.51l0.007,0.008
		l-0.015,0.028l0.015,0.014L11.51,7.023L11.502,7.03l-0.014,0.008l-0.007,0.007l0.007,0.007l-0.015,0.007v0.014L11.468,7.08
		l0.006,0.007l-0.006,0.014V7.094L11.46,7.101v0.014l-0.021-0.007l-0.007,0.007l-0.021-0.007h-0.015l-0.007,0.007L11.37,7.122
		h-0.021l-0.007-0.008l-0.015,0.014L11.32,7.136v0.007h-0.007l-0.007-0.007l-0.015,0.007l-0.013,0.014v0.008l0.013,0.006v0.008
		l0.015,0.014h0.007l0.007,0.006h0.007h0.007l0.015,0.015l0.008,0.008v0.006h-0.015L11.334,7.22v0.006v0.008V7.24l-0.021,0.021
		v0.006H11.3v0.014l-0.008,0.008v0.007h-0.027v0.015v0.014h-0.008l-0.006,0.014l-0.008,0.007l-0.006,0.007v0.008l-0.008,0.007v0.007
		h-0.007l0.015,0.028l-0.008,0.007v0.014l0.008,0.007V7.422l0.006,0.007l-0.006,0.014l0.006,0.008l-0.006,0.007l-0.008,0.007
		l-0.014,0.007l-0.007,0.008l-0.007,0.006v0.028l-0.007,0.014v0.008h0.007l0.007,0.006l-0.014,0.008l0.007,0.006l-0.007,0.008
		l0.007,0.014l-0.015,0.008V7.59l-0.014,0.006h0.007l0.015,0.008L11.188,7.61l-0.007,0.007h-0.015L11.159,7.61l-0.006,0.007v0.021
		l-0.008,0.007v0.007v0.007l-0.007,0.015l0.021,0.007v0.007l0.015,0.021l-0.008,0.007l-0.013,0.007l-0.008,0.021h-0.014
		l-0.007,0.008v0.006l-0.008,0.008v0.007l-0.021,0.007v0.007l0.007,0.008l-0.021,0.014l-0.008,0.007l-0.02,0.027l0.007,0.008h0.007
		l-0.014,0.014l0.007,0.007h0.007h0.014v0.014l0.007,0.008h0.007l0.007-0.008h0.008h0.006h0.008l0.014,0.008l0.007,0.006h-0.007
		l0.007,0.015l0.008-0.007l0.006,0.007v0.014v0.007v0.007v0.008L11.117,7.96v0.007L11.09,7.974h-0.021L11.048,7.98h-0.006
		l-0.008,0.015l-0.07,0.021l-0.006,0.008l-0.07,0.027l-0.049,0.021v0.014l-0.014,0.008h-0.008h-0.007L10.796,8.1l-0.027,0.008
		l-0.021,0.006l-0.006,0.008l-0.043,0.014l-0.041,0.021l-0.008,0.008l-0.027,0.014l-0.056,0.015L10.53,8.204v0.008l-0.027,0.027
		l-0.042,0.014l-0.015,0.008H10.44l-0.027,0.021h-0.008l-0.021,0.007L10.37,8.295v0.008l0.007,0.007L10.37,8.316l-0.014,0.021
		l-0.027,0.007V8.338h-0.016H10.3l-0.021,0.007v0.014l-0.014,0.007l-0.007-0.014L10.251,8.33V8.323l0.021-0.014V8.295V8.281h-0.014
		h-0.008l-0.014-0.007V8.268h-0.008l-0.027,0.021l-0.006-0.007V8.274l-0.008,0.007h-0.007l-0.007-0.007h-0.008L10.16,8.268V8.261
		l-0.006-0.008l-0.009,0.008L10.14,8.253l-0.007,0.008h-0.015l-0.021,0.007l-0.014-0.007l-0.008-0.008l-0.007,0.008h-0.014
		l-0.007-0.008h-0.007l-0.014,0.008v0.007l-0.021,0.014L9.979,8.303H9.965L9.958,8.31L9.931,8.323H9.915H9.901H9.888V8.316
		L9.881,8.31H9.874L9.867,8.323L9.832,8.33L9.825,8.338L9.817,8.33L9.804,8.323V8.303L9.797,8.31H9.79L9.784,8.323H9.776V8.33v0.008
		H9.77V8.323L9.763,8.33L9.748,8.316H9.741H9.734v0.007H9.721v0.015L9.714,8.345V8.338L9.706,8.323H9.692L9.685,8.33H9.679H9.664
		L9.65,8.352L9.644,8.345H9.637V8.338L9.622,8.33H9.63L9.622,8.323V8.316H9.616H9.608L9.581,8.338H9.573H9.566L9.553,8.345
		L9.539,8.352L9.524,8.345L9.517,8.352H9.511v0.007L9.504,8.352v0.014H9.489L9.483,8.372L9.441,8.386L9.427,8.394H9.42L9.399,8.4
		v0.007H9.392L9.386,8.414H9.378L9.37,8.422L9.356,8.407H9.336v0.007L9.309,8.422H9.3v0.014H9.294L9.286,8.442V8.436L9.272,8.428
		v0.008v0.007L9.259,8.45L9.252,8.442V8.45v0.006V8.47H9.245H9.238L9.231,8.478L9.225,8.47L9.217,8.483L9.21,8.491H9.203H9.196
		H9.188L9.183,8.505L9.168,8.512H9.161V8.505L9.146,8.512V8.52L9.134,8.525L9.127,8.533L9.119,8.525L9.112,8.533L9.105,8.505v0.007
		L9.099,8.505H9.092H9.085L9.077,8.512V8.505L9.071,8.52H9.057L9.05,8.525L9.042,8.52H9.028H9.015L9.008,8.512L8.993,8.525
		L8.987,8.533H8.979H8.972V8.52h-0.02H8.944L8.931,8.512L8.924,8.52H8.917H8.909L8.902,8.533V8.54v0.007L8.896,8.54L8.868,8.567
		L8.848,8.575v0.007L8.833,8.589v0.007H8.818V8.589L8.798,8.596L8.791,8.589L8.776,8.596L8.771,8.589H8.764L8.742,8.596L8.734,8.604
		v0.014L8.714,8.624v0.007L8.7,8.645v0.008L8.692,8.645H8.679L8.665,8.638L8.65,8.645L8.63,8.631H8.623L8.609,8.645H8.596
		L8.581,8.652H8.574L8.567,8.658H8.56L8.554,8.666L8.547,8.68v0.007L8.532,8.694L8.518,8.701H8.512H8.498L8.49,8.694H8.483
		L8.477,8.701L8.463,8.708L8.455,8.729H8.442H8.413l-0.02,0.014L8.386,8.75L8.358,8.742H8.351H8.337H8.322V8.736L8.309,8.742
		L8.288,8.75L8.268,8.764L8.253,8.757L8.245,8.764L8.231,8.771H8.226L8.218,8.778L8.204,8.784H8.197L8.184,8.798L8.176,8.806v0.007
		l0.008,0.007L8.169,8.834L8.142,8.84H8.134L8.12,8.848H8.113L8.078,8.868l0.007,0.008L8.078,8.89v0.007H8.071L8.064,8.903
		L8.043,8.896L8.008,8.903L8.001,8.91H7.987L7.979,8.924H7.967L7.945,8.938H7.938H7.925l0.006-0.021L7.925,8.91L7.918,8.903H7.903
		L7.896,8.896L7.89,8.89H7.883L7.861,8.876H7.854l0.007,0.006L7.848,8.917L7.834,8.91L7.806,8.932H7.799L7.792,8.938H7.784
		L7.757,8.945L7.749,8.938V8.932l0.008-0.008L7.777,8.91L7.771,8.896H7.757V8.882L7.743,8.896h0.006L7.743,8.903H7.729L7.716,8.924
		L7.68,8.932L7.666,8.938H7.659L7.646,8.924l0.006-0.007V8.91l0.015-0.014H7.659l0.007-0.015h0.007L7.666,8.868V8.862L7.651,8.854
		L7.631,8.868L7.609,8.862L7.603,8.868v0.008L7.597,8.882L7.589,8.89l0.008,0.007v0.007h0.013l0.008,0.021l0.014,0.008v0.007h0.007
		L7.617,8.945L7.609,8.952L7.597,8.945H7.582v0.007L7.575,8.959H7.568v0.008L7.547,8.974L7.54,8.98L7.513,8.987L7.505,9.016
		l0.014,0.014h0.008l0.021-0.007l0.021-0.007h0.007h0.021h0.006H7.597l0.013,0.021v0.015h0.008v0.014L7.609,9.071H7.603L7.597,9.085
		v0.008l0.006,0.006l0.007,0.008h0.008v0.006H7.603L7.597,9.106H7.589L7.582,9.093L7.575,9.085L7.568,9.099H7.555l0.006,0.036v0.006
		L7.555,9.148L7.54,9.154H7.533L7.526,9.148V9.135L7.513,9.127v0.008L7.498,9.127v0.008H7.484H7.477L7.47,9.148H7.464v0.014v0.006
		H7.456L7.442,9.176H7.436V9.162V9.154H7.429V9.141V9.135H7.414V9.127l0.007-0.015H7.414L7.399,9.12v0.007L7.386,9.141H7.372
		L7.365,9.148L7.358,9.154L7.345,9.162L7.331,9.168v0.008L7.316,9.183L7.31,9.19L7.288,9.183L7.268,9.196L7.239,9.19L7.219,9.196
		L7.205,9.211H7.19L7.177,9.225L7.162,9.218L7.17,9.211L7.177,9.19V9.183L7.17,9.162V9.154L7.162,9.162L7.128,9.168L7.121,9.162
		L7.114,9.168L7.079,9.183L7.071,9.196L7.064,9.19H7.051V9.176H7.044H7.03L7.017,9.196L6.995,9.19L6.974,9.196L6.968,9.204
		L6.946,9.196L6.939,9.183L6.932,9.176V9.168H6.926V9.162h0.014L6.932,9.141l0.008-0.006L6.932,9.127V9.112l0.015-0.027L6.96,9.078
		V9.071h0.008V9.064l0.006-0.008V9.051H6.953L6.946,9.057L6.932,9.036H6.926V9.029L6.918,9.036H6.904L6.884,9.022v0.007L6.869,9.022
		V9.016H6.855L6.849,8.994H6.834L6.827,8.987L6.834,8.98L6.827,8.974V8.967l0.007-0.008l0.015,0.008V8.959l0.021-0.007l0.007-0.007
		L6.89,8.952l0.008-0.007l0.007,0.007L6.897,8.959h0.007l0.014-0.007V8.938L6.911,8.932L6.904,8.924H6.89L6.884,8.917V8.91
		l0.021-0.007L6.884,8.882l0.014-0.014H6.876V8.854l0.021-0.021V8.819L6.89,8.826H6.884L6.869,8.819V8.812H6.855V8.798H6.842H6.82
		L6.813,8.792L6.8,8.798V8.784L6.765,8.771l0.006-0.007V8.75L6.757,8.742H6.75V8.736l0.007-0.008L6.75,8.723H6.736L6.729,8.729
		V8.723L6.723,8.715H6.708H6.702L6.688,8.708v0.007L6.667,8.708L6.659,8.701H6.652V8.694L6.632,8.687V8.68l0.007-0.021L6.632,8.652
		l0.007-0.015H6.625L6.618,8.624H6.61V8.617H6.604V8.609V8.604L6.598,8.596V8.589H6.589V8.582H6.583L6.576,8.575h0.007l0.015-0.014
		L6.589,8.547L6.598,8.54L6.589,8.533V8.525L6.598,8.52l0.006-0.015L6.61,8.512L6.604,8.498l0.021-0.015L6.618,8.478l0.014-0.035
		L6.625,8.436h0.007h0.007h0.014l0.007-0.021l0.028-0.007l0.015-0.014V8.386H6.688L6.681,8.365L6.667,8.358L6.652,8.345L6.632,8.352
		L6.618,8.345H6.61H6.604H6.598H6.589H6.583L6.576,8.338V8.33V8.323h0.007L6.589,8.33l0.015-0.007h0.015l0.021-0.007V8.31
		L6.625,8.303L6.61,8.288l0.008-0.014h0.007V8.268l0.014,0.007l0.007-0.007V8.261h0.007l0.007-0.008l0.021,0.015h0.007V8.261V8.253
		V8.247L6.681,8.239L6.673,8.226H6.667L6.659,8.219L6.646,8.197V8.183L6.632,8.177l0.007-0.014L6.625,8.149l0.007-0.008h0.007
		l0.007-0.007l0.007-0.014L6.646,8.113V8.107L6.632,8.086H6.625H6.618L6.61,8.072l0.008-0.015l0.014-0.007V8.044l0.021-0.021
		L6.646,8.01h0.007l0.007-0.008h0.014V7.995V7.974V7.967V7.96l0.008-0.014L6.673,7.932V7.925l0.008-0.007V7.904l0.042,0.007
		l0.014-0.007V7.883L6.75,7.876h0.007L6.75,7.862l0.007-0.008h0.014V7.841l0.015-0.007V7.827L6.778,7.82l0.007-0.007V7.807
		l0.007-0.014V7.785L6.8,7.778h0.007V7.771L6.792,7.757L6.785,7.751L6.778,7.736l0.007-0.007V7.716L6.8,7.701L6.792,7.695V7.681
		L6.785,7.674V7.666V7.659H6.778H6.771L6.757,7.652H6.743L6.729,7.646V7.639L6.702,7.652v0.007L6.688,7.652L6.681,7.646l0.007-0.007
		H6.681V7.632L6.673,7.625H6.667L6.659,7.61L6.652,7.604V7.596V7.59V7.583V7.568H6.639H6.632L6.625,7.583H6.618L6.61,7.59
		L6.604,7.596L6.589,7.617L6.583,7.604L6.576,7.596v0.008H6.562L6.541,7.59L6.534,7.583l0.007-0.015H6.534H6.52L6.513,7.575
		L6.506,7.583L6.478,7.575H6.464L6.457,7.583V7.59L6.45,7.596H6.437v0.008H6.429V7.61L6.408,7.617L6.401,7.625H6.395L6.388,7.632
		H6.372v0.007L6.366,7.632L6.358,7.639L6.345,7.632L6.339,7.639L6.331,7.632H6.324H6.317L6.303,7.639V7.632L6.297,7.639L6.289,7.632
		H6.282L6.275,7.625h0.007V7.617L6.275,7.604h0.007L6.289,7.59L6.282,7.575l0.007-0.007l0.008-0.007L6.289,7.554L6.275,7.548
		L6.269,7.534V7.526L6.261,7.513H6.255l0.006-0.007L6.247,7.492V7.484V7.471L6.24,7.457V7.45H6.233L6.227,7.437L6.213,7.442V7.429
		L6.22,7.422V7.415l0.007-0.007H6.22H6.198H6.191v0.007L6.185,7.401L6.171,7.381V7.373L6.164,7.366l0.007-0.021L6.149,7.324
		l0.015-0.007V7.311V7.304h0.013V7.296L6.156,7.289L6.149,7.281H6.143l0.007-0.02L6.143,7.247L6.136,7.226L6.128,7.205l0.008-0.008
		V7.184l0.007-0.02L6.136,7.156L6.121,7.149L6.114,7.136H6.101L6.094,7.122V7.107H6.073L6.06,7.094L6.044,7.066L6.06,7.03
		l0.014-0.027L6.06,6.975l0.014-0.008L6.08,6.946h0.007l0.007-0.007l0.007-0.028h0.007L6.101,6.897l0.014-0.014V6.877l0.007-0.008
		l0.015,0.008h0.035V6.869l0.006-0.006L6.185,6.85V6.835l0.007-0.014V6.813V6.808L6.177,6.8V6.786V6.779L6.164,6.772V6.766V6.758
		V6.751H6.156L6.143,6.724l0.007-0.007L6.143,6.702V6.688H6.136L6.128,6.674L6.101,6.667L6.087,6.66H6.073L6.052,6.639L6.03,6.633
		L6.023,6.618H6.009l-0.02-0.014V6.597l0.007-0.006V6.583H5.989V6.576l0.007-0.008H5.989l0.007-0.006H5.989l0.007-0.008L5.989,6.549
		l0.007-0.014H5.989V6.527V6.521V6.514L5.981,6.493l0.015-0.008L5.989,6.479h0.007V6.472V6.457h0.007v-0.02l0.006-0.015h0.008
		L6.03,6.401h0.008l0.014-0.034V6.359L6.038,6.339L6.03,6.325H6.023V6.304L6.017,6.29H6.009l-0.02-0.008L5.975,6.255L5.947,6.248
		L5.933,6.234H5.919L5.904,6.213H5.877H5.87L5.863,6.192L5.835,6.179V6.165V6.157L5.849,6.15V6.144V6.137L5.843,6.123L5.828,6.108
		L5.807,6.088V6.08L5.8,6.088L5.794,6.095H5.779L5.765,6.108H5.737L5.723,6.115v0.008H5.695L5.681,6.129V6.15L5.66,6.171H5.646
		L5.632,6.179L5.618,6.165L5.611,6.157L5.598,6.144V6.137V6.129L5.562,6.101H5.556L5.534,6.108L5.521,6.115L5.499,6.108H5.465
		L5.431,6.123L5.415,6.115H5.409L5.395,6.137L5.388,6.144V6.15v0.007v0.008h0.007l0.007,0.006v0.008L5.395,6.192v0.014V6.22
		L5.388,6.234L5.367,6.255H5.36L5.331,6.24L5.317,6.22L5.311,6.185l-0.027-0.02H5.275L5.27,6.171v0.035L5.262,6.22L5.255,6.234
		L5.241,6.255L5.22,6.248L5.214,6.269L5.185,6.282H5.164L5.144,6.275L5.13,6.262L5.108,6.255L5.101,6.234H5.094H5.087L5.08,6.227
		L5.073,6.206L5.052,6.171L5.039,6.165L5.031,6.157H5.011L5.003,6.165l0.008,0.006L5.003,6.206v0.007l0.036,0.035v0.007L5.031,6.269
		H5.024L5.011,6.275H4.989H4.982H4.976L4.969,6.269L4.955,6.255L4.934,6.248H4.913L4.899,6.255H4.892H4.877H4.87L4.843,6.248
		L4.808,6.255H4.794L4.759,6.269H4.729H4.71L4.688,6.262H4.661L4.646,6.269L4.619,6.297L4.599,6.304H4.577L4.571,6.297H4.549
		L4.514,6.282H4.507L4.485,6.29L4.458,6.297H4.417H4.41L4.389,6.311L4.381,6.317L4.374,6.339l0.007,0.014v0.007L4.374,6.367
		L4.36,6.381L4.347,6.409V6.43v0.008l0.014,0.02L4.354,6.493l0.015,0.034v0.008v0.014v0.006L4.354,6.583L4.347,6.591H4.332
		L4.27,6.549L4.263,6.541L4.27,6.423V6.401L4.263,6.346L4.248,6.311L4.242,6.297L4.214,6.29L4.2,6.282H4.173L4.165,6.29L4.137,6.346
		L4.109,6.409L4.095,6.423L4.053,6.451v0.006H4.046L4.032,6.451L3.997,6.443H3.989L3.962,6.401V6.388L3.956,6.367L3.92,6.304V6.248
		L3.913,6.234V6.227V6.198l0.015-0.055l0.014-0.015h0.021l0.015-0.006V6.108V6.095L3.97,6.088H3.962L3.928,6.08L3.906,6.088
		L3.886,6.101L3.864,6.108L3.78,6.101H3.76L3.731,6.073L3.725,6.066L3.711,6.038L3.689,6.031L3.661,6.024L3.655,6.031H3.634
		L3.606,6.038L3.585,6.045v0.008H3.571h-0.07L3.466,6.045H3.46H3.424H3.417L3.375,6.053L3.354,6.066H3.333H3.312L3.299,6.059
		L3.243,6.038L3.187,6.045L3.173,6.038H3.159L3.151,6.031L3.123,6.004L3.11,5.996L3.103,5.989H3.096H3.061L3.04,5.996H3.032
		L3.026,5.989L2.998,5.982H2.978L2.948,5.996L2.906,5.982L2.879,5.989H2.872L2.858,5.982H2.837V5.968L2.815,5.961L2.774,5.912
		L2.753,5.905L2.731,5.898L2.719,5.892L2.704,5.898L2.689,5.905H2.67L2.655,5.912L2.642,5.926H2.62H2.606L2.6,5.94L2.578,5.968
		L2.564,5.975L2.551,5.989L2.53,6.024H2.522L2.509,6.031H2.502l-0.05,0.014L2.397,6.059H2.383v0.008L2.361,6.08L2.334,6.088
		L2.327,6.095L2.306,6.115H2.292H2.277H2.264v0.014L2.243,6.144L2.229,6.157H2.223H2.208v0.008L2.173,6.213L2.166,6.198l-0.014-0.02
		l0.007-0.008L2.166,6.15V6.123L2.152,6.088l0.021-0.05V6.031V6.024V6.018L2.159,5.996L2.152,5.982V5.954V5.92L2.139,5.905V5.898z"
		/>
	<path id="Rio_de_Janeiro" fill="#E7EBEB" d="M8.47,9.525l0.007-0.007V9.511V9.505L8.49,9.497h0.008V9.491h0.006l0.008-0.008h0.015
		l0.006-0.007L8.526,9.463l0.013-0.008L8.532,9.449l0.015-0.008L8.539,9.435l0.008-0.008H8.539l0.008-0.014H8.539V9.407H8.532
		l0.007-0.008V9.393V9.386V9.379l0.008-0.007V9.365l0.007-0.008V9.344L8.56,9.337V9.33H8.554L8.56,9.315L8.554,9.309L8.56,9.302
		V9.295V9.288h0.008h0.007h0.014h0.008h0.007V9.281l0.007-0.008L8.603,9.267l0.014-0.014l0.021-0.015l0.007-0.006L8.65,9.238h0.007
		h0.008h0.008l0.014-0.021L8.7,9.232l0.021-0.015V9.211l0.007-0.007L8.756,9.19h0.008l0.021-0.015L8.805,9.19l0.014-0.008
		l0.015-0.015l0.015-0.006L8.86,9.148h0.008h0.014l0.006,0.006L8.882,9.168h0.006v0.008h0.009v0.007l0.021-0.007h0.007l0.007-0.008
		l0.007-0.014l0.007-0.006h0.008h0.014v0.006h0.006h0.008h0.014l0.049-0.02L9.05,9.141L9.042,9.148H9.05V9.141l0.021-0.014h0.014
		v0.008l0.014-0.008l0.014-0.028h0.015V9.093V9.085H9.112l0.007-0.007L9.112,9.071V9.064l0.007-0.014h0.015L9.127,9.043l0.02-0.021
		h0.021l0.008-0.007H9.168V9.009h0.008l0.013-0.008l0.008-0.007V8.98h0.007L9.21,8.974V8.967V8.959L9.196,8.945L9.183,8.932
		l0.006-0.008L9.183,8.917H9.176L9.168,8.91V8.896H9.161L9.155,8.903L9.146,8.89H9.141H9.127L9.119,8.896L9.099,8.882L9.085,8.89
		v0.007L9.077,8.882H9.071H9.062L9.057,8.876L9.05,8.882L9.042,8.868L9.028,8.876L9.021,8.868v0.008v0.006L9.015,8.876v0.006
		l0.007,0.015H9.015H9.008V8.876H9.001l0.007-0.014H9.001H8.993L8.979,8.854H8.972v0.008L8.958,8.868v0.008l0.008,0.006V8.89H8.958
		L8.952,8.882H8.938L8.924,8.89L8.917,8.896H8.909L8.902,8.903L8.888,8.896L8.882,8.89H8.875l0.007,0.007L8.86,8.924H8.854
		L8.848,8.917H8.833H8.826l0.007,0.007H8.826V8.917L8.84,8.903H8.833H8.826L8.812,8.89L8.798,8.896L8.791,8.882L8.776,8.91H8.771
		L8.764,8.896L8.756,8.89v0.007L8.749,8.903L8.734,8.89L8.728,8.896L8.721,8.89H8.714V8.868V8.862L8.721,8.84L8.714,8.834
		L8.707,8.84L8.7,8.834L8.679,8.84V8.826l0.008-0.007L8.679,8.806L8.673,8.798H8.665L8.657,8.792H8.644V8.778V8.771H8.637
		L8.63,8.764L8.637,8.75V8.742L8.63,8.715L8.616,8.701L8.603,8.687H8.588L8.574,8.68H8.547l0.007-0.014L8.56,8.658h0.008
		l0.007-0.006h0.007l0.015-0.008h0.014l0.014-0.014H8.63L8.65,8.645l0.015-0.007l0.014,0.007h0.014L8.7,8.652V8.645l0.014-0.014
		V8.624l0.021-0.007V8.604l0.008-0.008l0.021-0.007h0.007l0.006,0.007l0.015-0.007l0.007,0.007l0.021-0.007v0.007h0.015V8.589
		l0.015-0.007V8.575l0.021-0.008L8.896,8.54l0.006,0.007V8.54V8.533L8.909,8.52h0.008h0.007l0.007-0.008L8.944,8.52h0.008h0.02
		v0.014h0.008h0.008l0.006-0.008l0.015-0.014L9.015,8.52h0.014h0.014L9.05,8.525L9.057,8.52h0.015l0.006-0.015v0.007l0.008-0.007
		h0.007h0.007l0.007,0.007V8.505l0.007,0.028l0.007-0.008l0.008,0.008l0.007-0.008L9.146,8.52V8.512l0.015-0.007v0.007h0.007
		l0.015-0.007l0.006-0.014h0.008h0.007H9.21l0.007-0.008L9.225,8.47l0.007,0.008L9.238,8.47h0.007h0.007V8.456V8.45V8.442
		L9.259,8.45l0.014-0.008V8.436V8.428l0.014,0.008v0.007l0.008-0.007H9.3V8.422h0.009l0.027-0.008V8.407h0.021L9.37,8.422
		l0.008-0.008h0.008l0.006-0.007h0.008V8.4L9.42,8.394h0.007l0.015-0.008l0.042-0.014l0.006-0.007h0.015V8.352l0.007,0.007V8.352
		h0.006l0.008-0.007l0.015,0.007l0.014-0.007l0.014-0.007h0.007h0.008l0.027-0.021h0.008h0.006v0.007L9.63,8.33H9.622l0.015,0.008
		v0.007h0.007L9.65,8.352L9.664,8.33h0.015h0.006l0.008-0.007h0.014l0.008,0.015v0.007l0.007-0.007V8.323h0.014V8.316h0.007h0.007
		L9.763,8.33L9.77,8.323v0.015h0.007V8.33V8.323h0.008L9.79,8.31h0.007l0.007-0.007v0.021L9.817,8.33l0.008,0.008L9.832,8.33
		l0.035-0.007L9.874,8.31h0.007l0.007,0.007v0.007h0.014h0.014h0.016L9.958,8.31l0.007-0.007h0.014l0.028-0.021l0.021-0.014V8.261
		l0.014-0.008h0.007l0.007,0.008h0.014l0.007-0.008l0.008,0.008l0.014,0.007l0.021-0.007h0.015l0.007-0.008l0.006,0.008l0.009-0.008
		l0.006,0.008v0.007l0.007,0.007h0.008l0.007,0.007h0.007l0.008-0.007v0.007l0.006,0.007l0.027-0.021h0.008v0.007l0.014,0.007h0.008
		h0.014v0.014V8.31l-0.021,0.014V8.33l0.008,0.021l0.007,0.014l0.014-0.007V8.345L10.3,8.338h0.014h0.016v0.007l0.027-0.007
		l0.014-0.021l0.007-0.007L10.37,8.303V8.295l0.014-0.007l0.021-0.007h0.008l0.027-0.021h0.006l0.015-0.008l0.042-0.014l0.027-0.027
		V8.204l0.036-0.013l0.056-0.015l0.027-0.014l0.008-0.008l0.041-0.021l0.043-0.014l0.006-0.008l0.021-0.006L10.796,8.1l0.015-0.006
		h0.007h0.008l0.014-0.008V8.072l0.049-0.021l0.07-0.027l0.006-0.008l0.07-0.021l0.008-0.015h0.006l0.021-0.007h0.021l0.027-0.007
		V7.96l0.042-0.014V7.938V7.932V7.925V7.911l-0.006-0.007l-0.008,0.007l-0.007-0.015h0.007l-0.007-0.006l-0.014-0.008h-0.008h-0.006
		h-0.008l-0.007,0.008H11.09l-0.007-0.008V7.869h-0.014h-0.007l-0.007-0.007l0.014-0.014h-0.007l-0.007-0.008l0.02-0.027
		l0.008-0.007l0.021-0.014l-0.007-0.008V7.778l0.021-0.007V7.765l0.008-0.008V7.751l0.007-0.008h0.014l0.008-0.021l0.013-0.007
		l0.008-0.007l-0.015-0.021V7.681l-0.021-0.007l0.007-0.015V7.652V7.646l0.008-0.007V7.617l0.006-0.007l0.007,0.007h0.015
		l0.007-0.007l0.008-0.007l-0.015-0.008h-0.007l0.014-0.006V7.583l0.015-0.008l-0.007-0.014l0.007-0.008l-0.007-0.006l0.014-0.008
		l-0.007-0.006h-0.007V7.526l0.007-0.014V7.484l0.007-0.006l0.007-0.008l0.014-0.007l0.008-0.007l0.006-0.007l-0.006-0.008
		l0.006-0.014l-0.006-0.007v0.007l-0.008-0.007V7.408l0.008-0.007l-0.015-0.028h0.007V7.366l0.008-0.007V7.352l0.006-0.007
		l0.008-0.007l0.006-0.014h0.008V7.311V7.296h0.027V7.289L11.3,7.281V7.268h0.014V7.262l0.021-0.021V7.233V7.226V7.22l0.008,0.006
		h0.015V7.22l-0.008-0.008l-0.015-0.015h-0.007H11.32l-0.007-0.006h-0.007l-0.015-0.014V7.17l-0.013-0.006V7.156l0.013-0.014
		l0.015-0.007l0.007,0.007h0.007V7.136l0.007-0.008l0.015-0.014l0.007,0.008h0.021l0.021-0.008l0.007-0.007h0.015l0.021,0.007
		l0.007-0.007l0.021,0.007V7.101l0.008-0.007v0.007l0.006-0.014L11.468,7.08l0.006-0.008V7.059l0.015-0.007l-0.007-0.007
		l0.007-0.007l0.014-0.008l0.008-0.007l0.007-0.007l-0.015-0.014l0.015-0.028L11.51,6.967h0.014h0.007h0.007l0.007-0.006h0.014
		l0.008-0.007l-0.008-0.008l0.008-0.007h0.006l0.016-0.007l0.006,0.014l0.015,0.008l0.007,0.007v0.006l0.014,0.008l0.007-0.008
		l-0.007,0.015h0.014l0.008-0.007h0.021h0.006v0.007h0.015v0.015l0.007-0.008l0.007,0.008v0.007V7.01L11.698,7.03l0.007,0.015v0.007
		l0.014-0.007l0.015,0.007h-0.008l-0.007,0.021V7.08h0.007l-0.007,0.021l-0.007,0.007h-0.007l0.007,0.021l0.014,0.008v0.028h0.008
		v0.014h-0.008v0.014l-0.007,0.006l0.015,0.008l-0.008,0.007h-0.007V7.22l0.007,0.014v0.014h-0.007V7.24h-0.007v0.014h0.007v0.008
		h0.007l-0.014,0.027v0.007h0.007h0.007h0.015v0.008l-0.015,0.007v0.007h0.015V7.311h0.014l0.007,0.007h0.007v0.007l0.007-0.007
		h0.008v0.007l0.013,0.007v0.007h0.008h0.008h0.005l0.022,0.014l0.021-0.007l0.008,0.015l0.014,0.007v0.007l0.007,0.008l0.007-0.015
		l0.008,0.015l0.021-0.008l0.014,0.014V7.373h0.007l0.007,0.008h0.015h0.006v0.014l0.015,0.007l0.015,0.007l0.006,0.007h0.015
		l0.014-0.014h0.008V7.395l0.006,0.007l0.008-0.007l0.007,0.007h0.007h0.007V7.395l0.007,0.007h0.007l0.028,0.007h0.007l0.007,0.007
		h0.008v0.007l0.007-0.007l0.014,0.021h0.007h0.007l0.008,0.006V7.437h0.006h0.008L12.2,7.422h0.016h0.006h0.008v0.007h0.007v0.008
		h0.014l0.007,0.006h0.007h0.007V7.45V7.442h0.008V7.437v0.006l0.006-0.006l-0.006,0.006h0.006H12.3h0.006l0.015-0.006l0.007-0.008
		h0.014l0.021-0.007l0.007-0.007l0.006,0.007h0.009l0.006,0.007h0.007l0.015,0.008l0.013,0.021l0.015-0.007h0.015h0.007l0.007,0.021
		v0.014l0.007,0.008h0.007l0.007-0.008v0.008h0.008v0.006h0.006v0.008h0.008v0.015l-0.008,0.027l0.008,0.021h-0.008l-0.014,0.035
		H12.48L12.467,7.61L12.46,7.632l-0.021,0.027l-0.015,0.015l-0.007,0.007l-0.021,0.021L12.39,7.729v0.035l0.021,0.042l0.006,0.014
		l0.015,0.007h0.014l0.008,0.007V7.827v0.007l-0.015,0.077v0.042L12.46,8.03l0.027,0.125l0.008,0.036v0.027L12.48,8.247
		l-0.007,0.014L12.46,8.268l-0.043,0.021L12.384,8.31l-0.05,0.035l-0.028,0.021l-0.049,0.021L12.216,8.4l-0.05,0.021l-0.14,0.034
		L11.97,8.47l-0.055,0.021l-0.043,0.021L11.845,8.52l-0.021,0.014l-0.07,0.034l-0.049,0.042h-0.014l-0.015,0.015l-0.006,0.007v0.014
		h0.006l-0.006,0.008l0.006,0.006l-0.021,0.015h-0.007l-0.028,0.014l-0.021,0.021l-0.014,0.015v0.014l-0.008,0.021h-0.008
		l-0.006,0.007h-0.015l-0.014,0.007l-0.014,0.027l-0.007,0.008L11.51,8.819h-0.008l-0.007-0.014l-0.014,0.007l-0.014,0.014
		L11.46,8.84l-0.014,0.042l-0.007,0.015v0.042v0.007v0.007l0.015,0.057l0.006,0.014h0.021v0.007l0.014,0.021l0.015,0.014h0.014
		l0.007-0.008l-0.007-0.006h0.014V9.043l0.014,0.008l0.007-0.008V9.029l0.008,0.007V9.029l0.006,0.007l-0.006,0.007l0.014,0.008
		l-0.008,0.006h-0.006l-0.008,0.015V9.064h-0.007l0.007,0.014l-0.007-0.007l-0.007,0.007h-0.007L11.53,9.071l-0.014,0.007
		L11.51,9.093v0.006v0.008v0.006l-0.015-0.006v0.006L11.468,9.12l-0.014,0.028v0.014v0.006l0.006-0.006l-0.006,0.006v0.008
		l-0.008,0.007h-0.007L11.433,9.19V9.183h-0.007l-0.014,0.014l-0.008,0.008l-0.007,0.021v0.014l0.007,0.015h0.008V9.26l0.006,0.007
		l0.008-0.007l0.007-0.007V9.26l-0.007,0.007h0.007h0.007l-0.007,0.007l-0.007-0.007l-0.008,0.007h0.008l-0.008,0.008v0.007h0.008
		v0.007v0.014l-0.008-0.014l-0.021-0.007l0.007-0.007l-0.014-0.008L11.356,9.26l-0.218-0.014l-0.076-0.008h-0.063h-0.057
		l-0.014,0.008l-0.021-0.008h-0.077h-0.048l-0.042,0.008l-0.008,0.007v0.014h-0.007H10.72L10.698,9.26l-0.098,0.007l-0.062,0.007
		l-0.049,0.008l-0.035-0.008h-0.041l-0.015,0.008h-0.007h-0.008l-0.007,0.007L10.37,9.281h-0.007l-0.007,0.007V9.281h0.007
		L10.35,9.267L10.321,9.26h-0.028l-0.007-0.007V9.246h-0.021l0.014-0.008V9.225l0.007,0.008h0.007l-0.007,0.006h0.007H10.3
		l0.008-0.006V9.218h-0.015l-0.007-0.007h-0.007l-0.007,0.007l-0.007-0.014l0.014-0.008V9.19l-0.014-0.008l0.007-0.007h0.007
		l0.007,0.007l0.007-0.015L10.3,9.154l0.014-0.014l-0.006-0.006V9.127l0.014-0.015l0.021-0.014l-0.014-0.006l-0.008-0.008
		l0.014-0.014V9.064l0.008-0.008l0.034-0.021V9.022V9.016L10.37,9.009V9.001l0.007-0.007L10.37,8.987l0.007-0.007H10.37h-0.007
		V8.974L10.356,8.98L10.35,8.974h-0.007l-0.021-0.007l-0.008,0.007H10.3h-0.007L10.3,8.987L10.293,8.98l-0.007,0.007v0.007
		l-0.007,0.007l-0.007,0.008l-0.014-0.008l-0.008-0.007l-0.014,0.007v0.008h-0.014l-0.035,0.007v0.007l-0.007,0.007h-0.007h-0.008
		L10.16,9.036h-0.006l0.006,0.007l-0.015,0.008H10.14h0.006l-0.02,0.014v0.007l-0.008,0.007h0.008l-0.014,0.021v0.008l0.006,0.006
		l0.008-0.006v0.006l0.007,0.008l0.013,0.015l0.009,0.006l0.006,0.021l0.007-0.008l-0.007-0.02l-0.006-0.008V9.12H10.14
		l-0.007-0.014l0.007-0.008l0.006,0.008h0.009V9.099l0.013-0.014l0.008-0.007h0.007l0.015,0.015h0.013h0.008l-0.008-0.008
		l0.008-0.007h0.007l0.006-0.007v0.007l0.008-0.007h0.008v0.007l-0.008,0.007l-0.014,0.014v0.008l0.006,0.014h0.008l-0.008,0.007
		L10.224,9.12l-0.007,0.015L10.209,9.12h-0.013l-0.008-0.008L10.175,9.12L10.16,9.135l0.007,0.006l0.008-0.006v0.006l0.007,0.008
		l-0.007-0.008h-0.008v0.008l0.008,0.006h0.021l-0.015,0.008l0.007,0.006h-0.007h-0.015l0.008,0.008h0.007l0.015-0.008l0.006,0.008
		L10.188,9.19l0.008,0.006l0.013-0.006h0.015v0.006V9.19v0.006h0.006h0.008h-0.008h-0.006l0.006,0.008h0.016v0.014h-0.016v0.007
		V9.218l0.008,0.007l-0.008,0.014l0.008,0.008h-0.008h-0.006v0.007l0.006,0.007l0.008-0.014h0.014h-0.006l0.006,0.007L10.237,9.26
		h0.008v0.007h-0.008l-0.021,0.015v0.007l0.007,0.007h-0.007h-0.008h-0.027l-0.027,0.014h-0.028l-0.014,0.007v0.008h-0.008
		l-0.007-0.008l-0.007-0.007l-0.015-0.007V9.295h-0.014l-0.007-0.007l-0.021-0.007h-0.014h-0.007l-0.013,0.007L9.993,9.281
		L9.985,9.288l0.008,0.007L9.985,9.288L9.979,9.295h0.007v0.007l0.021-0.007v0.007l0.007-0.007l-0.007-0.007h0.007h0.028
		l0.014,0.007h-0.014h0.007v0.007l-0.007-0.007l-0.008,0.007h0.028h0.014v0.007h0.008l0.007,0.007l0.014,0.008h-0.014h-0.049
		L9.95,9.33l-0.02,0.007L9.923,9.344v0.007V9.344H9.901L9.888,9.351L9.881,9.357L9.854,9.365L9.839,9.372v0.014v0.007V9.386H9.825
		H9.817h0.008V9.379L9.812,9.372L9.797,9.365H9.721L9.608,9.372L9.524,9.386L9.427,9.399L9.392,9.413H9.386H9.378L9.37,9.407V9.393
		H9.363L9.37,9.386h0.008l0.008-0.007V9.372h0.006l0.015-0.015l0.021-0.007l0.007,0.007l0.014,0.015h0.015l0.021,0.007h0.014
		l0.007-0.007V9.357V9.351L9.489,9.344L9.476,9.337L9.469,9.33l0.007,0.007l0.014,0.007l0.027,0.014l0.036,0.015h0.035l0.091-0.007
		l0.042-0.015l0.056-0.007h0.008L9.79,9.351l0.035,0.015v0.014l0.007-0.014V9.357H9.825v0.008L9.817,9.357L9.812,9.351L9.804,9.344
		H9.797L9.79,9.33L9.77,9.323L9.763,9.315H9.748V9.309H9.734L9.721,9.295L9.714,9.288L9.7,9.295v0.007L9.692,9.295H9.685
		L9.671,9.273L9.664,9.281V9.273L9.657,9.26L9.622,9.238V9.232L9.616,9.238L9.608,9.232V9.225H9.601L9.588,9.218H9.581L9.566,9.225
		V9.218L9.56,9.211l0.007,0.014L9.553,9.232H9.539L9.531,9.225l0.015-0.007l0.007-0.007L9.546,9.204H9.524L9.511,9.211L9.504,9.218
		L9.497,9.225l0.014,0.008L9.504,9.246v0.007h0.007H9.504H9.497L9.483,9.267H9.476L9.469,9.26l0.007-0.007L9.469,9.246H9.462v0.007
		V9.246h0.007V9.238l0.015-0.006l0.006,0.006V9.232h0.008V9.225H9.489L9.469,9.232H9.447H9.441H9.427L9.413,9.238H9.399H9.392
		L9.386,9.246H9.378L9.363,9.253L9.356,9.26v0.007H9.35L9.343,9.288L9.329,9.295L9.322,9.288l0.014-0.021L9.329,9.26l0.007-0.007
		L9.329,9.246L9.315,9.253L9.3,9.26L9.294,9.267v0.007L9.3,9.281L9.294,9.302H9.28v0.014L9.259,9.33L9.231,9.344H9.225v0.007
		L9.217,9.344v0.007H9.21l0.007-0.007H9.21L9.196,9.351h0.007v0.007L9.196,9.365L9.188,9.357v0.008H9.176l0.007-0.015H9.176
		L9.141,9.365L9.134,9.372L9.127,9.365V9.357L9.119,9.365V9.357h0.008l0.007-0.021L9.146,9.33V9.323H9.141L9.127,9.309H9.119V9.302
		L9.112,9.315L9.105,9.309L9.099,9.315L9.092,9.323V9.33L9.085,9.323L9.077,9.33v0.007H9.071L9.062,9.33l0.009-0.015L9.062,9.309
		v0.007H9.05v0.008V9.315L9.042,9.323V9.33H9.035v0.007L9.028,9.33L9.015,9.344V9.33H9.008V9.315l0.007-0.007l0.007-0.007h0.021
		V9.288L9.05,9.295l0.007-0.007V9.281l0.006-0.015h0.009V9.26L9.057,9.267L9.05,9.26L9.035,9.267v0.007V9.267L9.028,9.26h0.014
		H9.035V9.253l0.007-0.007L9.05,9.238H9.042V9.232V9.225L9.035,9.232L9.028,9.225H9.021L9.015,9.232L9.008,9.225H9.001l0.007,0.008
		H9.001l0.007,0.006H8.993l0.008,0.015V9.246l0.021,0.007L9.008,9.26L9.001,9.267H8.993v0.007H8.987v0.008L8.979,9.273l0.008-0.007
		L8.972,9.253L8.958,9.26L8.952,9.246v0.007H8.944v0.014L8.938,9.26v0.007H8.931v0.015l0.007,0.007H8.931v0.007L8.924,9.302h0.014
		v0.007H8.924L8.917,9.323L8.924,9.33h0.014L8.924,9.337L8.909,9.323L8.902,9.33V9.323V9.315H8.896v0.008L8.888,9.315H8.882
		L8.875,9.33L8.86,9.344L8.854,9.337H8.848H8.833L8.812,9.351H8.805L8.791,9.357H8.784v0.008L8.776,9.372L8.764,9.379l0.007-0.014
		V9.357H8.764L8.749,9.365V9.357v0.008V9.357H8.742L8.721,9.365V9.357H8.714L8.707,9.372L8.7,9.365v0.007L8.692,9.365L8.679,9.379
		v0.007H8.673v0.007L8.665,9.399l0.008,0.008H8.665L8.657,9.413v0.021l0.016,0.007v0.008V9.441L8.665,9.449H8.657v0.006v0.008h0.008
		L8.657,9.477H8.65v0.007l0.007,0.008L8.644,9.497v0.008H8.637h0.007H8.65L8.644,9.511H8.637v0.015l0.007,0.007L8.65,9.539
		L8.644,9.547H8.65L8.644,9.553H8.65h0.007h0.008V9.547h0.008l0.006-0.008h0.008L8.679,9.532h0.008V9.525l0.006,0.007V9.525H8.7
		l0.007-0.021h0.007v0.014h0.021v0.007h0.008L8.734,9.532v0.015H8.728H8.721v0.006H8.714H8.707h0.007V9.547l0.007,0.006V9.547h0.007
		V9.539H8.721V9.532L8.707,9.547V9.539L8.692,9.532L8.7,9.547L8.692,9.553L8.7,9.547h0.007L8.692,9.561H8.687L8.679,9.566V9.561
		L8.673,9.566h0.006L8.665,9.574h0.014l0.008-0.008v0.008h0.006L8.7,9.561h0.007h0.014h0.007l0.021-0.008L8.734,9.566L8.721,9.603
		L8.7,9.616v0.007L8.721,9.63L8.714,9.623V9.616h0.007l0.007-0.007l0.015-0.028l0.021-0.015V9.561l0.021-0.008l0.021-0.006V9.539
		v0.008L8.798,9.553L8.784,9.566v0.008L8.776,9.588l0.008,0.008l0.021,0.007l0.008-0.007v0.007l0.014-0.007l0.021,0.014H8.84h0.008
		l0.007,0.007H8.86v0.007L8.854,9.63L8.848,9.616H8.833H8.826L8.818,9.63L8.812,9.638L8.805,9.63L8.798,9.651v0.007L8.776,9.687
		L8.771,9.693H8.764L8.756,9.7V9.68H8.749H8.742V9.672H8.734L8.728,9.68v0.007V9.665L8.721,9.658L8.714,9.665L8.707,9.672H8.692
		L8.7,9.68L8.687,9.672L8.679,9.665v0.007V9.68H8.673L8.657,9.672L8.637,9.68v0.007v0.007V9.687H8.63L8.623,9.693L8.63,9.7
		L8.623,9.693L8.616,9.687H8.609L8.596,9.672L8.574,9.665h0.007L8.574,9.651V9.645L8.567,9.63V9.623L8.547,9.616V9.609L8.526,9.616
		l0.006-0.007L8.526,9.603V9.596L8.512,9.588l0.006-0.007l-0.02-0.007H8.477V9.553H8.47L8.463,9.547L8.47,9.539V9.525z
		 M11.754,8.673V8.666h0.007v0.007H11.754z M11.74,8.68l0.006-0.007l0.008,0.007h-0.008l0.008,0.007H11.74V8.68z M10.209,9.344
		V9.337V9.344z M9.881,9.365h0.007H9.881z M9.267,9.33v0.007V9.33z M8.679,9.421v0.006h0.008H8.679V9.421z M9.517,9.253V9.246V9.253
		h0.008V9.26H9.517h0.008H9.517V9.253z M9.413,9.253V9.246H9.42L9.413,9.253z M10.126,9.344h-0.008V9.337h0.008V9.344z M8.673,9.421
		v0.006V9.421z M8.692,9.561L8.687,9.553L8.679,9.561h0.008H8.692z M8.673,9.497h0.006H8.673z M8.791,9.596V9.588V9.596z
		 M8.764,9.399h0.007H8.764v0.008V9.399z M8.798,9.365h0.007h0.008v0.007H8.805v0.007V9.372v0.007H8.798V9.372h0.007V9.365H8.798z
		 M9.427,9.267h0.007H9.427z M8.728,9.372h0.007h0.008H8.734v0.007H8.728v0.007V9.379V9.372z M9.825,9.393h0.007H9.825z
		 M9.238,9.351v0.007V9.351v0.007V9.351z M10.091,9.351V9.344h0.007v0.007H10.091z M9.427,9.337V9.33V9.337z M10.196,9.337h0.006
		H10.196z M8.791,9.687V9.68h0.007H8.791V9.687z M8.692,9.483V9.477H8.7H8.692V9.483z M9.434,9.33v0.007V9.33z M9.469,9.302V9.295
		h0.007v0.007H9.469z M10.196,9.351h0.006V9.344v0.007H10.196z M8.7,9.505V9.497V9.505v0.006V9.505z M8.776,9.519h0.008v0.007H8.776
		v0.007L8.764,9.539L8.756,9.547H8.742l0.014-0.008l0.015-0.014h0.006V9.519z M8.749,9.379V9.372h0.007V9.365h0.008L8.756,9.372
		v0.007H8.749z M9.881,9.379V9.372V9.379z M8.784,9.511V9.505h0.007v0.006H8.784z M10.251,9.372h0.008v0.007V9.372H10.251z
		 M9.469,9.288h0.007H9.469z M9.245,9.351V9.344l0.007,0.007H9.245z M10.202,9.379h0.007v0.007h-0.007V9.379z M8.714,9.386V9.379
		h0.007v0.007V9.379v0.007H8.714z M10.293,9.064V9.051V9.043H10.3l-0.007,0.008L10.3,9.057L10.293,9.064z M8.665,9.477L8.673,9.47
		l0.006,0.007L8.665,9.491V9.477z M9.322,9.315l0.007-0.007l0.014-0.007L9.35,9.315L9.336,9.323V9.315L9.329,9.323L9.322,9.315z
		 M9.441,9.315V9.309l0.006-0.007l0.008-0.007h0.007v0.007L9.455,9.309L9.447,9.323L9.441,9.315z M10.16,9.162v0.006v0.008
		l0.007-0.008V9.162H10.16z M9.119,9.525H9.112l0.007-0.007L9.112,9.511L9.099,9.519l0.007-0.014L9.099,9.497H9.085H9.062
		L9.05,9.505l0.007,0.006L9.035,9.532v0.015H9.021l0.007-0.008H9.015V9.532l0.007-0.007l0.007-0.015V9.505L9.021,9.497L9.008,9.511
		V9.497L8.993,9.505L8.987,9.497V9.491l0.014-0.008h0.007l0.007-0.007h0.007L9.028,9.47h0.014L9.05,9.463L9.042,9.455L9.05,9.449
		l0.007,0.006V9.449V9.441l0.021-0.015L9.071,9.449h0.006v0.006h0.008l0.007-0.014h0.007L9.092,9.435h0.021V9.427h0.007V9.413H9.112
		l0.021-0.006V9.399h0.007v0.008h0.021v0.006h0.015v0.008h0.007H9.176H9.168H9.155v0.006h0.006l0.007-0.006v0.014h0.008h0.021h0.007
		v0.015v0.006H9.21h0.007V9.449h0.008V9.441l0.021-0.007l0.007,0.007L9.245,9.449L9.231,9.455l0.007,0.008L9.231,9.477h0.007h0.007
		l0.014-0.014V9.47l0.008,0.014h0.02L9.28,9.497H9.267L9.259,9.505H9.245l0.007-0.008L9.245,9.491L9.238,9.483L9.217,9.491
		L9.203,9.505L9.196,9.497H9.188L9.183,9.511h0.006v0.008L9.176,9.525V9.519L9.168,9.511L9.146,9.519H9.141H9.127L9.119,9.525z"/>
	<path id="São_Paulo" fill="#E7EBEB" d="M0.007,8.903L0,8.896V8.89V8.882l0.007-0.014L0.028,8.84l0.021-0.021l0.007-0.007
		l0.043-0.015l0.006-0.006l0.015-0.021L0.161,8.75h0.007l0.007-0.008l0.057-0.014l0.027-0.014h0.006l0.015-0.028l0.035-0.028
		l0.007-0.014l0.057-0.035l0.021-0.006l0.028-0.021l0.042-0.015l0.021-0.014l0.014-0.007l0.021-0.014l0.021-0.021L0.58,8.505
		l0.027-0.014L0.63,8.483l0.006-0.006h0.008L0.65,8.463l0.021-0.021l0.007-0.007L0.728,8.4L0.733,8.38l0.008-0.008l0.014-0.014
		L0.789,8.31l0.028-0.091l0.007-0.021l0.035-0.042h0.015V8.149l0.014-0.008l0.014-0.021L0.95,8.086l0.007-0.021V8.051l0.021-0.049
		l0.021-0.014l0.042-0.015L1.048,7.96l0.015-0.014l0.027-0.05V7.891V7.869L1.076,7.841V7.82L1.041,7.793L1.034,7.778l0.014-0.021
		l0.015-0.027l0.014-0.007h0.007l0.042,0.007h0.021l0.027-0.014l0.009-0.007l0.013-0.021l0.021-0.021l0.007-0.021l0.007-0.021
		l0.007-0.029l0.042-0.034l0.008-0.008V7.548V7.54V7.534l0.007-0.028L1.3,7.471L1.293,7.464L1.286,7.422L1.272,7.401L1.265,7.395
		l0.008-0.014L1.265,7.345l0.008-0.014l0.006-0.007h0.028l0.021-0.007h0.007l0.007-0.014l0.021-0.008l0.015-0.034V7.24L1.39,7.22
		l0.008-0.022l0.028-0.033l0.014-0.008h0.042h0.007L1.53,7.128l0.007-0.014l0.007-0.048L1.53,7.052L1.523,7.03V6.996L1.53,6.961
		V6.954V6.946L1.517,6.926l0.007-0.034l0.034-0.078l0.008-0.006L1.573,6.8V6.793l0.006-0.007l0.008-0.007l0.048-0.028L1.656,6.73
		l0.007-0.021l0.035-0.056l0.014-0.015L1.74,6.618l0.014-0.007V6.604l0.035-0.063l0.013-0.006l0.009-0.028l0.007-0.008h0.006
		l0.021-0.014l0.021-0.014l0.063-0.015h0.042l0.027-0.006L2.02,6.443h0.007l0.015-0.006l0.014-0.015l0.015-0.007l0.033-0.028
		l0.009-0.014l0.013-0.042l0.021-0.05l0.027-0.056V6.213l0.035-0.048V6.157h0.015h0.007l0.014-0.014l0.021-0.015V6.115h0.014h0.015
		h0.014l0.021-0.021l0.007-0.007L2.361,6.08l0.021-0.014V6.059h0.015l0.055-0.014l0.05-0.014h0.007l0.014-0.007H2.53l0.021-0.035
		l0.014-0.015l0.014-0.007L2.6,5.94l0.007-0.015H2.62h0.021l0.014-0.014L2.67,5.905h0.02l0.015-0.007l0.015-0.007l0.013,0.007
		l0.021,0.007l0.021,0.007l0.041,0.049l0.021,0.007v0.015h0.021l0.014,0.007h0.007l0.027-0.007l0.042,0.014l0.029-0.014h0.021
		l0.028,0.007l0.006,0.007H3.04l0.021-0.007h0.035h0.007L3.11,5.996l0.013,0.008l0.028,0.027l0.008,0.007h0.014l0.014,0.007
		l0.057-0.007l0.056,0.021l0.014,0.008h0.021h0.021l0.021-0.014l0.042-0.008h0.007H3.46h0.006l0.035,0.008h0.07h0.014V6.045
		l0.021-0.007l0.027-0.007h0.021l0.006-0.007l0.028,0.007l0.021,0.007l0.014,0.028l0.007,0.007L3.76,6.101H3.78l0.084,0.008
		l0.021-0.008l0.021-0.013L3.928,6.08l0.034,0.008H3.97l0.007,0.007v0.014v0.015L3.962,6.129H3.941L3.928,6.144L3.913,6.198v0.028
		v0.008L3.92,6.248v0.056l0.036,0.063l0.006,0.021v0.014l0.027,0.042h0.008l0.035,0.008l0.014,0.006h0.007V6.451l0.042-0.028
		l0.015-0.014l0.027-0.063L4.165,6.29l0.008-0.008H4.2L4.214,6.29l0.028,0.007l0.006,0.014l0.015,0.035L4.27,6.401v0.021
		L4.263,6.541L4.27,6.549l0.062,0.042h0.015l0.007-0.008l0.015-0.028V6.549V6.535V6.527L4.354,6.493L4.36,6.457l-0.014-0.02V6.43
		V6.409L4.36,6.381l0.014-0.014l0.007-0.008V6.353L4.374,6.339l0.007-0.021l0.008-0.007L4.41,6.297h0.007h0.041L4.485,6.29
		l0.021-0.008h0.007l0.035,0.015h0.022l0.006,0.007h0.021l0.021-0.007l0.027-0.028l0.015-0.007h0.027L4.71,6.269h0.02h0.029
		l0.035-0.014h0.014l0.035-0.007L4.87,6.255h0.007h0.015h0.008l0.014-0.007h0.021l0.021,0.007l0.014,0.014l0.007,0.007h0.007h0.007
		h0.021l0.014-0.007h0.007l0.008-0.014V6.248L5.003,6.213V6.206l0.008-0.035L5.003,6.165l0.008-0.008h0.021l0.008,0.008l0.013,0.006
		l0.021,0.035L5.08,6.227l0.007,0.008h0.007h0.007l0.008,0.021L5.13,6.262l0.014,0.014l0.021,0.007h0.021l0.029-0.014L5.22,6.248
		l0.021,0.007l0.014-0.021L5.262,6.22L5.27,6.206V6.171l0.006-0.006h0.008l0.027,0.02L5.317,6.22L5.331,6.24L5.36,6.255h0.007
		l0.021-0.021L5.395,6.22V6.206V6.192l0.007-0.014V6.171L5.395,6.165H5.388V6.157V6.15V6.144l0.007-0.007l0.015-0.021h0.006
		l0.016,0.008l0.034-0.015h0.034l0.021,0.007l0.014-0.007l0.021-0.008h0.007l0.035,0.028v0.008v0.007l0.014,0.014l0.007,0.008
		l0.014,0.014l0.015-0.008H5.66L5.681,6.15V6.129l0.015-0.006h0.027V6.115l0.015-0.007h0.027l0.015-0.014h0.015L5.8,6.088
		L5.807,6.08v0.008l0.021,0.021l0.015,0.015l0.006,0.014v0.007V6.15L5.835,6.157v0.008v0.014l0.028,0.014L5.87,6.213h0.007h0.027
		l0.015,0.021h0.014l0.015,0.014l0.027,0.007l0.015,0.027l0.02,0.008h0.008l0.007,0.014v0.021H6.03l0.008,0.014l0.014,0.021v0.008
		L6.038,6.401H6.03L6.017,6.423H6.009L6.003,6.438v0.02H5.996v0.015v0.007H5.989l0.007,0.007L5.981,6.493l0.008,0.021v0.007v0.007
		v0.008h0.007L5.989,6.549l0.007,0.006L5.989,6.562h0.007L5.989,6.568h0.007L5.989,6.576v0.007h0.007v0.008L5.989,6.597v0.008
		l0.02,0.014h0.015L6.03,6.633l0.021,0.006L6.073,6.66h0.014l0.014,0.007l0.027,0.007l0.008,0.015h0.007v0.014l0.007,0.015
		L6.143,6.724l0.014,0.027h0.008v0.007v0.008v0.007l0.013,0.007v0.007V6.8l0.015,0.008v0.006v0.008L6.185,6.835V6.85L6.177,6.863
		L6.171,6.869v0.008H6.136L6.121,6.869L6.114,6.877v0.007L6.101,6.897l0.007,0.014H6.101L6.094,6.939L6.087,6.946H6.08L6.073,6.967
		L6.06,6.975l0.014,0.028L6.06,7.03L6.044,7.066L6.06,7.094l0.014,0.014h0.021v0.015l0.007,0.014h0.014l0.007,0.014l0.015,0.007
		l0.007,0.008l-0.007,0.02v0.014L6.128,7.205l0.008,0.021l0.007,0.021l0.007,0.015l-0.007,0.02h0.007l0.007,0.008l0.021,0.007v0.008
		H6.164v0.007v0.007L6.149,7.324l0.021,0.021L6.164,7.366l0.007,0.007v0.008l0.014,0.021l0.007,0.014V7.408h0.007H6.22h0.007
		L6.22,7.415v0.007L6.213,7.429v0.014l0.014-0.006L6.233,7.45H6.24v0.007l0.007,0.014v0.014v0.008l0.014,0.014L6.255,7.513h0.006
		l0.008,0.014v0.008l0.007,0.014l0.014,0.006l0.008,0.008L6.289,7.568L6.282,7.575L6.289,7.59L6.282,7.604H6.275l0.007,0.014v0.008
		H6.275l0.007,0.007h0.007l0.008,0.007l0.006-0.007v0.007l0.015-0.007h0.007h0.007l0.008,0.007l0.006-0.007l0.014,0.007l0.008-0.007
		l0.006,0.007V7.632h0.016l0.007-0.007h0.007l0.007-0.008L6.429,7.61V7.604h0.008V7.596H6.45L6.457,7.59V7.583l0.007-0.008h0.014
		l0.028,0.008l0.007-0.008L6.52,7.568h0.015h0.007L6.534,7.583L6.541,7.59l0.021,0.014h0.015V7.596l0.007,0.008l0.006,0.014
		l0.015-0.021L6.61,7.59l0.008-0.007h0.007l0.007-0.015h0.007h0.014v0.015V7.59v0.006v0.008L6.659,7.61l0.008,0.015h0.006
		l0.008,0.007v0.007h0.007L6.681,7.646l0.007,0.007l0.015,0.007V7.652l0.027-0.014v0.007l0.014,0.007h0.014l0.014,0.007h0.008h0.007
		v0.007v0.008l0.007,0.007v0.015L6.8,7.701L6.785,7.716v0.014L6.778,7.736l0.007,0.015l0.007,0.006l0.015,0.015v0.007H6.8
		L6.792,7.785v0.008L6.785,7.807v0.007L6.778,7.82l0.007,0.007v0.007L6.771,7.841v0.014H6.757L6.75,7.862l0.007,0.014H6.75
		L6.736,7.883v0.021L6.723,7.911L6.681,7.904v0.014L6.673,7.925v0.007l0.008,0.015L6.673,7.96v0.007v0.007v0.021v0.007H6.659
		L6.652,8.01H6.646l0.007,0.014L6.632,8.044v0.007L6.618,8.058L6.61,8.072l0.008,0.014h0.007h0.007l0.014,0.021v0.006l0.007,0.008
		L6.646,8.135L6.639,8.142H6.632L6.625,8.149l0.014,0.014L6.632,8.177l0.014,0.006v0.015l0.014,0.021l0.008,0.007h0.006l0.008,0.014
		l0.007,0.008v0.006v0.008v0.007H6.681L6.659,8.253L6.652,8.261H6.646v0.007L6.639,8.274L6.625,8.268v0.007H6.618L6.61,8.288
		l0.015,0.015L6.639,8.31v0.007L6.618,8.323H6.604L6.589,8.33L6.583,8.323H6.576V8.33v0.008l0.007,0.007h0.006h0.009h0.006H6.61
		h0.008l0.014,0.007l0.021-0.007l0.015,0.014l0.014,0.007l0.007,0.021h0.015v0.008L6.688,8.407L6.659,8.414L6.652,8.436H6.639H6.632
		H6.625l0.007,0.007L6.618,8.478l0.007,0.006L6.604,8.498L6.61,8.512L6.604,8.505L6.598,8.52L6.589,8.525v0.008L6.598,8.54
		L6.589,8.547l0.009,0.015L6.583,8.575H6.576l0.007,0.007h0.006v0.007h0.009v0.007l0.006,0.008v0.006v0.008H6.61v0.007h0.008
		l0.007,0.014h0.014L6.632,8.652l0.007,0.006L6.632,8.68v0.007l0.021,0.008v0.007h0.007l0.008,0.007l0.021,0.007V8.708l0.015,0.007
		h0.006h0.015l0.007,0.008v0.006l0.007-0.006H6.75l0.007,0.006L6.75,8.736v0.006h0.007L6.771,8.75v0.014L6.765,8.771L6.8,8.784
		v0.014l0.014-0.006L6.82,8.798h0.021h0.014v0.015h0.014v0.007l0.015,0.007H6.89l0.008-0.007v0.015L6.876,8.854v0.014h0.021
		L6.884,8.882l0.021,0.021L6.884,8.91v0.007L6.89,8.924h0.015l0.007,0.008l0.007,0.007v0.014L6.904,8.959H6.897l0.007-0.007
		L6.897,8.945L6.89,8.952L6.876,8.945L6.869,8.952L6.849,8.959v0.008L6.834,8.959L6.827,8.967v0.007L6.834,8.98L6.827,8.987
		l0.007,0.007h0.015l0.007,0.021h0.014v0.007l0.015,0.007V9.022l0.021,0.014h0.014l0.008-0.007v0.007h0.006l0.015,0.021l0.007-0.006
		h0.021v0.006L6.968,9.064v0.007H6.96v0.007L6.946,9.085L6.932,9.112v0.015l0.008,0.008L6.932,9.141l0.008,0.021H6.926v0.006h0.006
		v0.008l0.008,0.007l0.007,0.014l0.021,0.008l0.006-0.008L6.995,9.19l0.021,0.006L7.03,9.176h0.014h0.007V9.19h0.014l0.007,0.006
		l0.008-0.014l0.035-0.015l0.007-0.006l0.007,0.006l0.034-0.006L7.17,9.154v0.008l0.007,0.021V9.19L7.17,9.211L7.162,9.218
		l0.015,0.007L7.19,9.211h0.015l0.014-0.015L7.239,9.19l0.028,0.006l0.021-0.014L7.31,9.19l0.007-0.008l0.015-0.007V9.168
		l0.014-0.006l0.014-0.008l0.007-0.006l0.007-0.008h0.014l0.014-0.014V9.12l0.015-0.008h0.007L7.414,9.127v0.008h0.015v0.006v0.014
		h0.007v0.008v0.014h0.007l0.014-0.008h0.008V9.162V9.148H7.47l0.007-0.014h0.008h0.014V9.127l0.015,0.008V9.127l0.014,0.008v0.014
		l0.007,0.006H7.54l0.015-0.006l0.006-0.008V9.135L7.555,9.099h0.014l0.007-0.014l0.007,0.008l0.007,0.014h0.008l0.006,0.006h0.015
		V9.106H7.609L7.603,9.099L7.597,9.093V9.085l0.006-0.014h0.007l0.008-0.007V9.051H7.609V9.036L7.597,9.016h0.006H7.597H7.575H7.568
		L7.547,9.022L7.526,9.029H7.519L7.505,9.016l0.008-0.028L7.54,8.98l0.007-0.007l0.021-0.007V8.959h0.007l0.007-0.007V8.945h0.015
		l0.013,0.007l0.008-0.007l0.021-0.007H7.631V8.932L7.617,8.924L7.609,8.903H7.597V8.896L7.589,8.89l0.008-0.008l0.006-0.006V8.868
		l0.007-0.006l0.021,0.006l0.021-0.014l0.015,0.008v0.006l0.007,0.014H7.666L7.659,8.896h0.007L7.651,8.91v0.007L7.646,8.924
		l0.014,0.015h0.007L7.68,8.932l0.036-0.008l0.014-0.021h0.014l0.006-0.007H7.743l0.014-0.015v0.015h0.014L7.777,8.91L7.757,8.924
		L7.749,8.932v0.007l0.008,0.007l0.027-0.007h0.008l0.007-0.007h0.007L7.834,8.91l0.014,0.007l0.014-0.035L7.854,8.876h0.007
		L7.883,8.89H7.89l0.007,0.007l0.007,0.007h0.015L7.925,8.91l0.006,0.007L7.925,8.938h0.014h0.007l0.021-0.015h0.013L7.987,8.91
		h0.014l0.007-0.007l0.035-0.007l0.021,0.007l0.007-0.007h0.007V8.89l0.007-0.014L8.078,8.868l0.035-0.021H8.12L8.134,8.84h0.008
		l0.027-0.006l0.015-0.015L8.176,8.812V8.806l0.008-0.008l0.014-0.014h0.007l0.014-0.006l0.008-0.008h0.006l0.014-0.007l0.008-0.007
		l0.015,0.007L8.288,8.75l0.021-0.008l0.014-0.006v0.006h0.015h0.014h0.008L8.386,8.75l0.008-0.008l0.02-0.014h0.029h0.013
		l0.008-0.021l0.014-0.007l0.007-0.007H8.49l0.008,0.007h0.014h0.006l0.015-0.007l0.015-0.008V8.68h0.027l0.014,0.007h0.015
		l0.014,0.015L8.63,8.715l0.007,0.027V8.75L8.63,8.764l0.007,0.007h0.007v0.008v0.014h0.014l0.008,0.006h0.008l0.006,0.008
		l0.008,0.014L8.679,8.826V8.84L8.7,8.834L8.707,8.84l0.007-0.006L8.721,8.84L8.714,8.862v0.006V8.89h0.007l0.007,0.007L8.734,8.89
		l0.015,0.014l0.007-0.007V8.89l0.008,0.007L8.771,8.91h0.006l0.015-0.028l0.007,0.015L8.812,8.89l0.014,0.014h0.007H8.84
		L8.826,8.917v0.007h0.007L8.826,8.917h0.007h0.015l0.007,0.007H8.86l0.021-0.027L8.875,8.89h0.007l0.006,0.007l0.015,0.007
		l0.007-0.007h0.008L8.924,8.89l0.014-0.008h0.015L8.958,8.89h0.008V8.882L8.958,8.876V8.868l0.014-0.006V8.854h0.008l0.014,0.008
		h0.008h0.007L9.001,8.876h0.007v0.021h0.007h0.007L9.015,8.882V8.876l0.007,0.006V8.876V8.868l0.007,0.008l0.014-0.008L9.05,8.882
		l0.007-0.006l0.006,0.006h0.009h0.006l0.008,0.015V8.89l0.014-0.008l0.021,0.015L9.127,8.89h0.014h0.006l0.009,0.014l0.006-0.007
		h0.007V8.91l0.008,0.007h0.007l0.006,0.007L9.183,8.932l0.014,0.014L9.21,8.959v0.008v0.007L9.203,8.98H9.196v0.014L9.188,9.001
		L9.176,9.009H9.168v0.007h0.008L9.168,9.022H9.146l-0.02,0.021l0.007,0.008H9.119L9.112,9.064v0.007l0.007,0.007L9.112,9.085h0.015
		v0.008v0.006H9.112L9.099,9.127L9.085,9.135V9.127H9.071L9.05,9.141v0.008H9.042L9.05,9.141L9.042,9.135l-0.049,0.02H8.979H8.972
		H8.966V9.148H8.952H8.944L8.938,9.154L8.931,9.168L8.924,9.176H8.917L8.896,9.183V9.176H8.888V9.168H8.882l0.006-0.014L8.882,9.148
		H8.868H8.86L8.848,9.162L8.833,9.168L8.818,9.183L8.805,9.19L8.784,9.176L8.764,9.19H8.756L8.728,9.204L8.721,9.211v0.007
		L8.7,9.232L8.687,9.218L8.673,9.238H8.665H8.657H8.65L8.644,9.232L8.637,9.238L8.616,9.253L8.603,9.267l0.007,0.007L8.603,9.281
		v0.007H8.596H8.588H8.574H8.567H8.56v0.007v0.007L8.554,9.309L8.56,9.315L8.554,9.33H8.56v0.007L8.554,9.344v0.014L8.547,9.365
		v0.007L8.539,9.379v0.007v0.007v0.007L8.532,9.407h0.007v0.006h0.008L8.539,9.427h0.008L8.539,9.435l0.008,0.007L8.532,9.449
		l0.007,0.006L8.526,9.463l0.006,0.014L8.526,9.483H8.512L8.504,9.491H8.498v0.006H8.49L8.477,9.505v0.006v0.008L8.47,9.525v0.014
		L8.463,9.547L8.47,9.553h0.007v0.021h0.021l0.02,0.007L8.512,9.588l0.015,0.008v0.007l0.006,0.007L8.526,9.616l0.021-0.007v0.007
		l0.021,0.007V9.63l0.007,0.015v0.007l0.007,0.014H8.574l0.021,0.007l0.014,0.015h0.007l0.007,0.007L8.63,9.7H8.623H8.609
		L8.574,9.707L8.567,9.7H8.56H8.554v0.007L8.547,9.714H8.532L8.526,9.722H8.512H8.504l0.008-0.008L8.518,9.7l-0.02-0.007H8.483
		L8.463,9.707V9.693V9.687L8.47,9.68L8.463,9.665H8.442L8.435,9.68L8.428,9.687H8.406L8.399,9.693v0.014L8.394,9.714H8.386
		L8.379,9.722v0.006L8.372,9.735L8.364,9.728H8.358L8.343,9.742L8.337,9.749H8.315L8.302,9.763V9.756L8.295,9.749L8.288,9.756
		L8.28,9.763h0.008H8.28V9.77v0.014l0.008,0.008l0.007,0.007l0.014-0.015h0.007v0.015h0.014H8.315H8.302L8.295,9.805H8.288H8.28
		L8.274,9.825v0.008H8.28L8.268,9.847v0.015L8.26,9.854V9.833H8.245L8.239,9.84l0.006-0.015H8.239L8.231,9.833L8.218,9.84
		l0.021,0.007L8.231,9.854h0.008v0.008L8.231,9.867V9.861H8.226V9.854L8.211,9.847L8.204,9.854L8.211,9.84H8.197V9.833L8.184,9.84
		L8.176,9.833H8.169V9.84v0.007l0.015,0.007L8.176,9.867h0.008v0.014H8.176H8.169H8.162H8.155V9.875V9.867L8.147,9.861L8.127,9.867
		L8.113,9.881v0.008l0.014,0.007V9.889v0.007V9.91h0.007H8.127l0.007,0.007v0.007H8.127H8.105L8.099,9.938H8.085h0.007L8.085,9.931
		L8.078,9.944V9.931H8.064H8.058l0.007-0.007L8.058,9.917H8.05H8.043L8.021,9.924L8.001,9.938L7.979,9.966v0.007L7.967,9.98
		L7.96,9.973L7.945,9.98H7.938V9.973H7.931L7.918,9.98l-0.015,0.021v0.035l0.007,0.021l0.008,0.021h0.007h0.014v0.015l-0.014,0.014
		l0.014,0.028v0.02v0.015l-0.008-0.007v0.007v0.008l-0.013,0.006l-0.015,0.008l-0.007-0.008L7.89,10.189v-0.008l-0.021-0.006
		l-0.014,0.014H7.848l-0.007,0.007H7.834v0.007H7.819v-0.014H7.799v-0.014l-0.007-0.008H7.777v-0.015l-0.007-0.006H7.743
		l-0.008,0.006l-0.02,0.008H7.708L7.7,10.153l0.008-0.014H7.693H7.687v-0.006H7.673L7.666,10.14v-0.006H7.659H7.646L7.638,10.14
		l-0.007-0.014H7.624H7.617H7.609H7.597H7.568v-0.007H7.561l-0.034,0.007v-0.007l-0.014-0.007H7.477l-0.056,0.007L7.345,10.14
		l-0.014,0.008l-0.008,0.014L7.31,10.153l-0.021,0.015l-0.007,0.008v0.006l-0.007,0.008H7.268l0.007-0.008l-0.007-0.006
		l-0.007-0.008l-0.021,0.008l-0.042,0.021l-0.013,0.007v0.015H7.177L7.17,10.225l0.021-0.007l-0.006,0.007l-0.008,0.014v0.014
		l-0.015,0.007v0.007H7.17l-0.008,0.008H7.155l-0.021,0.014v0.014l0.007,0.008l0.007-0.008v0.008h0.007l-0.007,0.006l-0.007,0.008
		l-0.014,0.007v0.014v0.014h0.007H7.121l-0.007,0.008v0.007l-0.008-0.007l0.008-0.008H7.101H7.064l-0.014,0.015l-0.007,0.007
		l0.007,0.007H7.044H7.037L7.03,10.392v0.015L7.023,10.42v-0.008l0.007-0.014l-0.007-0.007l-0.007-0.007l-0.008,0.007l-0.007,0.007
		v-0.007H6.995H6.988v-0.021l0.014-0.007l-0.007-0.014l-0.007-0.008l-0.021-0.007H6.953H6.939v0.007v0.008l-0.008-0.015H6.926
		l-0.008,0.007h0.008l0.006,0.014v0.008H6.918v0.007v0.007l0.008,0.007H6.918v0.007l-0.007,0.015H6.904l0.007-0.015L6.89,10.385
		l-0.041,0.007l-0.042,0.021l-0.112,0.05l-0.105,0.062l-0.083,0.042L6.492,10.58l-0.021,0.008l-0.07,0.049l-0.049,0.028
		l-0.063,0.056v0.007v0.021l-0.007,0.007L6.269,10.77l0.007,0.007l0.007,0.007v0.007h0.007l-0.007,0.007l0.007,0.007H6.282v0.007
		l-0.007-0.007l-0.007,0.007v0.008H6.261L6.24,10.825l-0.027,0.014l-0.015,0.014l-0.049,0.035l-0.042,0.028l-0.007,0.007v0.015
		l-0.014,0.006L6.06,10.965v0.007L6.03,10.979l-0.146,0.09H5.877v0.008l-0.034,0.021l-0.008,0.014l-0.049,0.014l-0.043,0.028
		l-0.09,0.056l-0.035,0.028l-0.126,0.099l-0.069,0.069l-0.035,0.042l-0.007,0.021l-0.007,0.021H5.353v0.007l0.008,0.021l0.007,0.007
		v0.008v0.014l-0.015,0.014l-0.007,0.028v0.007h0.007v0.007v0.008v-0.008H5.346H5.34l-0.022,0.014l-0.028,0.028l-0.055,0.042
		l-0.07,0.077H5.157v-0.014l0.014-0.015l0.063-0.056L5.228,11.67l0.007-0.006H5.228H5.22L5.214,11.67l-0.015-0.006v0.006v0.008
		v0.007H5.185l-0.007,0.007l-0.007-0.007l-0.014,0.007l-0.014,0.007L5.108,11.67l-0.008-0.006L5.094,11.65H5.08l-0.014-0.008
		L5.06,11.628l0.021-0.006l0.007-0.014v-0.015h0.007l0.007-0.007L5.087,11.58l-0.014-0.007v-0.007L5.06,11.552v-0.007l-0.014-0.021
		v-0.007L5.039,11.51l0.007-0.014l-0.007-0.021l0.007-0.007v-0.007H5.039l-0.015-0.007v-0.007l0.007-0.008H5.024v-0.007
		l-0.007-0.007l-0.007-0.007l-0.008-0.014l-0.006,0.007v0.007v0.007H4.989H4.982v0.007v0.007l-0.007,0.008v0.007v0.014H4.969
		l-0.008-0.014H4.955v0.007L4.94,11.475l-0.007,0.015l-0.015,0.014v-0.014h0.008v-0.021H4.919l-0.006,0.007v-0.007H4.899v-0.007
		v-0.007l-0.022-0.021H4.87v-0.007l-0.014-0.007l-0.021-0.007l-0.007,0.007H4.814l-0.042,0.028l-0.007,0.027v0.015H4.752
		l-0.007,0.007l-0.016,0.021l-0.006,0.007l-0.007,0.015H4.71l-0.014-0.015l-0.008-0.007L4.682,11.51v-0.014l-0.007-0.007v-0.008
		H4.661v-0.014l-0.007-0.007v-0.007H4.646v-0.007v-0.008v-0.007v-0.007h0.008v-0.007l0.015-0.007l0.006-0.015v-0.007v-0.007
		l0.007-0.007L4.675,11.37l0.007-0.007l-0.007-0.008V11.35v-0.008v-0.014v-0.007h0.007v0.007l0.007-0.014H4.682l0.007-0.007
		L4.696,11.3v-0.006v-0.008H4.675l0.007-0.007l-0.007-0.014l0.007-0.014l0.007-0.008v-0.007v-0.014l0.021-0.015l0.007-0.006
		l0.013-0.008v-0.014h0.009v-0.015l0.007-0.007v-0.007l-0.007-0.007v0.007H4.724H4.717v-0.007L4.71,11.14H4.702v-0.007H4.696v-0.008
		H4.682l-0.007-0.014v-0.007l-0.006-0.007l-0.008-0.015l-0.007,0.008l-0.008-0.008l-0.006-0.006l-0.008,0.006l-0.006-0.006
		l-0.015,0.014H4.599v0.007l-0.014,0.007l-0.008,0.015l-0.014-0.008h0.008l-0.008-0.007l0.008-0.007H4.563l0.008-0.007l-0.008-0.008
		l-0.015-0.006v0.006v0.008v0.014l-0.007-0.007l-0.007-0.007l-0.028,0.007l-0.014,0.007H4.485v-0.014H4.479l-0.007,0.014
		l-0.015,0.007l-0.007-0.021l-0.014-0.008H4.423l-0.006-0.014L4.41,11.062l-0.015,0.015l-0.015-0.015l-0.007,0.007l0.015,0.014
		H4.381l-0.013-0.006l-0.036,0.006H4.326v0.008H4.318l-0.007-0.008H4.305H4.29l-0.014,0.015L4.27,11.083H4.256v-0.006H4.242v-0.015
		H4.234l-0.014,0.007l0.007-0.021h0.007v-0.008H4.228l-0.014,0.008L4.2,11.041H4.192l-0.006,0.008l0.006,0.007L4.2,11.049
		l-0.008,0.007v0.007v0.007l-0.006,0.008l-0.008,0.014H4.173l-0.008,0.007H4.157l-0.006-0.015H4.144v0.008H4.13v-0.008H4.123
		l-0.007,0.015l-0.016-0.007l-0.006-0.008H4.067H4.061H4.053H4.039l-0.007,0.008v0.007H4.019v0.014H3.989H3.983L3.97,11.104H3.962
		H3.948l-0.021-0.021H3.92v-0.006H3.913l0.007-0.015v-0.007H3.913v-0.007H3.906l0.007-0.021l-0.007-0.007v-0.007l0.007-0.007
		L3.92,11l-0.014-0.007h0.007v-0.008l-0.007-0.014v-0.007v-0.007h0.007l0.007-0.007l0.008,0.007l0.007-0.015l0.007-0.006
		L3.935,10.93v-0.014l-0.007-0.014h0.007l0.021-0.008v-0.014l0.006-0.007l0.008-0.007h0.007V10.86v-0.008H3.97l0.007-0.014
		L3.97,10.832l0.014-0.014l0.006-0.015v-0.007H3.983l-0.007,0.014L3.97,10.804v-0.007l0.014-0.021l0.014-0.021h0.007l0.021-0.021
		l-0.007-0.007H4.004l-0.007-0.007H3.977v-0.014H3.97l-0.014-0.015H3.948l-0.007,0.007l-0.007-0.007v-0.007v-0.007l-0.007-0.008
		L3.92,10.665l0.008-0.015L3.92,10.644H3.913l0.007-0.007L3.913,10.63H3.899v-0.007l-0.027-0.021l-0.008-0.007l0.014-0.007v-0.015
		v-0.021v-0.015l0.015-0.007l-0.007-0.007v-0.007H3.878l-0.021-0.014v-0.008l-0.006-0.007l-0.008,0.007l-0.007-0.007l-0.007,0.007
		v-0.007l-0.021-0.007l0.007-0.007H3.809l0.007-0.007l-0.021-0.007H3.788v-0.008L3.78,10.448l0.008-0.008H3.78v-0.007l-0.014-0.007
		L3.76,10.42l-0.007-0.008v-0.014H3.745v-0.007H3.739H3.731H3.725l0.007-0.007H3.725h0.007l0.008-0.007H3.731v-0.007l-0.007-0.007
		H3.718v-0.008l0.007-0.006v-0.008l-0.014-0.007H3.703v-0.007h0.015v-0.007H3.711v-0.008l-0.008-0.006l-0.006,0.006l-0.008-0.014
		h0.014h0.008l-0.008-0.006v-0.008H3.697V10.28l-0.015,0.007v0.008l-0.014-0.008H3.661V10.28l-0.006-0.007l-0.008-0.008
		l-0.007-0.007v-0.021l-0.014,0.014l-0.008-0.014l-0.006-0.007v-0.014L3.606,10.21h0.007l0.006-0.007l-0.013-0.007h0.007
		l0.014,0.007l-0.008-0.007v-0.007h0.008l0.014-0.008l0.015-0.006v-0.008v-0.007v-0.014l-0.008-0.014v-0.008l0.008-0.007
		l-0.015-0.007l0.007-0.007v-0.007v-0.007v-0.008l0.014,0.008h0.008l-0.008-0.015V10.07l0.008-0.014L3.661,10.05v-0.008H3.655
		v-0.006H3.647l-0.007-0.008H3.634v-0.007v-0.007H3.627v-0.007l-0.014-0.007V9.994L3.599,9.986L3.606,9.98V9.973H3.599V9.966V9.959
		L3.592,9.951l0.007-0.014l0.015-0.014V9.917L3.606,9.91l0.007-0.015L3.606,9.881l0.007-0.006L3.592,9.861L3.585,9.854l0.007-0.007
		h0.007L3.592,9.833l0.007-0.008V9.812l0.015,0.008V9.812V9.805V9.791V9.783l0.006-0.006L3.627,9.77h0.007l0.007,0.008h0.007
		L3.641,9.77l0.007-0.007H3.634V9.749H3.627L3.619,9.742H3.613V9.735V9.728H3.606H3.599H3.592V9.722l0.021-0.008l0.006,0.008
		l0.008-0.008L3.619,9.707V9.7L3.599,9.687H3.577V9.68V9.665l0.008,0.007l0.007-0.014V9.645L3.585,9.63V9.609L3.571,9.581
		L3.563,9.574l0.008-0.014H3.563L3.557,9.553V9.547V9.532L3.536,9.497L3.528,9.491l0.008-0.008H3.515L3.508,9.477V9.47L3.501,9.477
		L3.493,9.463L3.48,9.455L3.474,9.449l0.014-0.022L3.48,9.421L3.474,9.413H3.46L3.444,9.421L3.431,9.413H3.417L3.411,9.407H3.403
		L3.396,9.399V9.393H3.389L3.382,9.386L3.375,9.379L3.354,9.386H3.34L3.333,9.379L3.326,9.372L3.318,9.379L3.305,9.365H3.291V9.344
		V9.337l0.008-0.014V9.315h0.006V9.309L3.284,9.295L3.271,9.288H3.249L3.229,9.267V9.26l0.007-0.007l0.008-0.021L3.235,9.218V9.211
		L3.214,9.196L3.207,9.204v0.007l0.007,0.014L3.207,9.232H3.2H3.193L3.187,9.211H3.173L3.151,9.204v0.007L3.131,9.232L3.116,9.225
		H3.103L3.089,9.246H3.082H3.068L3.047,9.238L3.032,9.253L3.012,9.26H2.99L2.978,9.253L2.963,9.26H2.956V9.253L2.948,9.246
		L2.921,9.232L2.906,9.238H2.893L2.886,9.253H2.872H2.852L2.845,9.238L2.831,9.225V9.218L2.81,9.204L2.795,9.211H2.781L2.774,9.218
		v0.021H2.768L2.761,9.253L2.739,9.246L2.726,9.253L2.704,9.238H2.697L2.684,9.253L2.67,9.246L2.662,9.238L2.655,9.225L2.648,9.218
		L2.634,9.211L2.606,9.204L2.593,9.218L2.578,9.225L2.564,9.218L2.544,9.211L2.536,9.196H2.522H2.517L2.509,9.204L2.502,9.211
		L2.474,9.26L2.452,9.267H2.446H2.439L2.432,9.26L2.425,9.253H2.403H2.383L2.376,9.246l0.007-0.042V9.196V9.19L2.361,9.183
		L2.355,9.162L2.348,9.154L2.334,9.127L2.292,9.099L2.286,9.093H2.257H2.25L2.236,9.099H2.229L2.216,9.078H2.194L2.181,9.085H2.166
		L2.111,9.057H2.055L2.013,9.043L1.991,9.029L1.978,9.022L1.956,9.016H1.949L1.929,9.001L1.922,8.974H1.915L1.901,8.959L1.888,8.952
		L1.865,8.959H1.858L1.831,8.952H1.817L1.789,8.945L1.774,8.952H1.761L1.732,8.938H1.712L1.691,8.967H1.685L1.656,8.98H1.642
		L1.635,8.974L1.607,8.98L1.601,8.987L1.587,8.98L1.565,8.974L1.537,8.952L1.523,8.945H1.488H1.474L1.453,8.959H1.433L1.426,8.945
		L1.419,8.917V8.91H1.404L1.397,8.903H1.39L1.377,8.896L1.3,8.917H1.293L1.272,8.91L1.257,8.896L1.251,8.89L1.243,8.882L1.202,8.848
		H1.182L1.146,8.826L1.118,8.819H1.111H1.083L1.048,8.798L1.034,8.792H1.027L1.014,8.798L1.007,8.806L0.992,8.826L0.985,8.848v0.007
		L0.979,8.882V8.89l0.007,0.042L0.957,8.938L0.943,8.945L0.915,8.959H0.908V8.952V8.924L0.895,8.903L0.888,8.896L0.859,8.903
		L0.845,8.91L0.831,8.924l-0.02-0.007h-0.05L0.728,8.903L0.713,8.896H0.706L0.699,8.89H0.685v0.007H0.671L0.636,8.917H0.63
		L0.607,8.903L0.594,8.896H0.587L0.56,8.868L0.544,8.848H0.538L0.523,8.854L0.461,8.896L0.419,8.91H0.398L0.37,8.896L0.343,8.89
		L0.335,8.882H0.329H0.308L0.272,8.896L0.259,8.89L0.21,8.854L0.188,8.848L0.141,8.854L0.132,8.862L0.119,8.868L0.104,8.876v0.006
		L0.09,8.89L0.076,8.903L0.062,8.917L0.035,8.924L0.021,8.945L0.015,8.924L0.007,8.903z M8.504,9.735v0.007H8.498V9.735l0.006-0.008
		H8.498v0.008 M8.322,10.099v-0.007V10.099h0.007h0.008l-0.008,0.007h0.008v0.007l-0.008,0.007v-0.007l-0.007-0.007V10.099z
		 M7.296,10.189v-0.008V10.189z M8.127,9.875h0.007H8.127z M8.309,9.861H8.302l0.007-0.008V9.861H8.302H8.309z M8.448,9.687V9.68
		V9.687z M8.03,9.931V9.924V9.931z M8.043,10.287V10.28V10.287z M8.442,9.756h0.006v0.007H8.442V9.756z M8.015,10.287V10.28V10.287z
		 M8.064,10.218H8.058v0.007H8.05v0.007l0.021,0.007l-0.007,0.007l0.007,0.007h0.007l0.014,0.014l0.007-0.014l0.007,0.007h0.008
		l0.007,0.007l-0.007,0.008l-0.008-0.008v0.008v0.014v0.008v0.006v0.008h0.008l-0.008,0.006v0.008l-0.014,0.014l-0.021-0.007
		l-0.014-0.021l0.007-0.014L8.05,10.273L8.036,10.28v-0.007L8.03,10.28H8.021l-0.007-0.007L8.008,10.28H8.001v0.007L7.987,10.28
		l-0.008,0.015l-0.041,0.006H7.931L7.91,10.309L7.89,10.301L7.875,10.28v-0.028v-0.007h0.008l0.014-0.014h0.007v-0.007l0.015-0.007
		h0.007L7.918,10.21h0.007l0.035-0.034l0.014-0.008V10.14h0.006v-0.006l0.008-0.008v-0.007v-0.007l0.007-0.021v-0.015l0.014-0.007
		l0.014,0.007l0.009,0.007h0.02v0.008h0.015l0.007,0.007h0.007l0.007,0.007v0.007l0.007,0.007h0.007l0.007,0.015h0.008L8.105,10.14
		v0.014l-0.007,0.015h0.007v0.008l-0.014,0.006l0.007,0.008h0.007l-0.007,0.007h0.007h0.008l-0.008,0.007l-0.021-0.007H8.071
		L8.058,10.21h0.007V10.218z M8.315,9.889h0.007H8.315z M8.113,10.176v-0.008l0.007,0.008H8.113z M6.31,10.762h0.008H6.31z
		 M8.448,9.707h0.007H8.448v0.007L8.442,9.707H8.448z M8.406,9.722H8.399V9.714h0.007V9.722z M7.609,10.147h0.008H7.609z
		 M7.806,10.218V10.21h0.008v-0.007v0.007v0.008H7.806z M6.379,10.77h0.009v0.007H6.379V10.77z M6.388,10.79v-0.007h0.007v0.007
		H6.388z M8.49,9.756v0.007V9.756h0.008V9.749v0.007v0.007L8.49,9.756z M7.603,10.161v-0.008h0.007v0.008H7.603z M8.043,9.944
		L8.05,9.938h0.008v0.007H8.043z M7.54,10.225v-0.007h0.007h0.008l-0.008,0.007v0.007H7.54V10.225z M8.184,9.91l0.006-0.007
		L8.197,9.91v0.007L8.189,9.91L8.184,9.917V9.91z M8.184,10.161l0.014-0.008l0.007-0.006v0.006l0.027,0.015l-0.006,0.008
		l-0.015-0.008l-0.014,0.014l-0.008-0.014L8.184,10.161z M8.288,9.875V9.867l0.021,0.008v0.006L8.288,9.889L8.268,9.91V9.896V9.889
		L8.26,9.881l0.008-0.006V9.867v0.008l0.007,0.006H8.28L8.288,9.875z"/>
</g>
</svg>
