<?xml version="1.0" encoding="utf-8"?>
<!-- Generator: Adobe Illustrator 16.0.0, SVG Export Plug-In . SVG Version: 6.00 Build 0)  -->
<!DOCTYPE svg PUBLIC "-//W3C//DTD SVG 1.1//EN" "http://www.w3.org/Graphics/SVG/1.1/DTD/svg11.dtd">
<svg version="1.1" id="Layer_1" xmlns="http://www.w3.org/2000/svg" xmlns:xlink="http://www.w3.org/1999/xlink" x="0px" y="0px"
	 width="9.902px" height="11.929px" viewBox="0 0 9.902 11.929" enable-background="new 0 0 9.902 11.929" xml:space="preserve">
<path fill="none" stroke="#659497" stroke-width="8" stroke-miterlimit="10" d="M1.492,14.88"/>
<g>
	<path id="Paraná" fill="#E9EEEE" d="M3.131,3.109l0.007-0.007V3.089l0.014-0.028l0.007-0.015l0.014-0.021l0.022-0.014l0.027-0.036
		l0.014-0.02L3.25,2.928l0.007-0.042l0.014-0.021l0.007-0.021l0.015-0.021h0.013l0.008-0.014L3.305,2.781L3.298,2.767L3.284,2.753
		L3.277,2.739l0.007-0.015L3.277,2.704V2.683l0.021-0.056V2.585l0.015-0.027l0.007-0.028l0.014-0.056l0.021-0.062L3.361,2.39
		l0.014-0.008l0.007-0.014l0.015-0.035l0.007-0.021l0.014-0.035l0.008-0.076V2.188L3.41,2.138L3.403,2.11l0.014-0.05l0.028-0.027
		l0.021-0.028L3.48,1.97l0.007-0.014L3.473,1.9L3.459,1.879L3.425,1.845L3.417,1.823V1.803V1.796V1.781L3.403,1.746V1.732
		L3.396,1.726L3.41,1.697l0.028-0.021l0.021-0.028l0.008-0.007h0.006l0.028-0.007l0.077-0.056L3.62,1.559l0.021-0.021l0.006-0.015
		L3.669,1.46V1.433L3.662,1.411l0.007-0.014L3.662,1.39l0.007-0.021l0.007-0.042l0.021-0.035V1.285l0.008-0.041L3.71,1.223
		l0.008-0.014l0.008-0.028l0.006-0.042l0.014-0.042V1.055l0.028-0.049V0.999l0.014-0.008l0.008-0.006l0.028,0.006l0.056-0.027
		l0.062-0.042L3.99,0.908l0.007-0.007l0.035-0.049l0.014-0.028V0.817L4.06,0.782l0.015-0.049l0.027-0.042V0.678L4.13,0.649V0.531
		V0.517l0.021-0.027l0.006-0.028L4.18,0.446L4.192,0.44l0.015-0.015V0.419l0.014-0.021l0.014-0.008l0.015-0.007L4.284,0.37
		l0.034-0.021l0.021-0.006L4.36,0.32V0.314h0.008l0.027-0.008l0.014-0.021l0.008-0.007L4.43,0.272l0.015-0.008l0.021-0.006
		l0.062-0.021h0.007V0.23h0.021h0.021l0.008-0.007l0.014-0.015l0.048-0.062h0.007l0.021-0.035l0.008,0.021l0.006,0.021l0.015-0.021
		L4.73,0.125l0.014-0.014l0.014-0.014L4.772,0.09V0.084l0.015-0.008L4.8,0.07l0.009-0.008l0.048-0.007l0.021,0.007l0.049,0.035
		L4.94,0.104L4.976,0.09h0.021h0.006l0.008,0.008l0.027,0.007l0.028,0.014h0.021l0.042-0.014l0.062-0.042l0.015-0.007h0.006
		l0.016,0.021l0.027,0.028h0.007l0.014,0.007l0.022,0.014h0.006l0.035-0.021h0.014V0.098h0.015l0.007,0.007h0.007l0.015,0.007
		L5.43,0.125h0.05l0.02,0.007l0.014-0.014l0.015-0.007l0.028-0.007l0.007,0.007l0.014,0.021V0.16v0.007h0.007l0.028-0.014
		l0.014-0.007L5.653,0.14L5.646,0.098V0.09l0.007-0.027V0.056L5.66,0.034l0.015-0.021l0.007-0.008L5.695,0h0.007l0.014,0.006
		l0.035,0.021h0.028h0.007l0.027,0.007L5.85,0.056H5.87L5.911,0.09l0.008,0.008l0.006,0.007L5.94,0.118l0.021,0.007h0.007
		l0.077-0.021l0.013,0.007h0.008l0.007,0.007h0.015v0.007l0.007,0.028l0.007,0.014h0.021l0.021-0.014h0.015h0.035L6.205,0.16
		l0.028,0.021l0.021,0.007l0.014,0.007l0.007-0.007l0.027-0.007L6.31,0.188h0.015l0.028-0.014h0.007L6.38,0.146H6.4L6.429,0.16
		h0.014l0.015-0.007L6.485,0.16h0.014l0.027,0.007h0.007L6.556,0.16l0.014,0.007l0.014,0.015H6.59l0.007,0.027l0.021,0.015h0.007
		L6.646,0.23l0.014,0.007l0.021,0.014l0.042,0.014h0.057l0.055,0.028h0.015l0.014-0.007h0.021l0.014,0.021h0.007l0.014-0.006h0.007
		h0.029L6.96,0.307l0.042,0.028l0.014,0.027L7.023,0.37l0.006,0.021l0.021,0.008v0.006v0.008L7.044,0.454l0.007,0.007h0.021h0.021
		L7.1,0.468l0.008,0.007h0.007H7.12l0.021-0.007L7.17,0.419l0.007-0.007l0.008-0.008H7.19h0.014l0.008,0.015l0.021,0.007
		l0.014,0.007l0.015-0.007l0.014-0.014l0.027,0.007l0.015,0.007l0.007,0.007L7.33,0.446l0.008,0.008l0.014,0.007l0.014-0.015h0.007
		l0.021,0.015l0.014-0.007l0.021,0.007l0.007-0.015h0.007V0.426l0.007-0.007h0.014l0.015-0.007l0.021,0.014v0.007l0.014,0.014
		L7.52,0.461H7.54h0.014l0.007-0.015h0.014L7.589,0.44l0.027,0.014l0.008,0.007v0.007h0.007l0.015-0.007l0.013,0.007H7.68L7.7,0.461
		l0.015-0.015l0.021,0.008H7.75h0.007l0.014-0.021h0.014L7.799,0.44l0.021-0.021V0.412l0.021,0.007h0.014L7.861,0.44h0.007h0.007
		l0.007-0.008L7.875,0.419V0.412l0.007-0.008l0.021,0.015v0.007L7.911,0.44L7.903,0.461L7.896,0.468v0.007l0.021,0.021h0.021
		l0.014,0.007l0.021,0.014v0.007H7.967v0.008L7.959,0.545v0.007v0.021h0.014l0.014,0.014L7.994,0.58l0.007,0.007l0.007,0.007h0.015
		l0.021-0.007L8.05,0.594l0.007,0.007h0.008v0.007l0.007,0.008h0.008l0.006,0.006h0.014l0.014,0.008l0.016-0.008h0.014l0.007,0.008
		l0.007,0.006L8.142,0.657l0.007,0.006l0.013,0.008l0.008,0.014l0.007-0.007v0.007l0.007,0.007h0.021L8.196,0.699l0.008,0.006
		L8.225,0.74v0.015v0.006l0.007,0.008h0.008L8.231,0.782l0.008,0.007l0.014,0.028v0.021L8.26,0.853v0.014L8.253,0.88L8.245,0.873
		v0.015v0.007h0.021l0.021,0.014v0.007l0.008,0.007L8.287,0.93L8.281,0.922L8.26,0.93v0.006h0.007h0.008h0.007v0.008V0.95h0.006
		l0.008,0.007h0.007v0.014h0.014L8.309,0.978l0.007,0.008H8.309L8.302,0.978H8.295L8.287,0.985L8.281,0.991v0.008v0.014V1.02v0.008
		L8.267,1.02v0.014L8.26,1.041l0.007,0.014H8.26L8.253,1.062L8.26,1.069l0.021,0.014L8.274,1.089l0.007,0.015L8.274,1.118
		l0.007,0.007v0.007L8.267,1.146L8.26,1.159l0.007,0.008v0.007v0.007h0.008v0.008L8.267,1.194l0.015,0.008v0.007l0.014,0.007v0.007
		h0.007v0.007v0.007h0.007l0.007,0.008h0.008V1.25h0.006v0.008l0.008,0.007L8.329,1.278v0.007L8.337,1.3H8.329L8.315,1.292V1.3
		v0.007v0.007L8.309,1.32l0.015,0.007L8.315,1.334v0.008l0.008,0.014v0.014v0.007v0.008L8.309,1.39L8.295,1.397H8.287v0.007
		l0.008,0.007L8.281,1.404H8.274l0.013,0.007L8.281,1.418H8.274l0.007,0.008v0.014l0.006,0.007L8.295,1.46l0.014-0.014v0.021
		l0.007,0.007l0.008,0.008l0.006,0.007v0.007h0.008l0.014,0.008V1.495l0.015-0.007v0.007h0.006v0.008l0.008,0.006H8.371H8.357
		l0.008,0.014l0.006-0.006l0.008,0.006V1.53h0.007v0.007H8.371v0.007h0.008l0.014,0.007v0.008L8.386,1.564v0.008h0.007l0.007,0.007
		v0.007h0.008L8.399,1.593H8.393h0.007L8.393,1.6h0.007h0.008h0.006v0.007h0.008V1.62l0.007,0.008l0.007,0.007l0.014,0.007v0.007
		h0.008L8.448,1.656l0.008,0.006V1.67h0.006l0.021,0.007L8.477,1.684h0.007L8.477,1.69l0.021,0.007v0.007l0.007-0.007l0.007,0.007
		l0.008-0.007l0.006,0.007v0.008l0.021,0.014h0.008v0.007l0.007,0.007L8.546,1.746v0.015v0.021v0.015L8.532,1.803L8.54,1.81
		l0.027,0.021v0.007h0.014l0.007,0.007L8.581,1.852h0.007l0.008,0.007L8.588,1.873l0.008,0.006l0.007,0.008v0.007V1.9l0.007,0.007
		L8.616,1.9h0.008l0.014,0.015h0.007v0.014h0.021l0.007,0.007h0.015l0.007,0.007L8.672,1.963H8.665L8.651,1.984L8.638,2.005v0.007
		l0.007,0.007l0.007-0.014h0.006v0.007L8.651,2.026L8.638,2.04l0.007,0.007L8.638,2.061h0.007v0.008v0.007H8.638L8.63,2.082
		L8.624,2.089v0.014L8.603,2.11H8.596l0.007,0.014v0.014l0.007,0.008L8.603,2.151L8.596,2.166L8.588,2.159L8.581,2.166H8.574v0.007
		V2.18l0.007,0.014v0.008H8.574l0.014,0.007L8.581,2.215L8.574,2.222v0.007l0.007,0.007L8.574,2.257h0.007v0.007h0.007v0.007
		L8.581,2.285h0.007v0.006h0.008l0.021,0.021H8.63h0.008l0.014,0.007h0.006h0.029V2.306H8.7V2.299l0.007-0.008h0.014h0.008h0.007
		h0.027l0.006,0.008l0.016,0.007l0.007-0.015h0.007v0.008h0.014V2.291h0.008l0.006,0.015h0.008l0.008-0.007h0.006l0.008-0.014
		L8.86,2.277V2.271V2.264l0.008-0.007L8.86,2.264L8.854,2.257L8.86,2.249h0.008l0.014,0.008l0.014-0.008h0.007v0.008H8.896
		L8.889,2.277l0.014-0.007H8.91v0.015h0.014v0.006h0.014l0.007,0.015l0.014-0.015h0.015h0.007l0.007,0.008h0.008V2.291H9
		l0.036-0.006l0.013,0.006h0.008L9.042,2.277l0.007-0.007l0.015,0.015l0.015-0.015l0.007,0.007l0.006,0.014h0.015l0.014,0.008
		l0.007,0.021l0.015-0.007l0.007-0.014h0.006v0.014h0.008l0.014-0.007l0.028-0.007L9.21,2.306l0.007,0.007V2.299V2.291V2.285
		l0.015,0.006l0.008,0.008L9.231,2.306h0.008L9.231,2.312l0.008,0.007H9.231l0.014,0.008l0.008-0.015l0.014-0.007V2.299H9.28
		l0.015-0.014l0.006,0.006l0.008-0.006l0.006,0.006l0.008,0.008l0.007-0.008l0.008,0.015l0.006,0.007v0.007L9.35,2.333h0.015v0.008
		H9.37v0.007h0.008l0.007,0.007v0.007h0.007h0.015V2.354l0.007,0.007v0.007L9.406,2.375V2.39H9.397v0.014L9.385,2.411L9.378,2.417
		L9.356,2.432v0.014v0.007L9.35,2.46L9.343,2.474L9.35,2.487L9.343,2.494h0.021v0.008v0.006L9.356,2.516L9.35,2.522h0.007
		L9.35,2.536V2.529H9.343v0.007V2.55v0.008v0.006L9.35,2.571L9.343,2.578L9.35,2.585L9.343,2.592v0.007v0.007L9.337,2.62
		L9.322,2.627v0.007H9.314v0.007v0.007v0.008v0.007h0.008v0.007l0.007,0.007v0.014h0.014v0.008L9.35,2.704v0.014l0.007,0.007
		l0.008,0.007l0.014,0.015h0.007l0.007-0.015l0.006-0.007l0.016-0.021L9.42,2.697h0.014V2.683L9.44,2.655l0.042-0.028h0.015
		L9.504,2.62l0.021,0.007l0.014,0.007v0.007h0.007l0.022,0.021v0.007v0.007h0.014v0.007l0.006-0.007h0.008v0.021H9.587v0.014
		l0.015-0.014l0.007-0.015l0.015-0.014V2.662h0.006l0.008,0.014h0.007V2.662V2.655L9.65,2.647V2.641V2.634h0.007h0.008V2.627V2.62
		l0.006-0.007l0.008,0.014l0.007,0.007l0.007,0.007v0.007h0.007L9.692,2.655v0.007l0.015,0.007h0.007v0.007L9.707,2.683l0.007,0.021
		L9.707,2.718l0.007,0.007v0.007l0.014,0.021V2.76l0.014,0.015v0.007l0.014,0.007l0.014,0.007L9.762,2.802H9.755v0.015L9.748,2.83
		L9.728,2.836l0.007,0.015l0.014,0.008h0.014l0.007,0.014l0.008,0.006l0.035,0.028l0.014-0.007l0.014-0.007l0.007,0.007l0.007-0.007
		h0.015V2.886V2.878V2.872l0.015,0.006l0.006-0.006h0.008h0.007L9.896,2.878l0.007,0.008L9.839,2.941L9.825,2.956V2.97h0.007
		L9.825,2.976L9.79,3.004L9.769,3.025L9.741,3.067L9.72,3.095L9.714,3.131L9.707,3.138H9.692L9.665,3.145L9.637,3.159L9.608,3.165
		l0.035,0.021L9.629,3.221H9.623v0.014v0.008H9.615L9.608,3.249L9.602,3.263H9.56L9.538,3.27L9.504,3.298L9.476,3.333L9.44,3.396
		L9.385,3.487L9.378,3.528v0.015L9.37,3.535L9.364,3.543L9.35,3.549v0.008v0.007L9.343,3.577L9.35,3.585L9.337,3.612L9.322,3.661
		L9.314,3.669l0.008,0.006H9.314L9.309,3.683L9.301,3.675v0.008H9.295H9.287V3.675H9.28V3.669L9.273,3.661L9.267,3.654L9.245,3.669
		v0.006H9.239H9.231v0.008H9.196H9.085H8.938l0.015,0.006H8.944H8.938V3.683H8.931L8.924,3.688L8.916,3.696v0.007H8.91L8.902,3.711
		H8.896v0.007H8.882H8.874L8.868,3.703H8.86L8.854,3.718H8.847L8.841,3.725L8.825,3.711V3.696L8.819,3.703H8.805v0.008H8.798
		L8.791,3.696L8.784,3.703L8.769,3.696L8.763,3.703h0.006H8.763L8.756,3.718V3.711H8.749v0.007L8.741,3.711H8.735L8.729,3.703H8.721
		L8.714,3.711H8.7v0.007H8.687L8.679,3.725L8.665,3.731H8.657H8.651l0.006,0.007L8.651,3.745L8.638,3.752v0.007v0.008v0.007H8.624
		H8.63L8.624,3.78v0.008L8.616,3.78v0.008L8.609,3.78H8.603L8.596,3.788v0.006l0.007,0.008H8.596h0.007v0.006H8.588l0.008,0.008
		L8.588,3.821V3.815H8.581H8.574L8.554,3.829L8.546,3.836H8.54v0.008H8.532V3.85L8.524,3.844L8.532,3.85H8.524v0.008H8.519v0.006
		H8.504H8.497v0.008L8.49,3.863V3.857L8.483,3.871L8.47,3.863v0.014V3.871L8.462,3.877H8.456L8.448,3.885V3.871H8.44H8.428
		L8.421,3.885L8.407,3.899L8.399,3.892v0.008L8.393,3.906h0.007L8.393,3.913H8.386l0.007,0.014V3.919v0.008L8.386,3.934H8.379v0.008
		L8.371,3.934L8.365,3.941L8.357,3.934v0.008L8.351,3.927H8.344v0.007l0.007,0.008H8.344H8.337H8.329h0.008L8.329,3.955L8.315,3.947
		L8.302,3.927v0.015H8.295V3.934H8.287H8.281v0.008L8.274,3.927H8.267V3.919v0.008H8.26L8.245,3.919l0.008-0.006V3.899H8.245v0.014
		L8.231,3.919V3.913V3.906H8.225V3.899H8.218v0.007L8.212,3.899L8.204,3.906L8.196,3.899H8.19l0.014-0.015H8.19L8.183,3.871
		L8.169,3.863L8.155,3.877H8.148L8.142,3.863L8.155,3.85H8.142H8.128V3.829L8.112,3.821L8.106,3.808H8.099v0.008h0.008v0.014H8.099
		L8.092,3.808L8.085,3.815v0.006L8.071,3.815L8.064,3.794L8.057,3.802H8.05L8.043,3.788V3.773L8.036,3.78H8.029l0.014-0.007V3.759
		L8.036,3.752v0.015H8.029L8.022,3.759H8.016L8.008,3.752L8.001,3.745l0.007-0.007L7.98,3.731L7.973,3.738L7.967,3.731L7.959,3.725
		L7.938,3.731L7.932,3.725l0.007-0.007L7.932,3.711L7.917,3.718L7.911,3.725l0.014,0.007L7.896,3.759l0.007-0.014V3.725L7.896,3.718
		L7.875,3.711v0.007H7.861v0.007l0.007,0.014L7.861,3.745L7.841,3.731H7.833H7.827L7.812,3.738H7.806H7.799L7.791,3.745v0.007V3.745
		L7.784,3.725L7.778,3.745L7.757,3.759L7.75,3.752L7.742,3.767L7.729,3.745L7.715,3.759V3.752l0.007-0.021L7.715,3.725L7.7,3.731
		L7.694,3.725L7.687,3.731L7.68,3.738h0.007l0.008,0.007H7.7V3.738l0.008,0.007L7.7,3.759L7.694,3.767L7.687,3.773L7.68,3.78
		L7.673,3.773V3.767H7.658L7.652,3.759H7.646L7.638,3.767L7.631,3.752V3.738L7.61,3.731v0.007v0.014L7.597,3.745L7.582,3.752
		L7.561,3.759L7.54,3.773v0.015H7.526l0.007,0.014v0.006L7.526,3.815l0.007,0.006v0.008H7.526v0.007H7.54v0.008L7.533,3.836
		L7.526,3.844L7.52,3.836L7.505,3.829L7.499,3.821V3.815L7.491,3.821V3.815l0.008-0.014L7.491,3.788L7.456,3.767V3.759L7.449,3.767
		H7.442H7.436H7.421L7.414,3.752L7.407,3.745l0.007-0.007L7.399,3.731v0.007V3.731H7.387V3.725H7.379v0.014L7.372,3.731h0.007H7.365
		L7.357,3.725L7.352,3.731L7.344,3.725L7.33,3.731L7.302,3.745V3.738V3.725H7.296L7.288,3.703H7.281L7.261,3.725v0.021l0.007,0.007
		h0.007l0.014-0.007h0.008h0.006v0.014L7.296,3.767H7.288L7.268,3.773H7.253L7.226,3.767L7.212,3.78L7.204,3.794L7.19,3.808
		l0.014,0.028H7.198L7.19,3.844L7.177,3.85L7.17,3.857L7.163,3.871L7.149,3.892L7.142,3.899L7.114,3.913l0.021,0.042L7.128,3.961
		H7.114H7.1v-0.02L7.093,3.934L7.051,3.941L7.044,3.947L7.037,3.955L7.023,3.961L7.016,3.982L7.009,3.989L7.002,3.982L6.981,3.955
		H6.974L6.968,3.976L6.96,3.997L6.954,4.004H6.945H6.932V3.969L6.911,3.947H6.904L6.897,3.955l0.014,0.027L6.904,3.997H6.897
		L6.891,3.982H6.87V3.961L6.849,3.947L6.841,3.941l-0.056,0.02L6.779,3.955L6.757,3.941L6.75,3.961H6.743v0.015L6.737,3.982
		L6.729,3.989L6.716,3.997H6.701v0.007H6.694L6.688,3.997L6.673,4.004v0.007H6.666L6.653,4.018H6.639H6.632H6.624L6.617,4.032
		L6.61,4.039L6.59,4.046v0.007H6.583L6.575,4.066h0.008v0.007L6.569,4.088l0.006,0.007l0.008,0.007L6.562,4.108L6.556,4.116V4.13
		L6.54,4.122V4.13l0.008,0.007L6.533,4.144V4.15L6.54,4.164l0.021,0.008L6.556,4.178v0.008h0.006h0.008l0.014,0.007L6.575,4.199
		l0.008,0.007L6.569,4.214V4.22H6.562v0.008v0.007l0.008,0.007l0.006,0.015h0.008L6.59,4.27h0.007v0.007L6.61,4.283L6.604,4.29
		v0.007l0.014,0.007L6.61,4.312v0.007v0.014L6.597,4.339l0.007,0.015L6.597,4.36v0.007H6.575L6.569,4.374H6.556v0.007H6.548v0.015
		H6.526L6.521,4.388L6.506,4.396V4.388H6.499L6.479,4.396H6.464L6.45,4.402H6.437L6.422,4.417l0.015,0.014v0.014L6.429,4.451
		L6.415,4.458l0.007-0.014L6.394,4.431L6.387,4.409L6.373,4.396V4.381L6.366,4.367L6.359,4.36H6.353H6.338l0.007-0.015L6.338,4.339
		L6.331,4.325L6.317,4.318L6.296,4.325H6.241H6.226H6.205H6.191L6.178,4.312L6.156,4.297L6.128,4.318H6.114L6.087,4.312L6.03,4.325
		H6.017L5.996,4.318L5.975,4.332L5.961,4.325L5.946,4.339H5.94L5.933,4.332V4.325L5.911,4.318H5.884L5.862,4.304L5.856,4.312
		L5.841,4.304H5.828V4.297L5.8,4.304L5.793,4.29V4.283H5.779V4.276L5.766,4.27L5.758,4.263H5.751L5.744,4.256H5.73L5.724,4.241
		H5.716L5.709,4.234V4.214L5.695,4.206H5.682L5.675,4.199H5.66H5.646L5.618,4.172L5.604,4.186L5.583,4.192H5.562L5.556,4.186H5.549
		H5.542L5.527,4.192H5.521V4.186L5.499,4.164h-0.02L5.465,4.172L5.457,4.157L5.451,4.172L5.438,4.157L5.423,4.164H5.416L5.409,4.157
		L5.401,4.15L5.396,4.157L5.381,4.164H5.374H5.353H5.346H5.339H5.332L5.318,4.144H5.304L5.275,4.122L5.255,4.13L5.241,4.137
		L5.233,4.13L5.228,4.137L5.212,4.13L5.199,4.144L5.191,4.137H5.185H5.179V4.13L5.171,4.122L5.157,4.116V4.108L5.15,4.102
		L5.137,4.095L5.115,4.073L5.095,4.081H5.087L5.081,4.073L5.073,4.081L5.066,4.066L5.053,4.06L5.046,4.066H5.038L5.031,4.073H5.024
		L5.011,4.066L4.997,4.073H4.989L4.982,4.066H4.976H4.962H4.947H4.94L4.913,4.081H4.905H4.899H4.892H4.878L4.87,4.073L4.856,4.081
		H4.851L4.836,4.088L4.794,4.066L4.752,4.095L4.73,4.102L4.703,4.116H4.688L4.683,4.108L4.675,4.102H4.668L4.653,4.095L4.646,4.088
		L4.64,4.081L4.633,4.066H4.626L4.619,4.073H4.612L4.604,4.066H4.592L4.577,4.053H4.57V4.046L4.542,4.032L4.528,4.018H4.521V4.011
		L4.515,4.004V3.997L4.5,3.976H4.493V3.961L4.466,3.976H4.458L4.452,3.969H4.438V3.961H4.43H4.424v0.008L4.417,3.961L4.409,3.969
		L4.396,3.955L4.388,3.961L4.347,3.989L4.339,3.997H4.325L4.304,4.011H4.298H4.291L4.271,4.018L4.241,4.011H4.214V4.004L4.192,3.989
		H4.186L4.18,3.969L4.157,3.976H4.144H4.138L4.123,3.969L4.115,3.961h0.008L4.115,3.955L4.109,3.947l0.014-0.021L4.109,3.919V3.906
		H4.102L4.088,3.885L4.081,3.877L4.06,3.863L4.054,3.85L4.046,3.836H4.039L4.018,3.821V3.815l0.007-0.008L4.018,3.794l0.007-0.021
		h0.008V3.767V3.759L4.024,3.745H4.018H4.011V3.738L4.004,3.745V3.738V3.731L3.997,3.738L3.99,3.731V3.725H3.976l0.008-0.007H3.976
		l0.008-0.007L3.97,3.703V3.696L3.963,3.703L3.956,3.696V3.688V3.683L3.948,3.688H3.941V3.683V3.675L3.921,3.669V3.661h0.006
		L3.921,3.654L3.913,3.627h0.008h0.006V3.612l0.007,0.015h0.008L3.934,3.612l0.008-0.008H3.934L3.921,3.612l0.006-0.014h0.007
		l0.008-0.008H3.934H3.921V3.585V3.577L3.913,3.585L3.906,3.577h0.015V3.57h0.006l0.007-0.007H3.921l0.006-0.015H3.913h0.008V3.543
		L3.913,3.528L3.906,3.535V3.528l0.007-0.014h0.008V3.508l0.006-0.007l0.015,0.007V3.501H3.927l0.007-0.014V3.479H3.913l0.014-0.007
		V3.466L3.913,3.459L3.899,3.451l0.007-0.006h0.015L3.913,3.438h0.014L3.906,3.424L3.893,3.431L3.899,3.41V3.403H3.886l0.007-0.007
		L3.879,3.389h0.014L3.886,3.374l0.014,0.008v0.007l0.007-0.007V3.374l0.007-0.006L3.899,3.36V3.354L3.893,3.34L3.879,3.333
		L3.864,3.34l0.007-0.014h0.008V3.318L3.871,3.326L3.864,3.318l0.007-0.014L3.864,3.298L3.843,3.312V3.305L3.837,3.312V3.305
		l0.006-0.007L3.837,3.29L3.823,3.298H3.815V3.29H3.809v0.008H3.801l0.008,0.014L3.801,3.326L3.795,3.318V3.305L3.787,3.29H3.781
		H3.773V3.284l0.008-0.007L3.759,3.263L3.753,3.257L3.745,3.242L3.731,3.234L3.726,3.242L3.71,3.257L3.704,3.263L3.689,3.249
		L3.683,3.234H3.669L3.662,3.257V3.29H3.655v0.008L3.642,3.277L3.626,3.242V3.229l0.029-0.036v-0.02L3.647,3.165H3.642L3.605,3.192
		L3.585,3.215H3.578L3.557,3.207L3.543,3.215L3.536,3.229h0.007l0.028,0.014v0.007l0.007,0.008H3.571H3.551L3.521,3.234H3.515
		L3.508,3.242V3.27H3.494L3.48,3.257L3.467,3.229H3.452L3.417,3.249L3.396,3.284H3.389L3.368,3.27L3.354,3.277v0.007v0.014
		L3.347,3.312L3.312,3.34l0.007,0.028L3.312,3.374H3.305L3.292,3.34L3.271,3.312L3.257,3.305L3.235,3.29L3.214,3.305H3.208L3.2,3.29
		l0.008-0.013L3.194,3.27L3.18,3.263H3.172L3.145,3.27V3.215L3.138,3.192V3.151L3.116,3.138V3.123V3.116L3.131,3.109z"/>
	<path id="Rio_Grande_do_Sul" fill="#E9EEEE" d="M0.328,7.917l0.007-0.042L0.328,7.833V7.818l0.036-0.056l0.049-0.041l0.021-0.007
		h0.055L0.531,7.7l0.007-0.007l0.028-0.021l0.048-0.042l0.063-0.084l0.021-0.028L0.734,7.49l0.027-0.042l0.049-0.027l0.028-0.015
		l0.014-0.014l0.021-0.014l0.021-0.028V7.33V7.316l0.007-0.035l0.014-0.007h0.042l0.015-0.007l0.049-0.092l0.006-0.021L1.021,7.128
		l0.021-0.042l0.027-0.035l0.014-0.042l0.021-0.007H1.14L1.167,6.98l0.015-0.007l0.069-0.007h0.014l0.007-0.042l0.015-0.021
		L1.265,6.883l0.007-0.027l0.015-0.015L1.3,6.833l0.049-0.014l0.015-0.014l0.021-0.028l0.007-0.014V6.736L1.384,6.688l0.007-0.021
		l0.014-0.007l0.021-0.014h0.077L1.53,6.61l0.014-0.028l0.021-0.027l0.084-0.07l0.027-0.014l0.015-0.014l0.007-0.014L1.685,6.429
		L1.671,6.407V6.394V6.38l0.014-0.021l0.027-0.007l0.035-0.007l0.035-0.007L1.81,6.331l0.007-0.007V6.317L1.796,6.269V6.254V6.247
		l0.028-0.043l0.028-0.006L1.88,6.212h0.062l0.021,0.007l0.007,0.008l0.007,0.021l0.006,0.014l0.009,0.014h0.014l0.007-0.014V6.24
		l0.021-0.056V6.17L1.999,6.148l-0.028-0.02L1.929,6.114L1.922,6.093l0.007-0.014l0.042-0.014l0.035-0.007l0.041-0.035l0.007-0.007
		L2.068,6.01h0.007l0.008-0.007L2.075,5.988l0.014-0.007L2.083,5.968L2.089,5.96l0.008-0.014H2.11l0.014,0.007V5.96L2.116,5.974
		v0.008l0.029,0.014h0.007l0.007-0.007V5.974V5.968l0.014-0.015l0.021-0.007l0.015-0.028l0.006-0.014h0.015l0.014,0.021h0.014h0.008
		l0.007-0.015L2.3,5.884l0.041-0.021l0.007-0.006V5.842L2.334,5.82H2.327V5.807l0.014-0.015h0.027l0.008-0.006l0.008-0.028
		L2.39,5.744h0.008h0.014l0.027,0.007h0.015L2.46,5.736L2.48,5.702l0.042-0.035h0.015l0.014,0.007l0.014,0.021l0.015,0.014
		l0.006,0.007l0.008-0.007L2.6,5.702L2.593,5.674L2.6,5.667L2.614,5.66l0.027-0.007l0.027,0.014L2.69,5.674L2.697,5.66V5.646
		L2.69,5.632L2.642,5.611L2.635,5.598L2.642,5.59l0.007-0.007l0.021-0.007l0.035,0.027l0.008,0.008l0.014-0.008l0.007-0.021h0.014
		L2.768,5.59h0.007l0.014-0.007l0.008-0.014V5.562l0.027-0.027V5.506V5.464V5.443L2.83,5.43h0.014h0.028l0.007-0.008l0.007-0.021
		l0.008-0.035l0.02-0.042h0.008l0.014,0.007l0.008,0.043l0.014,0.007h0.007H2.97l0.007-0.007l0.015-0.015h0.021l0.041,0.015
		l0.007-0.008V5.353L3.054,5.324V5.311l0.007-0.014h0.007l0.008,0.007l0.013,0.035h0.015h0.007l0.007-0.015l0.008-0.021l0.021-0.035
		V5.255l0.007-0.014h0.007l0.008,0.006l0.021,0.021L3.2,5.297h0.008l0.014-0.008l0.007-0.014l0.007-0.007h0.028h0.021l0.014-0.007
		V5.247L3.292,5.241L3.271,5.227V5.213h0.007h0.027l0.008-0.008l0.013-0.014h0.008l0.021,0.014v0.008l0.021,0.028l0.007,0.006
		l0.015,0.008L3.41,5.247V5.233L3.403,5.213V5.198V5.191H3.41l0.015,0.007l0.014,0.015l0.014,0.021h0.007L3.48,5.227V5.198
		l0.007-0.014l0.007-0.007h0.021l0.015-0.007l0.007-0.014V5.144V5.129l0.007-0.021l0.014-0.021V5.073l0.007-0.028l0.015-0.014h0.007
		l0.007,0.007v0.007v0.028L3.605,5.08H3.62h0.021h0.006h0.028l0.007-0.015l0.014-0.027l0.029-0.007L3.739,5.01V4.989l0.006-0.015
		l0.021-0.006h0.015h0.014V4.954V4.933l0.006-0.006h0.015l0.014,0.006l0.008,0.015h0.014l0.014-0.021l0.007-0.021l0.008-0.007h0.021
		l0.014,0.034L3.921,4.94h0.006l0.007,0.007h0.008h0.007L3.956,4.94l0.027-0.021l0.014,0.008l0.014,0.034h0.014l0.015-0.007h0.007
		l0.008-0.007L4.067,4.94l0.007-0.008h0.014h0.007L4.109,4.94v0.007l0.006,0.007v0.015v0.021l0.008,0.007H4.13l0.014-0.035h0.008
		h0.014h0.007L4.2,4.947h0.014h0.007l0.021,0.021l0.014,0.006h0.008h0.014V4.969V4.954V4.947L4.263,4.933V4.927V4.919V4.905h0.008
		h0.006h0.015l0.007,0.014l0.014,0.008L4.36,4.912l0.008-0.014l0.006-0.021l0.014-0.014h0.008l0.007-0.007l0.007,0.007l0.008,0.014
		l0.007,0.008H4.43h0.008h0.007h0.021v0.007l0.006,0.007h0.008v0.007v0.007v0.007L4.472,4.933l-0.02,0.036v0.006v0.007v0.008h0.006
		h0.008l0.014-0.021l0.042-0.021L4.535,4.94h0.007l0.035,0.021h0.015l0.007-0.007l0.006-0.035V4.912h0.008l0.007-0.007l0.007,0.007
		L4.64,4.94v0.007h0.007L4.668,4.94L4.71,4.927V4.912V4.905L4.703,4.885V4.877V4.87l0.021-0.021H4.73h0.021h0.006l0.009,0.008
		L4.758,4.87l-0.02,0.028v0.021l0.006,0.008h0.008L4.78,4.905h0.007l0.007,0.014H4.8v0.014L4.787,4.954L4.78,4.961v0.021h0.007
		l0.007,0.008l0.015,0.007l0.006-0.007V4.954l0.008-0.021h0.007L4.851,4.94v0.028l0.006,0.006h0.007l0.021-0.006l0.016-0.008V4.954
		L4.927,4.94h0.006L4.94,4.947v0.027v0.007h0.007h0.007l0.014-0.007h0.008h0.014h0.008l0.006,0.007h0.015h0.007v0.008h0.007v0.007
		L5.024,5.017v0.008l0.014,0.007v0.007l0.008-0.007L5.06,5.017L5.066,5.01h0.007l0.008,0.015l0.006,0.021v0.007L5.095,5.06h0.006
		l0.015-0.015V5.024l0.007-0.008h0.007h0.008L5.15,5.038l0.014,0.007h0.007l0.008-0.007l0.021-0.007l0.007-0.007h0.021h0.006
		l0.015-0.008l0.014,0.021l0.036,0.007h0.021V5.038V5.024V5.017V5.01l0.034-0.021h0.007h0.008v0.007L5.359,5.017v0.008v0.014
		L5.381,5.06l0.007,0.006l0.008,0.008h0.006l0.008-0.008L5.401,5.038V5.031h0.008h0.007v0.007h0.007L5.416,5.065l0.007,0.021
		L5.438,5.08l0.014-0.015h0.006L5.472,5.08l0.014,0.007l0.014,0.015h0.008V5.094l0.006-0.007L5.507,5.073L5.499,5.06V5.045V5.038
		h0.008h0.021h0.015l0.007-0.007l0.021,0.014L5.562,5.052L5.542,5.06L5.527,5.073V5.08l0.028,0.007h0.007l0.014,0.021h0.007v0.008
		h0.008l0.006-0.008l0.008-0.014l0.007-0.021L5.625,5.06l0.008-0.008H5.64L5.646,5.06L5.64,5.094h0.007h0.007l0.014-0.007h0.015
		L5.688,5.08l0.014,0.007v0.007v0.014v0.015l0.007,0.007h0.015l0.014-0.007l0.021,0.007h0.008h0.006l0.021-0.014H5.8v0.014
		L5.786,5.136l0.007,0.008v0.006l0.015,0.008l0.006,0.006l0.015-0.006H5.85l0.013,0.006v0.015H5.856H5.821H5.813H5.808v0.007v0.007
		l0.014,0.007h0.014h0.021l0.021,0.021v0.008v0.007L5.85,5.255l0.007,0.007H5.87l0.014-0.007l0.014-0.008h0.007l0.007,0.008v0.034
		l0.014,0.021H5.94V5.304L5.933,5.282L5.94,5.275V5.269h0.021h0.014v0.007L5.961,5.311l0.007,0.007l0.014-0.007l0.015-0.007
		l0.021,0.021h0.007H6.03V5.317V5.311L6.017,5.297V5.282H6.03l0.035-0.007v0.007L6.08,5.289l0.014,0.015h0.007l0.007-0.007
		l0.007-0.021l0.007-0.007h0.015l0.014,0.007v0.007L6.142,5.297l0.008,0.014h0.007h0.007h0.008l0.007-0.007V5.282h0.014h0.007v0.007
		h0.007L6.191,5.331l0.007,0.008h0.014l0.014-0.021h0.016h0.006v0.007v0.007L6.241,5.359l0.006,0.015l0.008,0.007h0.006l0.008-0.015
		V5.359h0.007V5.353l0.014,0.007l0.028-0.007h0.021l0.007,0.014h0.008v0.028l0.007,0.007l0.007,0.007h0.007v0.008l0.021,0.021V5.45
		v0.007h0.015l0.007-0.014l0.007-0.007L6.429,5.43l0.014-0.008L6.457,5.43v0.007L6.45,5.464l0.014,0.008l0.015,0.015l0.021-0.015
		l0.014,0.006h0.008v0.009V5.5l0.006,0.006L6.521,5.514v0.014l0.02,0.007l0.016-0.007l0.006,0.014v0.015l0.021,0.014L6.59,5.583
		L6.597,5.59l0.007-0.007L6.61,5.576l0.014,0.007h0.021l0.014,0.015l0.021,0.014h0.021v0.007L6.709,5.64v0.006h0.007L6.737,5.64
		h0.006l0.014,0.006l0.008,0.008L6.757,5.674l0.008,0.007h0.021v0.008v0.014v0.014L6.8,5.73L6.82,5.744v0.021v0.008l0.007,0.006
		v0.008h0.014l0.008-0.021l0.006-0.007l0.008,0.007L6.87,5.778l0.027,0.014h0.014L6.918,5.8L6.911,5.814l0.014,0.014L6.918,5.834
		l0.036,0.008l0.014,0.015v0.006V5.87v0.014L6.96,5.897L6.945,5.904L6.938,5.911L6.96,5.918l0.008,0.008l0.006,0.014L6.968,5.96
		l0.006,0.008h0.008h0.006l0.021-0.021h0.007l0.014,0.021v0.006l0.028-0.006v0.006h0.008L7.058,5.988L7.065,6.01L7.058,6.023V6.03
		l0.014,0.007l0.008-0.014L7.086,6.03v0.007l0.007,0.008v0.021v0.021H7.1l0.035,0.02h0.015h0.006v0.022L7.17,6.135l0.007,0.008
		L7.19,6.163L7.185,6.185l0.02,0.006l0.021,0.021L7.219,6.227L7.226,6.24h0.014l0.014-0.014h0.008L7.274,6.24l0.014,0.021
		l0.014,0.008L7.31,6.274h0.007h0.007V6.254H7.33h0.008l0.02,0.007h0.029h0.013l0.015,0.014l0.007,0.008h0.015h0.027L7.47,6.296
		h0.008h0.006l0.008-0.021l0.008-0.006h0.006l0.008,0.006v0.028v0.015L7.52,6.31h0.007L7.52,6.288h0.007l0.007-0.006h0.014
		l0.014,0.006l0.007,0.008v0.007h0.007L7.589,6.31L7.61,6.303V6.296H7.603L7.597,6.288l0.02-0.014v0.008L7.631,6.31l0.007,0.008
		L7.646,6.31l0.013-0.014h0.008l0.007,0.007H7.68h0.007L7.7,6.324v0.021l0.008,0.007l0.021-0.007L7.722,6.331L7.708,6.31h0.007
		l0.007-0.014l0.015-0.008V6.282l0.006-0.008v0.008l0.015,0.006v0.008L7.75,6.303L7.742,6.317v0.007h0.015l0.014,0.014l0.014-0.014
		l0.015,0.007h0.007h0.027l0.008-0.007L7.848,6.31l0.007-0.007L7.868,6.31l0.014-0.007V6.296l0.007-0.008h0.008l0.007,0.015h0.008
		h0.006l0.008,0.015l0.007,0.014l0.014-0.007L7.938,6.317L7.932,6.31l0.007-0.007h0.007l0.021,0.015h0.006L7.98,6.31h0.006
		L7.98,6.296V6.288l0.014,0.008l0.007-0.008l0.015,0.008h0.007H8.016L7.994,6.303L8.008,6.31v0.015v0.007v0.007h0.028L8.029,6.345
		l0.007,0.007L8.05,6.331l0.015,0.007L8.057,6.331V6.317h0.008l0.007,0.021h0.008l0.006,0.007l0.007,0.007l0.007-0.007L8.092,6.338
		l0.007-0.014H8.092l0.015-0.007V6.31h0.006v0.028L8.106,6.345l0.006,0.007l0.021-0.007v0.007h0.008L8.134,6.358l0.015,0.015
		L8.134,6.387L8.128,6.401h0.006l0.015,0.006l0.007,0.021l0.006,0.007l0.008-0.007v0.007v0.008v0.006v0.015h0.014L8.19,6.477
		L8.183,6.484L8.176,6.491H8.169V6.484H8.161H8.148L8.12,6.491V6.477L8.106,6.491H8.099L8.092,6.484V6.471L8.085,6.477H8.079
		L8.071,6.491L8.064,6.499L8.057,6.505l0.008,0.008L8.057,6.519h0.008L8.05,6.526L8.043,6.533H8.036v0.008h0.007v0.014H8.05
		l0.007,0.006H8.043L8.036,6.568v0.007v0.007H8.029V6.568H8.008h0.008H8.001v0.007v0.014L7.994,6.603L8.001,6.61L7.986,6.617V6.61
		H7.98l0.014-0.021L7.986,6.582L7.98,6.589H7.973L7.967,6.582V6.575L7.959,6.582H7.945L7.938,6.597V6.61l0.014,0.007H7.945v0.008
		L7.938,6.632L7.925,6.625v0.007V6.625L7.917,6.632v0.007v0.007L7.911,6.652h0.006v0.007v0.007h0.008V6.68L7.911,6.673v0.021v0.007
		h0.006L7.911,6.729l0.014-0.007v0.007H7.917v0.007L7.911,6.743L7.903,6.75l0.021-0.007v0.014L7.932,6.75h0.014H7.938v0.007H7.932
		v0.007H7.925v0.008v0.006L7.911,6.785l0.006,0.007L7.903,6.799l0.008,0.007h0.021H7.925v0.014H7.917v0.021l0.015,0.007l0.007,0.008
		l0.014,0.006L7.938,6.869L7.932,6.861v0.008v0.014L7.925,6.876L7.917,6.883v0.015L7.903,6.911l0.021-0.008h0.007v0.008H7.925v0.007
		H7.917v0.007L7.911,6.932v0.007L7.861,6.96h0.021v0.007V6.96l0.021-0.007h0.008h0.006l0.008-0.007h0.007v0.007H7.917L7.925,6.96
		H7.917H7.911l0.006,0.007v0.007H7.903v0.014h0.008L7.903,6.995v0.014h0.008H7.903H7.889H7.882l0.007,0.014L7.882,7.029V7.022H7.875
		H7.854l0.007,0.007v0.015v0.007H7.848v0.007L7.841,7.064l0.007,0.007l0.007,0.007H7.841L7.833,7.071L7.827,7.078H7.819H7.812
		L7.806,7.086V7.071L7.791,7.086V7.078L7.784,7.071h0.007H7.778V7.064l0.013-0.007V7.051h0.008H7.784L7.771,7.058v0.007v0.007v0.007
		h0.008v0.015h0.006H7.778V7.1V7.12l0.006-0.007L7.778,7.12l0.006,0.008L7.771,7.134L7.778,7.12L7.757,7.134V7.128V7.12h0.007
		l0.007-0.015H7.75V7.1H7.736l0.006-0.007H7.729V7.086L7.715,7.1h0.014l0.008,0.006v0.008L7.715,7.12h0.007L7.715,7.128h0.007
		l0.007,0.006H7.722L7.7,7.148h0.008h0.007v0.007h0.014H7.722v0.021L7.715,7.184h0.007v0.006l0.007,0.008v0.007h0.008V7.189
		l0.006-0.006v0.006H7.75v0.008l0.014,0.007H7.757l0.007,0.007h0.015l0.006,0.007v0.008h0.007h0.008L7.791,7.232h0.021v0.007
		L7.806,7.246h0.014l0.014,0.007L7.806,7.211H7.791L7.778,7.197L7.764,7.184H7.757L7.75,7.155h0.007h0.007h0.015l0.021-0.007h0.007
		V7.142h0.021l0.006-0.008L7.861,7.12l0.007,0.008L7.882,7.12l0.015-0.007L7.903,7.1l0.008-0.007h0.014V7.1h0.007h0.007l0.007,0.006
		h0.014l0.014,0.008L7.994,7.12h0.014l0.008,0.014v0.008h0.007l0.007,0.007H8.022v0.007l0.014,0.007L8.029,7.169v0.007h0.007h0.007
		H8.05l0.007,0.008v0.006l0.008-0.006v0.006h0.015h0.006l0.021,0.015h0.006l0.016-0.007l0.006,0.007v0.007l0.008,0.007V7.211v0.007
		h0.007L8.134,7.226v0.007h0.008h0.007h0.021L8.148,7.253v0.015L8.128,7.288L8.071,7.351L7.952,7.526L7.938,7.547L7.932,7.561
		L7.917,7.574L7.911,7.589L7.882,7.645L7.854,7.7L7.827,7.749L7.806,7.798L7.791,7.818L7.75,7.917L7.722,7.979L7.708,8.015
		L7.694,8.05L7.652,8.161L7.638,8.197L7.624,8.231v0.014L7.61,8.267L7.603,8.294L7.574,8.378L7.554,8.427L7.526,8.476L7.491,8.539
		L7.414,8.637L7.379,8.686L7.288,8.818L7.177,8.973L7.17,8.986L7.107,9.085L7.079,9.126L7.044,9.161L6.995,9.217L6.96,9.259
		L6.911,9.301L6.891,9.314L6.8,9.392L6.716,9.469L6.659,9.511L6.646,9.531L6.61,9.573L6.583,9.608L6.506,9.664L6.429,9.728
		L6.359,9.775L6.296,9.812L6.198,9.866l-0.098,0.05L6.003,9.972l-0.07,0.049l-0.042,0.035l-0.056,0.056l-0.098,0.104L5.73,10.237
		v0.027l-0.021-0.027l-0.021,0.007l-0.035,0.028l-0.035,0.021l-0.042,0.049l-0.034,0.042l-0.05,0.07l-0.035,0.062l-0.027,0.07
		l-0.049,0.126l-0.007,0.034l-0.021,0.098l-0.021,0.07l-0.05,0.111l-0.041,0.07l-0.05,0.105L5.164,11.25L5.129,11.3l-0.076,0.098
		l-0.063,0.056l-0.251,0.203l-0.112,0.098l-0.098,0.077L4.5,11.852l-0.104,0.069H4.388l-0.014,0.008l-0.006-0.008H4.354H4.347
		l-0.008-0.007v-0.007l-0.006-0.021v-0.015l-0.008-0.007l-0.084-0.007H4.234v-0.007l0.007-0.007l-0.007-0.008v-0.006l-0.007-0.015
		l0.007-0.007l0.007-0.015l-0.014-0.013l0.007-0.015l0.007-0.007v-0.07l0.014-0.076l0.008-0.112l-0.021-0.104l0.008-0.105
		l0.069-0.104l0.099-0.056l0.049,0.007l0.062-0.077l-0.062-0.021l0.021-0.021l0.007,0.014H4.486l0.007,0.008H4.5L4.486,11.02
		l0.105-0.048l0.027-0.042l-0.007-0.008l0.021-0.021l0.063-0.014l0.014-0.035l-0.105-0.092v0.008l-0.006-0.008l-0.007-0.006
		l-0.036-0.008l-0.021-0.014l-0.007-0.028L4.5,10.713l-0.007,0.014H4.486l-0.007-0.008l-0.008-0.006l-0.02-0.015l-0.015-0.007
		l-0.014,0.007H4.417l-0.015-0.021H4.396l-0.014,0.015L4.36,10.677l-0.006-0.006v-0.008H4.347l-0.008,0.008l-0.014-0.028
		l-0.014-0.021v-0.007l-0.008-0.014v-0.007v-0.015H4.298H4.291H4.263l-0.014,0.008v-0.008l-0.008,0.008l-0.021-0.015v-0.007H4.207
		L4.2,10.552L4.18,10.545V10.53l-0.015-0.007L4.151,10.51v-0.015v-0.007l-0.036-0.014l0.008-0.007L4.13,10.44l-0.007-0.015v-0.014
		l-0.014-0.008v-0.007h0.006l0.008-0.014l-0.014-0.007v-0.014l-0.015-0.007l-0.007-0.015v-0.021L4.074,10.3l-0.007-0.007v-0.007
		H4.06l-0.006-0.007l0.006-0.007l-0.014-0.008v-0.006l-0.007-0.008l0.007-0.021H4.024l0.008-0.008v-0.007l-0.015-0.027l0.007-0.008
		l-0.007-0.007l0.015,0.007l0.007-0.007l-0.021-0.007v-0.014H4.004v-0.008l-0.007,0.008L3.99,10.146L3.976,10.14L3.97,10.146V10.14
		H3.956l-0.015-0.008H3.934l-0.007-0.006l-0.006-0.015H3.913l0.008-0.007l-0.008-0.007H3.906v-0.014v-0.008v-0.007l-0.014-0.007
		l-0.007,0.007l-0.021-0.007l-0.007-0.015l-0.015-0.006v-0.008l-0.02-0.007l-0.015-0.007H3.801H3.795l-0.014-0.015V10h0.006V9.992
		h0.008V9.985H3.787L3.781,9.979H3.753L3.745,9.972H3.739V9.964H3.731L3.726,9.958H3.718h0.008H3.718H3.71L3.704,9.964H3.696v0.008
		L3.683,9.985L3.676,9.979L3.662,10V9.992H3.647V9.985L3.642,9.979h0.006L3.642,9.972L3.605,9.958V9.943L3.592,9.93l-0.308-0.23
		l0.008-0.014L3.284,9.678L3.277,9.671L3.271,9.657l0.014-0.008V9.644v0.006V9.644L3.277,9.63L3.271,9.636L3.264,9.615L3.257,9.608
		L3.242,9.602L3.25,9.594L3.222,9.552L3.214,9.546L3.208,9.538H3.187V9.531H3.18V9.524L3.158,9.517V9.503L3.151,9.496V9.489H3.061
		L3.047,9.476H3.04L3.033,9.469L3.026,9.476H3.013L3.005,9.461L2.97,9.455L2.942,9.469L2.928,9.461L2.921,9.469H2.9L2.894,9.476
		L2.872,9.447H2.865L2.872,9.44L2.852,9.427L2.838,9.413h0.006L2.838,9.405H2.83v0.008H2.823L2.802,9.405L2.796,9.413H2.788V9.398
		h0.008L2.788,9.392V9.385L2.768,9.377V9.371l0.007-0.008V9.356L2.768,9.35L2.746,9.343L2.739,9.335l0.007-0.006L2.739,9.322
		L2.726,9.314l0.007-0.007H2.726V9.301L2.719,9.293V9.287v0.006L2.704,9.287L2.69,9.293L2.683,9.301H2.69v0.007v0.007L2.676,9.335
		L2.669,9.343H2.662V9.35v0.007H2.648L2.642,9.35L2.621,9.343L2.614,9.335H2.6V9.329H2.593H2.585L2.564,9.314V9.308H2.558H2.551
		l0.007-0.007L2.551,9.293H2.537V9.287L2.48,9.279H2.474V9.272H2.467V9.237L2.46,9.231l0.007-0.008L2.453,9.21H2.432V9.202
		l0.015-0.006L2.438,9.188L2.425,9.183V9.175h0.007L2.425,9.168V9.161L2.411,9.154L2.404,9.161H2.397V9.154H2.39L2.384,9.146H2.376
		V9.133h0.008V9.126V9.118V9.112L2.39,9.099H2.376L2.362,9.076v0.009L2.354,9.076L2.362,9.07V9.049H2.354L2.341,9.042V9.028H2.334
		H2.327L2.313,9.034H2.306V9.028L2.3,9.021H2.284L2.271,9.015l0.007-0.014l0.006-0.008V8.986L2.278,8.979H2.271V8.965H2.257
		L2.25,8.951L2.229,8.958L2.223,8.951V8.944V8.931L2.209,8.923L2.201,8.917V8.902L2.181,8.896L2.173,8.902V8.896L2.159,8.888
		L2.152,8.874L2.146,8.867V8.854L2.139,8.84H2.131V8.832H2.124L2.116,8.84L2.104,8.847H2.097V8.84H2.083L2.075,8.847H2.068
		L2.062,8.854L2.054,8.867L2.047,8.86L2.04,8.874l0.014,0.007H2.047v0.015l0.015,0.014L2.054,8.923H2.047L2.04,8.937l0.007,0.008
		L2.04,8.951v0.007H2.026H2.013V8.951L2.006,8.944L1.999,8.958H1.992L1.983,8.944H1.978l0.006,0.007H1.978v0.021L1.971,8.979
		l0.007,0.007H1.956v0.007L1.95,9.007L1.929,9.001l0.007,0.014L1.922,9.021H1.894H1.887v0.008L1.872,9.049v0.007l-0.02-0.007
		L1.845,9.056L1.83,9.085H1.816v0.006H1.81L1.796,9.076L1.789,9.085H1.774L1.769,9.091L1.761,9.099L1.739,9.091L1.719,9.085
		L1.705,9.091v0.008L1.685,9.091V9.085L1.677,9.056V9.007l0.008-0.021l0.007-0.007L1.685,8.973V8.958V8.951H1.677l0.015-0.028
		L1.685,8.917V8.896l0.021-0.028V8.854L1.698,8.847L1.691,8.84L1.685,8.818L1.677,8.812V8.804h0.008L1.671,8.798V8.784V8.776H1.655
		V8.77H1.649H1.642L1.628,8.763V8.756V8.742L1.622,8.734H1.614L1.601,8.748H1.593L1.586,8.721H1.58L1.565,8.728H1.559V8.721
		l0.007-0.015H1.559L1.552,8.7L1.538,8.693V8.679l0.014-0.007V8.664H1.538L1.523,8.65L1.517,8.637l0.007-0.014L1.51,8.616
		L1.502,8.608l0.015-0.014L1.495,8.588H1.468L1.46,8.581L1.454,8.574V8.566H1.46V8.56L1.446,8.553H1.44L1.433,8.566H1.425V8.553
		l0.008-0.007L1.425,8.539L1.418,8.532L1.411,8.539H1.404V8.532L1.397,8.518V8.511V8.504L1.391,8.497v0.007L1.377,8.511L1.356,8.504
		H1.349V8.489L1.335,8.483V8.476L1.327,8.47H1.321v0.006H1.3L1.293,8.47H1.3V8.462H1.286V8.447L1.279,8.441V8.434h0.007V8.42H1.271
		L1.265,8.399L1.258,8.406H1.243L1.229,8.392l0.008-0.006L1.229,8.378L1.216,8.35L1.202,8.357L1.195,8.372H1.188L1.182,8.357
		L1.174,8.35V8.336L1.159,8.329H1.132V8.322L1.126,8.308L1.14,8.302V8.28L1.132,8.273L1.126,8.288L1.104,8.267V8.252L1.083,8.26
		H1.076L1.062,8.267L1.056,8.26l0.014-0.015L1.062,8.225L1.048,8.231L1.034,8.218h0.008h0.006V8.211L1.034,8.197L1.026,8.183H1.006
		V8.176l0.021-0.007V8.161L1.021,8.169L1.013,8.161V8.155L0.999,8.161L0.993,8.155L0.979,8.161L0.965,8.147V8.134H0.957L0.943,8.127
		L0.915,8.119H0.895L0.888,8.105l0.007-0.021V8.077L0.873,8.071L0.867,8.057H0.853L0.846,8.05L0.831,8.043H0.817h-0.02V8.036H0.782
		L0.762,8.063V8.057L0.755,8.063V8.057L0.748,8.05L0.734,8.043L0.713,8.05H0.692L0.685,8.036H0.671H0.644L0.636,8.043v0.014H0.622
		L0.608,8.05H0.594V8.043h0.007V8.036H0.594L0.58,8.05L0.572,8.063H0.58L0.572,8.071H0.566L0.545,8.063v0.014h0.014v0.015
		L0.545,8.099H0.531L0.517,8.127L0.503,8.141v0.015H0.488v0.014l0.009,0.007H0.488h0.009v0.007l0.006,0.015L0.497,8.203L0.488,8.211
		H0.482L0.461,8.225L0.454,8.245L0.44,8.252H0.413L0.405,8.245V8.238L0.397,8.231L0.392,8.238v0.007L0.377,8.26H0.37L0.364,8.245
		L0.35,8.225L0.343,8.218L0.335,8.231L0.301,8.245L0.294,8.231L0.286,8.238L0.266,8.252v0.015H0.259H0.244H0.23V8.252l0.008-0.007
		L0.224,8.238H0.202L0.188,8.231H0.168H0.16L0.153,8.252L0.126,8.245L0.098,8.238L0.091,8.225L0.085,8.218l0.006-0.042L0.085,8.169
		L0.036,8.147L0.015,8.141L0,8.147l0.015-0.014h0.049l0.034-0.015l0.07-0.042l0.021-0.021l0.014-0.035l0.021-0.021l0.021-0.021
		l0.063-0.034L0.328,7.917z"/>
	<path id="Santa_Catarina" fill="#E9EEEE" d="M3.927,4.94V4.933L3.921,4.927l0.006-0.008l0.036-0.007V4.905L3.941,4.912L3.934,4.898
		h0.008l0.015-0.007V4.885V4.877L3.941,4.87V4.863h0.007l0.008,0.014h0.007L3.983,4.87L3.956,4.849V4.843l0.007-0.015l0.013,0.015
		H3.99L3.983,4.835H3.976L3.963,4.821L3.956,4.807H3.97l0.014,0.015L3.99,4.835l0.014-0.007L3.997,4.821L3.983,4.814L3.976,4.787
		l0.008,0.006l0.014,0.014l0.007-0.006l0.007-0.008V4.787L4.004,4.779L3.997,4.766h0.014l0.007,0.014l0.015-0.014L4.018,4.751h0.021
		h0.007V4.744L4.024,4.73h0.008V4.717l0.014,0.007L4.06,4.717V4.71L4.054,4.695V4.688l0.027,0.014h0.007h0.007L4.081,4.695
		L4.067,4.682l0.014-0.007l0.007-0.007L4.081,4.66l0.007-0.014L4.067,4.64l0.007-0.007l0.007-0.014H4.067V4.611l0.034,0.008V4.611
		L4.095,4.604L4.088,4.598H4.067V4.59h0.007L4.067,4.584L4.06,4.569L4.054,4.562V4.556L4.06,4.562h0.008L4.06,4.549H4.054
		L4.046,4.534V4.528L4.06,4.521V4.515H4.046v0.006H4.032L4.018,4.507l0.015,0.008l0.007-0.008h0.007V4.492L4.039,4.486L4.032,4.473
		L4.024,4.486H4.011l0.007-0.014L4.004,4.465V4.451l0.007,0.014l0.014-0.007l0.008-0.014L4.018,4.431V4.423h0.007l0.008,0.014
		l0.014-0.014L4.032,4.417V4.409h0.014L4.039,4.396V4.388v0.008H4.024V4.388H4.018L4.004,4.381l0.007-0.007l0.007,0.007V4.367h0.007
		l0.008-0.014L4.024,4.346h0.008V4.339V4.332V4.325h0.007V4.297h0.015V4.29H4.046L4.032,4.297H4.024L4.039,4.29L4.032,4.283
		L4.018,4.276L4.032,4.27l0.007,0.007V4.27l0.007-0.014H4.032V4.234h0.007v0.007l0.007-0.007L4.06,4.241L4.054,4.228L4.06,4.22
		h0.008L4.06,4.206h0.008L4.06,4.199L4.054,4.214V4.199H4.046L4.06,4.192l0.008,0.007V4.186L4.06,4.178V4.172l0.008-0.008v0.008
		h0.007V4.157H4.067V4.144H4.06L4.054,4.137H4.06L4.067,4.13L4.054,4.122V4.108H4.06l0.008-0.007L4.06,4.095V4.088l0.015-0.007
		L4.067,4.073h0.007V4.06l0.014-0.007h0.007L4.088,4.046h0.007V4.039l0.015-0.021l0.006-0.014l0.008-0.015V3.976V3.969l0.015,0.007
		h0.006h0.014L4.18,3.969l0.006,0.021h0.007l0.021,0.015v0.007h0.027l0.029,0.007l0.021-0.007h0.007h0.006l0.021-0.014h0.014
		l0.008-0.008l0.041-0.028l0.008-0.006l0.014,0.014l0.008-0.008l0.007,0.008V3.961H4.43h0.008v0.008h0.015l0.006,0.007h0.008
		l0.027-0.015v0.015H4.5l0.015,0.021v0.007l0.007,0.007v0.007h0.007l0.014,0.015L4.57,4.046v0.007h0.007l0.015,0.014h0.013
		l0.008,0.007h0.007l0.007-0.007h0.007L4.64,4.081l0.007,0.007l0.007,0.007l0.015,0.007h0.007l0.008,0.007l0.006,0.008h0.015
		L4.73,4.102l0.021-0.007l0.042-0.028l0.042,0.021l0.015-0.007h0.006L4.87,4.073l0.008,0.008h0.014h0.008h0.006h0.008L4.94,4.066
		h0.007h0.015h0.014h0.007l0.007,0.007h0.008l0.014-0.007l0.014,0.007h0.007l0.007-0.007h0.008L5.053,4.06l0.014,0.007l0.007,0.015
		l0.008-0.008l0.006,0.008h0.008l0.021-0.008l0.021,0.021L5.15,4.102l0.007,0.007v0.008l0.014,0.006L5.179,4.13v0.007h0.006h0.007
		l0.008,0.007L5.212,4.13l0.016,0.007L5.233,4.13l0.008,0.007L5.255,4.13l0.021-0.008l0.028,0.021h0.015l0.014,0.021h0.007h0.007
		h0.007h0.021h0.007l0.015-0.007L5.401,4.15l0.008,0.007l0.007,0.007h0.007l0.015-0.007l0.014,0.015l0.006-0.015l0.008,0.015
		l0.015-0.008h0.02l0.021,0.021v0.007h0.007l0.015-0.007h0.007h0.007l0.007,0.007h0.021l0.021-0.007l0.014-0.014l0.028,0.027H5.66
		h0.015l0.007,0.007h0.014l0.014,0.008v0.021l0.007,0.007h0.008L5.73,4.256h0.014l0.007,0.007h0.007L5.766,4.27l0.014,0.007v0.007
		h0.014V4.29L5.8,4.304l0.028-0.007v0.007h0.013l0.016,0.008l0.006-0.008l0.021,0.015h0.027l0.021,0.007v0.007L5.94,4.339h0.006
		l0.015-0.014l0.014,0.007l0.021-0.014l0.021,0.007H6.03l0.057-0.014l0.027,0.007h0.014l0.028-0.021l0.021,0.015l0.014,0.014h0.014
		h0.021h0.016h0.055l0.021-0.007l0.014,0.007l0.007,0.014l0.007,0.007L6.338,4.36h0.015h0.007l0.007,0.007l0.007,0.014v0.015
		l0.014,0.014l0.007,0.021l0.028,0.014L6.415,4.458l0.014-0.007l0.008-0.007V4.431L6.422,4.417l0.015-0.015H6.45l0.014-0.007h0.015
		l0.021-0.008h0.007v0.008l0.015-0.008l0.006,0.008h0.021V4.381h0.008V4.374h0.014l0.006-0.007h0.021V4.36l0.007-0.007L6.597,4.339
		L6.61,4.332V4.318V4.312l0.007-0.008L6.604,4.297V4.29L6.61,4.283L6.597,4.276V4.27H6.59L6.583,4.256H6.575L6.569,4.241
		L6.562,4.234V4.228V4.22h0.008V4.214l0.014-0.008L6.575,4.199l0.008-0.007L6.569,4.186H6.562H6.556V4.178l0.006-0.006L6.54,4.164
		L6.533,4.15V4.144l0.015-0.007L6.54,4.13V4.122L6.556,4.13V4.116l0.006-0.008l0.021-0.007L6.575,4.095L6.569,4.088l0.014-0.015
		V4.066H6.575l0.008-0.014H6.59V4.046L6.61,4.039l0.007-0.007l0.007-0.015h0.008h0.007h0.015l0.013-0.007h0.007V4.004l0.015-0.007
		l0.007,0.007h0.007V3.997h0.015l0.014-0.008l0.008-0.007l0.006-0.007V3.961H6.75l0.007-0.02l0.022,0.014l0.006,0.006l0.056-0.02
		l0.008,0.006L6.87,3.961v0.021h0.021l0.007,0.015h0.007l0.007-0.015L6.897,3.955l0.007-0.008h0.007l0.021,0.021v0.035h0.014h0.009
		L6.96,3.997l0.008-0.021l0.006-0.021h0.008l0.021,0.027l0.007,0.007l0.007-0.007l0.008-0.021l0.014-0.006l0.007-0.008l0.007-0.006
		l0.042-0.008L7.1,3.941v0.02h0.015h0.014l0.007-0.006L7.114,3.913l0.027-0.014l0.008-0.008l0.014-0.021L7.17,3.857L7.177,3.85
		L7.19,3.844l0.008-0.008h0.006L7.19,3.808l0.014-0.014L7.212,3.78l0.014-0.014l0.027,0.007h0.015l0.021-0.007h0.008l0.006-0.008
		V3.745H7.296H7.288L7.274,3.752H7.268L7.261,3.745V3.725l0.021-0.021h0.007l0.008,0.021h0.006v0.014v0.007L7.33,3.731l0.014-0.007
		l0.008,0.007l0.006-0.007l0.008,0.007h0.014H7.372l0.007,0.007V3.725h0.008v0.007h0.013v0.007V3.731l0.015,0.007L7.407,3.745
		l0.007,0.007l0.007,0.015h0.015h0.007h0.007l0.007-0.008v0.008l0.035,0.021l0.008,0.014L7.491,3.815v0.006l0.008-0.006v0.006
		l0.006,0.008L7.52,3.836l0.007,0.008l0.007-0.008L7.54,3.844V3.836H7.526V3.829h0.007V3.821L7.526,3.815l0.007-0.008V3.802
		L7.526,3.788H7.54V3.773l0.021-0.015l0.021-0.007l0.015-0.007L7.61,3.752V3.738V3.731l0.021,0.007v0.014l0.007,0.015l0.008-0.008
		h0.007l0.006,0.008h0.015v0.007L7.68,3.78l0.007-0.007l0.008-0.007L7.7,3.759l0.008-0.014L7.7,3.738v0.007H7.694L7.687,3.738H7.68
		l0.007-0.007l0.008-0.007L7.7,3.731l0.015-0.007l0.007,0.007L7.715,3.752v0.007l0.014-0.014l0.014,0.021L7.75,3.752l0.007,0.007
		l0.021-0.014l0.006-0.021l0.007,0.021v0.007V3.745l0.008-0.007h0.007h0.006l0.016-0.007h0.006h0.008l0.021,0.014l0.007-0.007
		L7.861,3.725V3.718h0.014V3.711l0.021,0.007l0.007,0.007v0.021L7.896,3.759l0.028-0.027L7.911,3.725l0.006-0.007l0.015-0.007
		l0.007,0.007L7.932,3.725l0.007,0.007l0.021-0.007l0.008,0.007l0.006,0.007L7.98,3.731l0.027,0.007L8.001,3.745l0.007,0.007
		l0.008,0.007h0.007l0.007,0.008h0.007V3.752l0.007,0.007v0.015L8.029,3.78h0.007l0.007-0.007v0.015L8.05,3.802h0.007l0.008-0.008
		l0.007,0.021l0.014,0.006V3.815l0.007-0.008l0.007,0.021h0.008V3.815H8.099V3.808h0.008l0.006,0.014l0.016,0.008V3.85h0.014h0.014
		L8.142,3.863l0.007,0.014h0.007l0.014-0.014l0.014,0.008L8.19,3.885h0.014L8.19,3.899h0.006l0.008,0.007l0.008-0.007l0.006,0.007
		V3.899h0.007v0.007h0.007v0.007v0.006l0.014-0.006V3.899h0.008v0.014L8.245,3.919L8.26,3.927h0.007V3.919v0.008h0.008l0.007,0.015
		V3.934h0.006h0.008v0.008h0.007V3.927l0.014,0.021l0.014,0.008l0.008-0.014H8.329h0.008h0.007h0.007L8.344,3.934V3.927h0.007
		l0.007,0.015V3.934l0.008,0.008l0.006-0.008l0.008,0.008V3.934h0.007l0.007-0.007V3.919v0.008L8.386,3.913h0.007l0.007-0.007H8.393
		l0.007-0.007V3.892l0.008,0.008l0.014-0.015l0.007-0.014H8.44h0.008v0.014l0.008-0.008h0.006L8.47,3.871v0.006V3.863l0.014,0.008
		L8.49,3.857v0.006l0.007,0.008V3.863h0.007h0.015V3.857h0.006V3.85h0.008L8.524,3.844L8.532,3.85V3.844H8.54V3.836h0.006
		l0.008-0.007l0.021-0.014h0.007h0.007v0.006l0.008-0.006L8.588,3.808h0.015V3.802H8.596h0.007L8.596,3.794V3.788L8.603,3.78h0.007
		l0.007,0.008V3.78l0.008,0.008V3.78L8.63,3.773H8.624h0.014V3.767V3.759V3.752l0.014-0.007l0.006-0.007L8.651,3.731h0.006h0.008
		l0.014-0.007l0.008-0.007H8.7V3.711h0.014l0.007-0.008h0.008l0.007,0.008h0.006l0.008,0.007V3.711h0.007v0.007l0.007-0.015h0.006
		H8.763l0.006-0.007l0.016,0.007l0.007-0.007l0.007,0.015h0.007V3.703h0.015l0.006-0.007v0.015l0.016,0.014l0.006-0.007h0.008
		L8.86,3.703h0.008l0.006,0.015h0.008h0.014V3.711h0.007L8.91,3.703h0.006V3.696l0.008-0.008l0.007-0.006h0.007v0.006h0.007h0.008
		L8.938,3.683h0.147h0.111h0.035V3.675h0.008h0.006V3.669l0.021-0.015l0.007,0.007L9.28,3.669v0.006h0.007v0.008h0.008h0.006V3.675
		l0.008,0.008l0.006-0.008v0.021L9.301,3.759l0.008,0.015L9.314,3.78v0.049l0.015,0.048h0.014H9.35h0.028l0.007-0.006l0.007,0.006
		L9.385,3.913l0.013,0.021l0.016,0.008V3.934L9.42,3.927v0.007L9.413,3.947L9.406,3.955L9.378,4.004L9.356,4.046L9.35,4.081
		L9.322,4.13L9.314,4.157v0.021l-0.02,0.028L9.28,4.241L9.259,4.283L9.253,4.304L9.245,4.312L9.231,4.354L9.224,4.409v0.021
		l0.008,0.014L9.224,4.465L9.231,4.5l0.008,0.007l0.006,0.008l0.014,0.006V4.507l0.015,0.008L9.28,4.528l0.007,0.006h0.021
		l0.006-0.014v0.008h0.015L9.322,4.542h0.007H9.322L9.314,4.549L9.309,4.577H9.287L9.28,4.584L9.273,4.626L9.267,4.653l0.007,0.015
		L9.267,4.675L9.28,4.688l0.007-0.007L9.28,4.695v0.021h0.007L9.28,4.724L9.287,4.73H9.28L9.273,4.737l0.014,0.021l0.014,0.007
		h0.008V4.759l0.006-0.008l0.008,0.008V4.751h0.007v0.008l0.008,0.014h0.006L9.337,4.779l0.006,0.008H9.337v0.014L9.329,4.807
		L9.322,4.828L9.314,4.835l0.008,0.014H9.314v0.008L9.309,4.863V4.856H9.301V4.87l0.008,0.021l0.021,0.021l0.014,0.015h0.014h0.008
		l0.014-0.008V4.912l0.007-0.014V4.892l0.007-0.007l0.006,0.007l0.009-0.015l0.007,0.008L9.397,4.898l0.016,0.021h0.014h0.007V4.912
		V4.905L9.44,4.919l0.008-0.007L9.44,4.927H9.434L9.427,4.933L9.42,4.94L9.413,4.954L9.42,4.975h0.007H9.44L9.434,4.981H9.427
		L9.42,4.989H9.413L9.397,4.996V4.989l0.016-0.008V4.975L9.397,4.961L9.385,4.954L9.364,4.961L9.356,4.969L9.343,4.975L9.329,4.989
		V4.981L9.314,4.996H9.309H9.301v0.028L9.295,5.031v0.021L9.309,5.08l0.006,0.014l0.015,0.008V5.094h0.008l0.006-0.007H9.35v0.007
		h0.007V5.087h0.008L9.37,5.08v0.027l0.008,0.008h0.014L9.385,5.122v0.007H9.378v0.007v0.008l0.007,0.014L9.378,5.171V5.163
		L9.37,5.157V5.149H9.364H9.356L9.35,5.178v0.007l0.007,0.007H9.343v0.007H9.35L9.343,5.213H9.337L9.329,5.219H9.322L9.314,5.213
		H9.309L9.287,5.219L9.28,5.233L9.273,5.247v0.021L9.267,5.275L9.28,5.311v0.014l0.021,0.015L9.295,5.353l0.014,0.014l0.028,0.008
		v0.007l0.006,0.014L9.337,5.401h0.006L9.337,5.408L9.329,5.416H9.322H9.314V5.401H9.309H9.295L9.28,5.408h0.007L9.28,5.422v0.015
		L9.273,5.443L9.267,5.437v0.007L9.273,5.45l0.014,0.007l0.021,0.007v0.014v0.009L9.314,5.5v0.014L9.309,5.527l0.006,0.014
		l0.008,0.015L9.314,5.569v0.007L9.309,5.583l0.014,0.015L9.314,5.618l0.015,0.014L9.337,5.66L9.329,5.667V5.66H9.322L9.314,5.667
		L9.309,5.681l0.006,0.015l0.008,0.007V5.695h0.015v0.014L9.329,5.723H9.322L9.314,5.736l-0.02,0.015v0.014L9.287,5.772v0.006
		l0.008,0.008L9.287,5.792L9.28,5.814v0.02l0.015,0.015l0.006-0.007l0.014,0.015L9.309,5.862V5.856L9.301,5.862v0.014V5.89H9.295
		L9.287,5.904L9.28,5.911v0.007L9.273,5.933v0.007H9.28H9.273v0.007H9.28v0.007H9.273L9.267,5.96v0.008h0.007L9.267,5.974
		L9.259,5.981v0.007L9.245,6.017v0.007h0.008V6.03L9.245,6.037v0.008v0.006v0.015l0.014,0.007V6.065l0.008,0.007L9.231,6.093
		l-0.028,0.05L9.196,6.17l0.007,0.007H9.21L9.203,6.185L9.182,6.212L9.169,6.232L9.161,6.261v0.008h0.008L9.161,6.274L9.147,6.296
		L9.141,6.317v0.027h0.021v0.007l0.008,0.007H9.161L9.147,6.373V6.38h0.006L9.147,6.394L9.133,6.401L9.119,6.415l0.007,0.006
		L9.119,6.429H9.112L9.091,6.443v0.014l0.008,0.007L9.085,6.471L9.078,6.464L9.069,6.471H9.063L9.049,6.477L8.994,6.499L8.902,6.547
		L8.819,6.603l-0.112,0.07L8.603,6.757L8.574,6.785L8.561,6.792l-0.05,0.041l-0.049,0.05L8.379,6.974L8.371,6.98L8.239,7.134
		l-0.07,0.099H8.148H8.142H8.134V7.226l0.015-0.008H8.142V7.211v0.007L8.134,7.211V7.204L8.128,7.197L8.112,7.204H8.106L8.085,7.189
		H8.079H8.064V7.184L8.057,7.189V7.184L8.05,7.176H8.043H8.036H8.029V7.169l0.007-0.007L8.022,7.155V7.148h0.007L8.022,7.142H8.016
		V7.134L8.008,7.12H7.994L7.973,7.113L7.959,7.105H7.945L7.938,7.1H7.932H7.925V7.093H7.911L7.903,7.1L7.896,7.113L7.882,7.12
		L7.868,7.128L7.861,7.12L7.833,7.134L7.827,7.142H7.806v0.007H7.799L7.778,7.155H7.764H7.757H7.75l0.007,0.028h0.007l0.015,0.014
		l0.013,0.014h0.015l0.027,0.042L7.819,7.246H7.806l0.006-0.007V7.232H7.791l0.008-0.007H7.791H7.784V7.218L7.778,7.211H7.764
		L7.757,7.204h0.007L7.75,7.197V7.189H7.742V7.184L7.736,7.189v0.015H7.729V7.197L7.722,7.189V7.184H7.715l0.007-0.008V7.155h0.007
		H7.715V7.148H7.708H7.7l0.021-0.015h0.007L7.722,7.128H7.715L7.722,7.12H7.715l0.021-0.007V7.105L7.729,7.1H7.715l0.014-0.014
		v0.007h0.014L7.736,7.1H7.75v0.006h0.021L7.764,7.12H7.757v0.008v0.006L7.778,7.12L7.771,7.134l0.014-0.006L7.778,7.12l0.006-0.007
		L7.778,7.12V7.1V7.093h0.006H7.778V7.078H7.771V7.071V7.064V7.058l0.014-0.007h0.015H7.791v0.007L7.778,7.064v0.007h0.013H7.784
		l0.007,0.007v0.008l0.015-0.015v0.015l0.006-0.008h0.008h0.008l0.006-0.007l0.008,0.007h0.014L7.848,7.071L7.841,7.064l0.007-0.007
		V7.051h0.014V7.044V7.029L7.854,7.022h0.021h0.007v0.007l0.007-0.007L7.882,7.009h0.007h0.015h0.008H7.903V6.995l0.008-0.008H7.903
		V6.974h0.014V6.967L7.911,6.96h0.006h0.008L7.917,6.953h0.015V6.946H7.925L7.917,6.953H7.911H7.903L7.882,6.96v0.007V6.96H7.861
		l0.05-0.021V6.932l0.006-0.007V6.918h0.008V6.911h0.007V6.903H7.925L7.903,6.911l0.014-0.014V6.883l0.008-0.007l0.007,0.007V6.869
		V6.861l0.007,0.008l0.014-0.008L7.938,6.855L7.932,6.848L7.917,6.841V6.819h0.008V6.806h0.007H7.911L7.903,6.799l0.014-0.007
		L7.911,6.785l0.014-0.008V6.771V6.764h0.007V6.757h0.007V6.75h0.007H7.932L7.925,6.757V6.743L7.903,6.75l0.008-0.007l0.006-0.007
		V6.729h0.008V6.723L7.911,6.729l0.006-0.028H7.911V6.694V6.673L7.925,6.68V6.666H7.917V6.659V6.652H7.911l0.006-0.007V6.639V6.632
		l0.008-0.007v0.007V6.625l0.014,0.007l0.007-0.007V6.617h0.007L7.938,6.61V6.597l0.007-0.015h0.014l0.008-0.007v0.007l0.006,0.007
		H7.98l0.006-0.007l0.008,0.007L7.98,6.61h0.006v0.007L8.001,6.61L7.994,6.603l0.007-0.014V6.575V6.568h0.015H8.008h0.021v0.014
		h0.007V6.575V6.568l0.007-0.008h0.014L8.05,6.555H8.043V6.541H8.036V6.533h0.007L8.05,6.526l0.015-0.008H8.057l0.008-0.006
		L8.057,6.505l0.008-0.006l0.007-0.008l0.008-0.015h0.006l0.007-0.006v0.014l0.007,0.007h0.008L8.12,6.477v0.015l0.028-0.007h0.013
		h0.008v0.007h0.007l0.007-0.007L8.19,6.477L8.183,6.464H8.169V6.449V6.443V6.436V6.429L8.161,6.436L8.155,6.429L8.148,6.407
		L8.134,6.401H8.128l0.006-0.015l0.015-0.014L8.134,6.358l0.008-0.007H8.134V6.345L8.112,6.352L8.106,6.345l0.006-0.007V6.31H8.106
		v0.008L8.092,6.324h0.007L8.092,6.338l0.007,0.007L8.092,6.352L8.085,6.345L8.079,6.338H8.071L8.064,6.317H8.057v0.014l0.008,0.007
		L8.05,6.331L8.036,6.352L8.029,6.345l0.007-0.007H8.008V6.331V6.324V6.31L7.994,6.303l0.021-0.007h0.007H8.016L8.001,6.288
		L7.994,6.296L7.98,6.288v0.008L7.986,6.31H7.98L7.973,6.317H7.967L7.945,6.303H7.938L7.932,6.31l0.007,0.008l0.007,0.007
		L7.932,6.331L7.925,6.317L7.917,6.303H7.911H7.903L7.896,6.288H7.889L7.882,6.296v0.007L7.868,6.31L7.854,6.303L7.848,6.31
		L7.841,6.324L7.833,6.331H7.806H7.799L7.784,6.324L7.771,6.338L7.757,6.324H7.742V6.317L7.75,6.303l0.007-0.007V6.288L7.742,6.282
		V6.274L7.736,6.282v0.006L7.722,6.296L7.715,6.31H7.708l0.014,0.021l0.007,0.014L7.708,6.352L7.7,6.345V6.324L7.687,6.303H7.68
		H7.673L7.666,6.296H7.658L7.646,6.31L7.638,6.317L7.631,6.31L7.616,6.282V6.274l-0.02,0.014l0.006,0.008H7.61v0.007L7.589,6.31
		L7.574,6.303H7.567V6.296L7.561,6.288L7.547,6.282H7.533L7.526,6.288H7.52L7.526,6.31H7.52L7.513,6.317V6.303V6.274L7.505,6.269
		H7.499L7.491,6.274L7.483,6.296H7.478H7.47L7.463,6.282H7.436H7.421L7.414,6.274L7.399,6.261H7.387H7.357l-0.02-0.007H7.33H7.323
		v0.021H7.316H7.31L7.302,6.269L7.288,6.261L7.274,6.24L7.261,6.227H7.253L7.239,6.24H7.226L7.219,6.227l0.007-0.015L7.204,6.19
		l-0.02-0.006L7.19,6.163L7.177,6.143L7.17,6.135L7.155,6.129V6.106H7.149H7.135L7.1,6.087H7.093V6.065V6.045L7.086,6.037V6.03
		L7.079,6.023L7.071,6.037L7.058,6.03V6.023L7.065,6.01L7.058,5.988l0.008-0.015H7.058V5.968L7.029,5.974V5.968L7.016,5.946H7.009
		L6.987,5.968H6.981H6.974L6.968,5.96l0.006-0.021L6.968,5.926L6.96,5.918L6.938,5.911l0.007-0.007L6.96,5.897l0.008-0.014V5.87
		V5.862V5.856L6.954,5.842L6.918,5.834l0.007-0.006L6.911,5.814L6.918,5.8L6.911,5.792H6.897L6.87,5.778L6.862,5.765L6.854,5.758
		L6.849,5.765L6.841,5.786H6.827V5.778L6.82,5.772V5.765V5.744L6.8,5.73L6.785,5.716V5.702V5.688V5.681H6.765L6.757,5.674
		l0.008-0.021L6.757,5.646L6.743,5.64H6.737L6.716,5.646H6.709V5.64L6.701,5.618V5.611H6.681L6.659,5.598L6.646,5.583H6.624
		L6.61,5.576L6.604,5.583L6.597,5.59L6.59,5.583L6.583,5.569L6.562,5.556V5.541L6.556,5.527L6.54,5.534l-0.02-0.007V5.514
		l0.006-0.008L6.521,5.5V5.486V5.478H6.513L6.499,5.472L6.479,5.486L6.464,5.472L6.45,5.464l0.007-0.027V5.43L6.442,5.422
		L6.429,5.43L6.422,5.437L6.415,5.443L6.408,5.457H6.394V5.45V5.437L6.373,5.416V5.408H6.366L6.359,5.401L6.353,5.395V5.366H6.345
		L6.338,5.353H6.317L6.289,5.359L6.275,5.353v0.007H6.269v0.007L6.261,5.381H6.255L6.247,5.374L6.241,5.359l0.006-0.028V5.324V5.317
		H6.241H6.226L6.212,5.339H6.198L6.191,5.331l0.014-0.042H6.198V5.282H6.191H6.178v0.021L6.171,5.311H6.163H6.156H6.149L6.142,5.297
		l0.008-0.015V5.275L6.136,5.269H6.121L6.114,5.275L6.107,5.297L6.101,5.304H6.094L6.08,5.289L6.065,5.282V5.275L6.03,5.282H6.017
		v0.015L6.03,5.311v0.007v0.007H6.023H6.017L5.996,5.304L5.981,5.311L5.968,5.317L5.961,5.311l0.014-0.035V5.269H5.961H5.94v0.007
		L5.933,5.282L5.94,5.304v0.007H5.925L5.911,5.289V5.255L5.904,5.247H5.897L5.884,5.255L5.87,5.262H5.856L5.85,5.255l0.027-0.021
		V5.227V5.219L5.856,5.198H5.835H5.821L5.808,5.191V5.185V5.178h0.006h0.008h0.035h0.006V5.163L5.85,5.157H5.828L5.813,5.163
		L5.808,5.157L5.793,5.149V5.144L5.786,5.136L5.8,5.129V5.115H5.793L5.771,5.129H5.766H5.758L5.737,5.122L5.724,5.129H5.709
		L5.702,5.122V5.107V5.094V5.087L5.688,5.08L5.682,5.087H5.667L5.653,5.094H5.646H5.64L5.646,5.06L5.64,5.052H5.633L5.625,5.06
		L5.611,5.073L5.604,5.094L5.597,5.107L5.591,5.115H5.583V5.107H5.576L5.562,5.087H5.556L5.527,5.08V5.073L5.542,5.06l0.021-0.008
		l0.007-0.007L5.549,5.031L5.542,5.038H5.527H5.507H5.499v0.007V5.06l0.008,0.014l0.006,0.014L5.507,5.094v0.008H5.499L5.485,5.087
		L5.472,5.08L5.457,5.065H5.451L5.438,5.08L5.423,5.087L5.416,5.065l0.007-0.027H5.416V5.031H5.409H5.401v0.007l0.008,0.027
		L5.401,5.073H5.396L5.388,5.065L5.381,5.06L5.359,5.038V5.024V5.017l0.008-0.021V4.989H5.359H5.353L5.318,5.01v0.007v0.008v0.014
		v0.007H5.298L5.262,5.038L5.248,5.017L5.233,5.024H5.228H5.206L5.199,5.031L5.179,5.038L5.171,5.045H5.164L5.15,5.038L5.137,5.017
		H5.129H5.122L5.115,5.024v0.021L5.101,5.06H5.095L5.087,5.052V5.045L5.081,5.024L5.073,5.01H5.066L5.06,5.017L5.046,5.031
		L5.038,5.038V5.031L5.024,5.024V5.017l0.007-0.021V4.989H5.024V4.981H5.018H5.003L4.997,4.975H4.989H4.976H4.968L4.954,4.981H4.947
		H4.94V4.975V4.947L4.933,4.94H4.927L4.899,4.954v0.007L4.884,4.969L4.863,4.975H4.856L4.851,4.969V4.94L4.829,4.933H4.822
		L4.814,4.954v0.035L4.809,4.996L4.794,4.989L4.787,4.981H4.78V4.961l0.007-0.007L4.8,4.933V4.919H4.794L4.787,4.905H4.78
		L4.752,4.927H4.744L4.738,4.919V4.898l0.02-0.028l0.009-0.014L4.758,4.849H4.752H4.73H4.724L4.703,4.87v0.007v0.008L4.71,4.905
		v0.007v0.015L4.668,4.94L4.646,4.947H4.64V4.94L4.626,4.912L4.619,4.905L4.612,4.912H4.604v0.007L4.599,4.954L4.592,4.961H4.577
		L4.542,4.94H4.535L4.521,4.947L4.479,4.969L4.466,4.989H4.458H4.452V4.981V4.975V4.969l0.02-0.036l0.008-0.014V4.912V4.905V4.898
		H4.472L4.466,4.892V4.885H4.444H4.438H4.43H4.424L4.417,4.877L4.409,4.863L4.402,4.856L4.396,4.863H4.388L4.374,4.877L4.368,4.898
		L4.36,4.912L4.312,4.927L4.298,4.919L4.291,4.905H4.276H4.271H4.263v0.014v0.008v0.006l0.014,0.015v0.007v0.015v0.006H4.263H4.255
		L4.241,4.969L4.221,4.947H4.214H4.2L4.172,4.961H4.165H4.151H4.144L4.13,4.996H4.123L4.115,4.989V4.969V4.954L4.109,4.947V4.94
		L4.095,4.933H4.088H4.074L4.067,4.94L4.054,4.947L4.046,4.954H4.039L4.024,4.961H4.011L3.997,4.927L3.983,4.919L3.956,4.94
		L3.948,4.947H3.941H3.934L3.927,4.94z M9.343,5.289V5.282V5.289z M9.343,5.506V5.5H9.35L9.343,5.492V5.486V5.478V5.472L9.356,5.45
		L9.37,5.443L9.392,5.45L9.385,5.416L9.378,5.408L9.37,5.416L9.364,5.408V5.401L9.35,5.395V5.388l0.015-0.007L9.37,5.374
		l0.008-0.008l0.02,0.008V5.366L9.392,5.359l0.006-0.007l0.009-0.007L9.392,5.339L9.385,5.331l0.007-0.007L9.385,5.317l0.013-0.007
		V5.304L9.392,5.297L9.385,5.289L9.378,5.282H9.37V5.269l0.008-0.007h0.007V5.255h0.007V5.241H9.37L9.364,5.247L9.37,5.241
		l0.015-0.008l0.007-0.015l0.021,0.008h0.021L9.44,5.219L9.47,5.213L9.49,5.205V5.191L9.482,5.185L9.49,5.198L9.482,5.178V5.171
		L9.49,5.178l0.007-0.007l0.007-0.008v0.008v0.021h0.007l0.007,0.021l0.007,0.014l0.021,0.007l0.008-0.015L9.56,5.227v0.007
		L9.545,5.241v0.014v0.021L9.524,5.282L9.504,5.317L9.49,5.339v0.021v0.007v0.008l0.007-0.008h0.007L9.497,5.381v0.007L9.49,5.395
		L9.482,5.408v0.008H9.476L9.47,5.422V5.43L9.448,5.45L9.44,5.464L9.434,5.492L9.413,5.52v0.008L9.406,5.541v0.015h0.007v0.006H9.42
		h0.007v0.008H9.44v0.007H9.434L9.427,5.583V5.59h0.007L9.427,5.598L9.413,5.604L9.406,5.598V5.59H9.397L9.385,5.598L9.378,5.604
		L9.37,5.632V5.64L9.35,5.653V5.646H9.343L9.35,5.632l0.007-0.007L9.343,5.611L9.35,5.604L9.343,5.598L9.337,5.59V5.576L9.329,5.569
		h0.014L9.35,5.556l0.007-0.008L9.35,5.52L9.364,5.5H9.356H9.35v0.006H9.343z M9.35,5.269H9.343H9.35V5.262V5.269v0.007V5.269z"/>
</g>
</svg>
