<?xml version="1.0" encoding="utf-8"?>
<!-- Generator: Adobe Illustrator 16.0.0, SVG Export Plug-In . SVG Version: 6.00 Build 0)  -->
<!DOCTYPE svg PUBLIC "-//W3C//DTD SVG 1.1//EN" "http://www.w3.org/Graphics/SVG/1.1/DTD/svg11.dtd">
<svg version="1.1" id="Layer_1" xmlns="http://www.w3.org/2000/svg" xmlns:xlink="http://www.w3.org/1999/xlink" x="0px" y="0px"
	 width="133px" height="63px" viewBox="0 0 133 63" enable-background="new 0 0 133 63" xml:space="preserve">
<g>
	<rect x="1.5" y="0.5" fill="none" stroke="#70ACB0" stroke-miterlimit="10" width="61" height="44"/>
	<rect x="72.5" y="0.5" fill="none" stroke="#70ACB0" stroke-miterlimit="10" width="60" height="44"/>
	<circle fill="#70ACB0" cx="67.971" cy="17.314" r="9.895"/>
	<rect x="0.5" y="48.5" fill="none" stroke="#A9B1A7" stroke-miterlimit="10" width="83" height="7"/>
	<rect x="88.5" y="48.5" fill="none" stroke="#A9B1A7" stroke-miterlimit="10" width="44" height="7"/>
	<rect x="1" y="59" fill="#A9B1A7" width="102" height="4"/>
	<g>
		<g>
			<path fill="#FFFFFF" d="M65.006,22.588c-0.16,0-0.334-0.013-0.521-0.038s-0.373-0.079-0.557-0.161s-0.36-0.198-0.53-0.349
				s-0.32-0.349-0.451-0.595s-0.235-0.55-0.313-0.911s-0.117-0.792-0.117-1.292v-3.545c0-0.504,0.04-0.935,0.12-1.292
				s0.187-0.658,0.319-0.902s0.284-0.438,0.454-0.583s0.348-0.255,0.533-0.331s0.37-0.126,0.554-0.149s0.354-0.035,0.51-0.035
				c0.148,0,0.313,0.011,0.495,0.032s0.363,0.068,0.545,0.141s0.358,0.18,0.53,0.322s0.324,0.336,0.457,0.58
				s0.239,0.547,0.319,0.908s0.12,0.798,0.12,1.31v3.545c0,0.496-0.041,0.923-0.123,1.28s-0.189,0.66-0.322,0.908
				s-0.286,0.447-0.46,0.598s-0.352,0.268-0.533,0.352s-0.362,0.14-0.542,0.167S65.15,22.588,65.006,22.588z M65.006,21.445
				c0.148,0,0.278-0.025,0.39-0.076s0.203-0.139,0.275-0.264s0.127-0.29,0.164-0.495s0.056-0.464,0.056-0.776v-4.553
				c0-0.32-0.019-0.588-0.056-0.803s-0.092-0.388-0.164-0.519s-0.164-0.224-0.275-0.278s-0.241-0.082-0.39-0.082
				c-0.152,0-0.285,0.027-0.398,0.082s-0.207,0.147-0.281,0.278s-0.13,0.304-0.167,0.519s-0.056,0.482-0.056,0.803v4.553
				c0,0.312,0.019,0.571,0.056,0.776s0.093,0.37,0.167,0.495s0.168,0.213,0.281,0.264S64.854,21.445,65.006,21.445z"/>
			<path fill="#FFFFFF" d="M68.645,12.492h1.529v7.336c0,0.312,0.016,0.572,0.047,0.779s0.081,0.372,0.149,0.495
				s0.156,0.211,0.264,0.264s0.235,0.079,0.384,0.079s0.278-0.026,0.39-0.079s0.203-0.141,0.275-0.264s0.127-0.288,0.164-0.495
				s0.056-0.467,0.056-0.779v-7.336h1.512v6.932c0,0.488-0.039,0.906-0.117,1.254s-0.182,0.639-0.311,0.873s-0.276,0.42-0.442,0.557
				s-0.338,0.241-0.516,0.313s-0.354,0.118-0.53,0.138s-0.336,0.029-0.48,0.029s-0.304-0.01-0.478-0.029s-0.349-0.065-0.524-0.138
				s-0.346-0.177-0.51-0.313s-0.311-0.322-0.439-0.557s-0.231-0.524-0.308-0.87s-0.114-0.765-0.114-1.257V12.492z"/>
		</g>
	</g>
</g>
<g>
</g>
<g>
</g>
<g>
</g>
<g>
</g>
<g>
</g>
<g>
</g>
</svg>
