<?xml version="1.0" encoding="utf-8"?>
<!-- Generator: Adobe Illustrator 16.0.0, SVG Export Plug-In . SVG Version: 6.00 Build 0)  -->
<!DOCTYPE svg PUBLIC "-//W3C//DTD SVG 1.1//EN" "http://www.w3.org/Graphics/SVG/1.1/DTD/svg11.dtd">
<svg version="1.1" id="Layer_1" xmlns="http://www.w3.org/2000/svg" xmlns:xlink="http://www.w3.org/1999/xlink" x="0px" y="0px"
	 width="199.501px" height="197.384px" viewBox="0 0 199.501 197.384" enable-background="new 0 0 199.501 197.384"
	 xml:space="preserve">
<g>
	<g>
		<circle fill="#EFA8B9" cx="99.751" cy="98.384" r="92.5"/>
		<path fill="#895160" d="M177.274,48.221c-2.172-3.327-4.549-6.506-7.119-9.518H29.345C15.569,54.855,7.251,75.8,7.251,98.692
			c0,8.668,1.195,17.056,3.424,25.012h166.6V48.221z"/>
		<path fill="#AF6979" d="M170.274,44.704H24.638C13.698,59.897,7.251,78.54,7.251,98.692c0,6.164,0.607,12.186,1.758,18.012
			h161.266V44.704z"/>
		<path fill="none" stroke="#9C83BC" stroke-width="2" stroke-miterlimit="10" d="M113.274,134.281"/>
		<path fill="none" stroke="#9C83BC" stroke-width="2" stroke-miterlimit="10" d="M153.806,134.281"/>
		<g>
			<path fill="#EFA8B9" d="M150.444,90.725c0.051-0.595,0.078-1.166,0.078-1.711c0-9.007-7.301-16.309-16.309-16.309
				s-16.309,7.302-16.309,16.309c0,0.56,0.027,1.151,0.084,1.765c-0.873,0.258-1.518,1.176-1.518,2.27
				c0,1.296,0.898,2.345,2.01,2.345c0.104,0,0.205-0.014,0.305-0.031c2.201,8.877,8.277,19.476,15.428,19.476
				c7.166,0,13.254-10.646,15.441-19.533c0.174,0.057,0.354,0.089,0.541,0.089c1.111,0,2.01-1.049,2.01-2.345
				C152.206,91.852,151.438,90.867,150.444,90.725z"/>
		</g>
		<g>
			<path fill="#895160" d="M114.251,129.704H84.274v-28h-9v28v9h9h29v26.559v19.441h15v-46v-9V119.46
				C119.31,120.639,115.702,125.745,114.251,129.704z"/>
			<path fill="#895160" d="M153.349,128.182c-1.457-4.066-5.004-7.247-13.074-8.453v62.131c4.928-2.404,9.609-5.238,14-8.447
				v-23.171l8.182,16.445c2.336-2.156,4.561-4.43,6.664-6.813L153.349,128.182z"/>
		</g>
		<g>
			<path fill="#AF6979" d="M140.274,119.729c0.486,0.072-1.594-0.527-8-0.527c-1.445,0-2.768,0.097-4,0.259v10.243v9v46h-15v5.502
				c9.553-1.4,18.629-4.264,27-8.35V119.729z"/>
			<path fill="#AF6979" d="M128.269,119.461"/>
			<path fill="#AF6979" d="M147.415,177.974c-1.006,0.607-2.029,1.188-3.061,1.756C145.386,179.161,146.409,178.579,147.415,177.974
				z"/>
			<path fill="#AF6979" d="M150.503,176.019c-0.914,0.602-1.838,1.191-2.775,1.76C148.665,177.21,149.589,176.62,150.503,176.019z"
				/>
			<path fill="#AF6979" d="M143.413,180.241c-0.9,0.482-1.809,0.953-2.729,1.408C141.604,181.194,142.513,180.724,143.413,180.241z"
				/>
			<path fill="#AF6979" d="M154.274,173.413c-0.971,0.709-1.959,1.393-2.957,2.064C152.315,174.806,153.304,174.122,154.274,173.413
				z"/>
		</g>
		<g>
			<path fill="#895160" d="M134.214,73.013c-9.008,0-16.309,7.302-16.309,16.309c0,0.428,0.031,0.889,0.064,1.35
				c1.01-0.515,2.232-1.204,3.807-2.149c3.188-1.912,7.529-6.842,9.123-9.305c1.582,2.756,3.557,5.486,5.775,7.008
				c5.043,3.455,9.002,4.406,13.777,4.646c0.041-0.534,0.07-1.056,0.07-1.549C150.522,80.315,143.222,73.013,134.214,73.013z"/>
			<path fill="#895160" d="M121.794,103.9c-0.965,1.179-1.52,2.513-1.52,3.929c0,3.715,3.75,6.871,9,8.086v-2.455
				C126.331,111.461,123.749,107.895,121.794,103.9z"/>
			<path fill="#895160" d="M138.274,114.004v2.024c5.512-1.124,9.5-4.368,9.5-8.2c0-1.297-0.471-2.523-1.289-3.627
				C144.353,108.467,141.507,112.206,138.274,114.004z"/>
		</g>
		<g>
			<path fill="#D47E90" d="M134.214,115.145c-1.723,0-3.381-0.619-4.939-1.678v1.361c1.559,1.057,3.217,1.676,4.939,1.676
				c1.402,0,2.762-0.408,4.061-1.13v-1.363C136.976,114.733,135.616,115.145,134.214,115.145z"/>
		</g>
		<path fill="#EFA8B9" d="M132.274,119.202c2.754,0,4.705,0.111,6,0.232v-4.423c-1.299,0.722-2.658,1.134-4.061,1.134
			c-1.723,0-3.381-0.619-4.939-1.678v4.895C130.222,119.268,131.206,119.202,132.274,119.202z"/>
		<path fill="#EFA8B9" d="M78.739,101.112c0.025,0.209,0.041,0.405,0.053,0.592h2.904c0.012-0.187,0.029-0.383,0.055-0.592
			c0.197-1.624,3.443-3.408,3.443-5.408h0.08v-13c0-0.553-0.447-1-1-1s-1,0.447-1,1v6c0-0.553-0.447-1-1-1s-1,0.447-1,1
			c0-0.553-0.447-1-1-1s-1,0.447-1,1c0-0.553-0.447-1-1-1s-1,0.447-1,1c0-0.553-0.447-1-1-1s-1,0.447-1,1v7h0.039
			C75.313,97.704,78.542,99.488,78.739,101.112z"/>
		<g>
			<g>
				<path fill="#D47E90" d="M136.274,105.384h-5c-0.553,0-1.043-0.436-1.043-0.988v-15c0-0.553,0.447-1,1-1s1,0.447,1,1v13.988
					h4.043c0.553,0,1,0.447,1,1S136.827,105.384,136.274,105.384z"/>
			</g>
			<g>
				<path fill="#D47E90" d="M134.274,110.646c-1.434,0-2.787-0.225-3.809-0.634c-1.908-0.763-2.191-1.966-2.191-2.616
					c0-0.553,0.447-1,1-1s1,0.447,1,1c0,0.51,1.559,1.25,4,1.25s4-0.74,4-1.25c0-0.553,0.447-1,1-1s1,0.447,1,1
					C140.274,109.794,137.042,110.646,134.274,110.646z"/>
			</g>
			<g>
				<g>
					<path fill="#D47E90" d="M141.231,95.396c-0.553,0-1-0.447-1-1v-2.668c0-2.564,1.08-4.221,2.717-4.221
						c1.639,0,2.708,1.683,2.708,4.287c0,0.553-0.442,1-0.995,1s-0.997-0.447-0.997-1c0-1.502-0.474-2.287-0.718-2.287
						c-0.283,0-0.715,0.791-0.715,2.221v2.668C142.231,94.948,141.784,95.396,141.231,95.396z"/>
				</g>
				<g>
					<path fill="#D47E90" d="M124.231,95.396c-0.553,0-1-0.447-1-1v-2.668c0-2.524,1.137-4.221,2.799-4.221
						c1.664,0,2.792,1.723,2.792,4.287c0,0.553-0.442,1-0.995,1s-0.997-0.447-0.997-1c0-1.502-0.528-2.287-0.802-2.287
						c-0.324,0-0.797,0.845-0.797,2.221v2.668C125.231,94.948,124.784,95.396,124.231,95.396z"/>
				</g>
			</g>
		</g>
		<g>
			<g>
				<path fill="#D47E90" d="M136.274,105.384h-5c-0.553,0-1.043-0.436-1.043-0.988v-15c0-0.553,0.447-1,1-1s1,0.447,1,1v13.988
					h4.043c0.553,0,1,0.447,1,1S136.827,105.384,136.274,105.384z"/>
			</g>
			<g>
				<path fill="#D47E90" d="M134.274,110.646c-1.434,0-2.787-0.225-3.809-0.634c-1.908-0.763-2.191-1.966-2.191-2.616
					c0-0.553,0.447-1,1-1s1,0.447,1,1c0,0.51,1.559,1.25,4,1.25s4-0.74,4-1.25c0-0.553,0.447-1,1-1s1,0.447,1,1
					C140.274,109.794,137.042,110.646,134.274,110.646z"/>
			</g>
			<g>
				<g>
					<path fill="#D47E90" d="M141.231,95.396c-0.553,0-1-0.447-1-1v-2.668c0-2.564,1.08-4.221,2.717-4.221
						c1.639,0,2.708,1.683,2.708,4.287c0,0.553-0.442,1-0.995,1s-0.997-0.447-0.997-1c0-1.502-0.474-2.287-0.718-2.287
						c-0.283,0-0.715,0.791-0.715,2.221v2.668C142.231,94.948,141.784,95.396,141.231,95.396z"/>
				</g>
				<g>
					<path fill="#D47E90" d="M124.231,95.396c-0.553,0-1-0.447-1-1v-2.668c0-2.524,1.137-4.221,2.799-4.221
						c1.664,0,2.792,1.723,2.792,4.287c0,0.553-0.442,1-0.995,1s-0.997-0.447-0.997-1c0-1.502-0.528-2.287-0.802-2.287
						c-0.324,0-0.797,0.845-0.797,2.221v2.668C125.231,94.948,124.784,95.396,124.231,95.396z"/>
				</g>
			</g>
		</g>
	</g>
	<circle fill="none" stroke="#D47E90" stroke-width="6" stroke-miterlimit="10" cx="99.751" cy="98.384" r="92.5"/>
</g>
</svg>
