{
    "prepare_queue": {
        "installed": [],
        "uninstalled": []
    },
    "config_munge": {
        "files": {
            "config.xml": {
                "parents": {
                    "/*": [
                        {
                            "xml": "<feature name=\"FacebookConnectPlugin\"><param name=\"browser-package\" value=\"FacebookConnectPlugin\" /><param name=\"onload\" value=\"true\" /></feature>",
                            "count": 1
                        },
                        {
                            "xml": "<plugin name=\"FacebookConnectPlugin\" value=\"FacebookConnectPlugin\" />",
                            "count": 1
                        },
                        {
                            "xml": "<access origin=\"https://m.facebook.com\" />",
                            "count": 1
                        },
                        {
                            "xml": "<access origin=\"https://graph.facebook.com\" />",
                            "count": 1
                        },
                        {
                            "xml": "<access origin=\"https://api.facebook.com\" />",
                            "count": 1
                        },
                        {
                            "xml": "<access origin=\"https://*.fbcdn.net\" />",
                            "count": 1
                        },
                        {
                            "xml": "<access origin=\"https://*.akamaihd.net\" />",
                            "count": 1
                        }
                    ]
                }
            }
        }
    },
    "installed_plugins": {
        "org.apache.cordova.file": {
            "PACKAGE_NAME": "br.org.plataformabrasil.mobi"
        },
        "org.apache.cordova.inappbrowser": {
            "PACKAGE_NAME": "br.org.plataformabrasil.mobi"
        },
        "com.phonegap.plugins.facebookconnect": {
            "APP_ID": "793593654040767",
            "APP_NAME": "Plataforma Brasil",
            "PACKAGE_NAME": "br.org.plataformabrasil.mobi"
        }
    },
    "dependent_plugins": {}
}