<?xml version="1.0" encoding="utf-8"?>
<!-- Generator: Adobe Illustrator 16.0.0, SVG Export Plug-In . SVG Version: 6.00 Build 0)  -->
<!DOCTYPE svg PUBLIC "-//W3C//DTD SVG 1.1//EN" "http://www.w3.org/Graphics/SVG/1.1/DTD/svg11.dtd">
<svg version="1.1" id="Layer_1" xmlns="http://www.w3.org/2000/svg" xmlns:xlink="http://www.w3.org/1999/xlink" x="0px" y="0px"
	 width="360.44px" height="365.984px" viewBox="0 0 360.44 365.984" enable-background="new 0 0 360.44 365.984"
	 xml:space="preserve">
<g>
	<g opacity="0.12">
		<g>
			<defs>
				<rect id="SVGID_1_" width="360.44" height="365.984"/>
			</defs>
			<clipPath id="SVGID_2_">
				<use xlink:href="#SVGID_1_"  overflow="visible"/>
			</clipPath>
			<g clip-path="url(#SVGID_2_)">
				<defs>
					<rect id="SVGID_3_" width="360.44" height="365.984"/>
				</defs>
				<clipPath id="SVGID_4_">
					<use xlink:href="#SVGID_3_"  overflow="visible"/>
				</clipPath>
				<g transform="matrix(1 0 0 1 0 0)" clip-path="url(#SVGID_4_)">
					
						<image overflow="visible" width="65" height="66" xlink:href="53F2FA252982FD68.png"  transform="matrix(5.5452 0 0 5.5452 0 0)">
					</image>
				</g>
			</g>
		</g>
	</g>
	<g>
		<circle fill="#B4DDDC" cx="179.065" cy="174.426" r="155"/>
		<circle fill="#E9EEEE" cx="179.065" cy="174.426" r="99.56"/>
		<polygon fill="#8474A2" points="128.437,165.733 143.261,211.395 240.003,214.674 204.8,106.251 		"/>
		
			<rect x="67.489" y="192.563" transform="matrix(0.9511 -0.3088 0.3088 0.9511 -61.225 33.2672)" fill="#8474A2" width="14.001" height="35"/>
		<g>
			<path fill="#C8D42C" d="M65.28,194.653c-5.254,1.706-8.129,7.348-6.423,12.6l4.632,14.267c1.705,5.253,7.346,8.129,12.6,6.424
				L65.28,194.653z"/>
		</g>
		<path fill="#C8D42C" d="M152.771,208.303c0.853,2.627-0.585,5.447-3.212,6.3l-58.969,19.146c-2.627,0.853-5.447-0.585-6.301-3.212
			l-14.822-45.654c-0.854-2.626,0.585-5.446,3.212-6.3l58.97-19.146c2.627-0.853,5.446,0.585,6.299,3.212L152.771,208.303z"/>
		<path fill="#9C83BD" d="M204.8,106.248l35.203,108.429c2.627-0.854,4.064-3.673,3.212-6.3l-32.116-98.917
			C210.246,106.833,207.427,105.396,204.8,106.248z"/>
		<path fill="#8474A2" d="M98.199,231.278l0.927,2.854c0.512,1.576,2.204,2.438,3.779,1.927l38.045-12.353
			c1.576-0.512,2.439-2.203,1.927-3.779l-0.927-2.854L98.199,231.278z"/>
		<path fill="#4A586A" d="M143.705,235.429l-0.951,0.309l4.015,12.364l0.951-0.309c2.102-0.682,3.251-2.938,2.568-5.04l-1.543-4.755
			C148.062,235.896,145.806,234.746,143.705,235.429z"/>
		<g>
			<defs>
				<circle id="SVGID_5_" cx="179.065" cy="174.426" r="99.56"/>
			</defs>
			<clipPath id="SVGID_6_">
				<use xlink:href="#SVGID_5_"  overflow="visible"/>
			</clipPath>
			<g clip-path="url(#SVGID_6_)">
				
					<rect x="112.778" y="227.481" transform="matrix(0.9511 -0.3088 0.3088 0.9511 -72.0663 52.6467)" fill="#C8D42C" width="35" height="53.001"/>
				<path fill="#9C83BD" d="M121.727,241.513l-12.571,4.082l1.854,5.706l12.57-4.081c1.462-0.475,2.263-2.045,1.789-3.506
					l-0.135-0.414C124.759,241.839,123.188,241.038,121.727,241.513z"/>
				<path fill="#9C83BD" d="M124.814,251.024l-12.571,4.081l1.854,5.707l12.57-4.081c1.463-0.475,2.264-2.045,1.789-3.506
					l-0.135-0.414C127.847,251.35,126.276,250.55,124.814,251.024z"/>
				<path fill="#9C83BD" d="M127.902,260.535l-12.571,4.082l1.854,5.706l12.57-4.081c1.463-0.475,2.264-2.045,1.789-3.506
					l-0.135-0.414C130.935,260.861,129.364,260.061,127.902,260.535z"/>
			</g>
		</g>
		<g>
			<path fill="#F15943" d="M301.649,132.329c0.379,1.184-0.273,2.449-1.455,2.828l-36.657,11.77c-1.184,0.38-2.45-0.271-2.83-1.453
				l-0.153-0.478c-0.379-1.184,0.271-2.45,1.455-2.83l36.656-11.769c1.184-0.379,2.451,0.271,2.831,1.453L301.649,132.329z"/>
			<g>
				<path fill="#F15943" d="M281.993,98.728c0.791,0.957,0.656,2.376-0.301,3.167l-29.666,24.54
					c-0.956,0.792-2.375,0.658-3.166-0.299l-0.32-0.387c-0.792-0.957-0.657-2.375,0.299-3.167l29.666-24.54
					c0.959-0.792,2.376-0.658,3.168,0.299L281.993,98.728z"/>
				<path fill="#F15943" d="M305.073,170.614c0.086-1.238-0.85-2.313-2.088-2.399l-38.406-2.686
					c-1.24-0.086-2.315,0.849-2.401,2.087l-0.035,0.5c-0.087,1.24,0.849,2.315,2.087,2.401l38.406,2.685
					c1.24,0.087,2.315-0.848,2.401-2.086L305.073,170.614z"/>
			</g>
		</g>
		<g>
			<path fill="#FADF65" d="M159.329,35.884c-10.162,2.816-16.119,13.34-13.303,23.502c1.989,7.177,10.979,12.252,13.804,14.887
				c1.328,1.236,1.799,2.548,2.685,5.743c2.912-0.807,8.376-2.321,8.376-2.321L159.329,35.884z"/>
			<g>
				<path fill="#E8BD66" d="M159.329,35.884c10.162-2.816,20.687,3.14,23.503,13.302c1.989,7.177-3.104,16.154-4.173,19.868
					c-0.5,1.744-0.23,3.11,0.656,6.306c-2.912,0.808-8.376,2.321-8.376,2.321L159.329,35.884z"/>
				
					<rect x="162.46" y="80.413" transform="matrix(0.9637 -0.2671 0.2671 0.9637 -15.5334 48.8997)" fill="#E8BD66" width="19.053" height="2.273"/>
				
					<rect x="164.077" y="86.25" transform="matrix(0.9637 -0.2671 0.2671 0.9637 -17.0335 49.5437)" fill="#E8BD66" width="19.053" height="2.272"/>
				<polygon fill="#E8BD66" points="166.812,92.412 167.418,94.601 169.122,94.128 169.728,96.316 171.675,95.776 172.146,97.48 
					180.05,95.29 179.577,93.586 181.521,93.048 180.915,90.859 182.618,90.388 182.013,88.199 				"/>
			</g>
		</g>
		<g>
			<polygon fill="#D47E90" points="226.065,276.763 238.065,276.763 238.065,287.825 246.479,276.763 267.065,276.763 
				267.065,241.763 226.065,241.763 			"/>
			<polygon fill="#E698AC" points="187.065,256.763 201.306,256.763 207.065,264.706 207.065,256.763 215.065,256.763 
				215.065,232.763 187.065,232.763 			"/>
		</g>
		<g>
			<path fill="#4A586A" d="M80.229,106.076c0.043,0,0.076,0,0.122,0c0.043,0,0.078,0,0.123,0H80.229z"/>
			<path fill="#4A586A" d="M80.474,138.685c-0.045,0-0.08,0-0.123,0c-0.046,0-0.079,0-0.122,0H80.474z"/>
			<path fill="#4A586A" d="M96.676,122.272c0,0.044,0,0.079,0,0.124c0,0.041,0,0.078,0,0.124V122.272z"/>
			<path fill="#4A586A" d="M93.558,117.924c-0.2-0.591-0.439-1.162-0.716-1.715l1.63-2.768c0,0-0.75-0.764-2.582-2.597
				c-1.838-1.837-2.593-2.578-2.593-2.578l-2.761,1.638c-0.563-0.279-1.14-0.525-1.745-0.727l-0.789-3.091
				c0,0-1.058-0.011-3.651-0.011c-2.595,0-3.667,0.011-3.667,0.011l-0.809,3.116c-0.579,0.199-1.14,0.435-1.678,0.702l-2.768-1.629
				c0,0-0.765,0.752-2.597,2.583c-1.839,1.837-2.576,2.594-2.576,2.594l1.635,2.759c-0.273,0.553-0.516,1.123-0.713,1.712
				l-3.105,0.806c0,0-0.006,1.071-0.006,3.667c0,2.594,0.006,3.65,0.006,3.65l3.106,0.795c0.199,0.588,0.439,1.157,0.712,1.707
				l-1.635,2.759c0,0,0.737,0.757,2.572,2.591c1.836,1.834,2.601,2.584,2.601,2.584l2.768-1.626
				c0.538,0.268,1.099,0.502,1.678,0.701l0.809,3.115c0,0,1.072,0.012,3.667,0.012c2.594,0,3.651-0.012,3.651-0.012l0.789-3.09
				c0.603-0.201,1.182-0.447,1.745-0.727l2.761,1.637c0,0,0.752-0.738,2.589-2.572c1.833-1.838,2.585-2.601,2.585-2.601
				l-1.629-2.767c0.273-0.553,0.516-1.123,0.716-1.712l3.105-0.795c0,0,0.013-1.057,0.013-3.65c0-2.596-0.013-3.667-0.013-3.667
				L93.558,117.924z M80.368,129.577c-3.976,0-7.196-3.221-7.196-7.197c0-3.976,3.221-7.196,7.196-7.196
				c3.975,0,7.197,3.221,7.197,7.196C87.565,126.356,84.343,129.577,80.368,129.577z"/>
			<path fill="#4A586A" d="M64.067,122.521c0-0.046,0-0.083,0-0.124c0-0.045,0-0.08,0-0.124V122.521z"/>
			<path fill="#4A586A" d="M91.974,133.833c-0.03,0.03-0.056,0.058-0.088,0.088c-0.031,0.028-0.057,0.056-0.089,0.088
				L91.974,133.833z"/>
			<path fill="#4A586A" d="M68.739,110.95c0.034-0.032,0.06-0.059,0.094-0.091c0.028-0.028,0.056-0.053,0.084-0.085L68.739,110.95z"
				/>
			<path fill="#4A586A" d="M68.917,133.987c-0.028-0.033-0.058-0.057-0.088-0.089s-0.056-0.056-0.086-0.088L68.917,133.987z"/>
			<path fill="#4A586A" d="M91.8,110.754c0.03,0.032,0.058,0.06,0.09,0.091c0.031,0.03,0.054,0.053,0.084,0.085L91.8,110.754z"/>
		</g>
		<path fill="#4A586A" d="M241.03,49.407c-6.717-2.968-14.567,0.07-17.535,6.787c-2.969,6.719,0.069,14.57,6.785,17.538
			c6.717,2.968,14.566-0.071,17.535-6.79C250.784,60.226,247.747,52.375,241.03,49.407z M231.804,69.099
			c-0.875-0.387-1.236-1.367-0.822-2.303c0.414-0.937,1.382-1.328,2.256-0.941c0.873,0.386,1.258,1.374,0.844,2.311
			C233.668,69.102,232.677,69.484,231.804,69.099z M235.19,64.246l-2.1-0.927c0.775-2.938,4.459-2.723,5.287-4.594
			c0.439-0.998,0.045-1.792-1.016-2.26c-0.854-0.378-1.758-0.19-2.652,0.209l-0.808-1.776c1.364-0.667,2.915-0.855,4.431-0.185
			c2.25,0.993,3.451,2.6,2.449,4.866C239.616,62.22,236.115,61.376,235.19,64.246z"/>
		<g>
			<polygon fill="#659497" points="97.866,267.951 89.907,272.671 84.526,263.604 81.552,275.256 95.114,278.721 			"/>
			<polygon fill="#659497" points="97.372,265.88 86.565,263.12 90.606,269.931 			"/>
			<path fill="#659497" d="M82.129,256.826l-5.443,21.316l21.315,5.443l5.444-21.316L82.129,256.826z M96.559,281.153l-17.44-4.454
				l4.207-16.472l17.439,4.454L96.559,281.153z"/>
		</g>
		<g>
			<path fill="#659497" d="M301.822,208.369c-0.683-0.471-1.615-0.299-2.086,0.384l-4.785,6.938l-4.298-3.416
				c-0.335-0.266-0.766-0.375-1.19-0.303c-0.421,0.072-0.792,0.322-1.018,0.686l-8.402,13.531c-0.437,0.703-0.221,1.629,0.483,2.065
				c0.246,0.153,0.52,0.226,0.79,0.226c0.501,0,0.991-0.252,1.275-0.709l7.514-12.099l4.235,3.366
				c0.325,0.26,0.739,0.368,1.154,0.311c0.411-0.062,0.778-0.291,1.014-0.633l5.696-8.26
				C302.676,209.773,302.504,208.839,301.822,208.369z"/>
			<path fill="#659497" d="M297.836,219.1l-4.351,5.155l-5.086-4.887l-1.837,2.957l5.942,5.941c0.281,0.281,0.536,0.257,0.934,0.257
				c0.672,0,0.989-0.505,1.262-0.819l5.405-6.735c0.542-0.627,0.473-1.543-0.153-2.085
				C299.322,218.341,298.377,218.474,297.836,219.1z"/>
			<path fill="#659497" d="M284.411,217.763h-5.346c-0.828,0-1.5,0.672-1.5,1.5s0.672,1.5,1.5,1.5h3.482L284.411,217.763z"/>
		</g>
		<circle fill="none" stroke="#BDCE31" stroke-width="8" stroke-miterlimit="10" cx="179.065" cy="174.426" r="155"/>
		<g>
			<polygon fill="#659497" points="134.306,286.003 130.302,294.345 120.795,289.786 124.783,301.13 137.989,296.49 			"/>
			<polygon fill="#659497" points="132.745,284.554 122.224,288.252 129.363,291.677 			"/>
			<path fill="#659497" d="M115.04,285.476l7.295,20.756l20.756-7.295l-7.295-20.756L115.04,285.476z M140.54,297.713l-16.981,5.968
				l-5.636-16.039l16.98-5.967L140.54,297.713z"/>
		</g>
	</g>
</g>
</svg>
