<?xml version="1.0" encoding="utf-8"?>
<!-- Generator: Adobe Illustrator 16.0.0, SVG Export Plug-In . SVG Version: 6.00 Build 0)  -->
<!DOCTYPE svg PUBLIC "-//W3C//DTD SVG 1.1//EN" "http://www.w3.org/Graphics/SVG/1.1/DTD/svg11.dtd">
<svg version="1.1" id="Layer_1" xmlns="http://www.w3.org/2000/svg" xmlns:xlink="http://www.w3.org/1999/xlink" x="0px" y="0px"
	 width="44px" height="42.92px" viewBox="0 0 44 42.92" enable-background="new 0 0 44 42.92" xml:space="preserve">
<g>
	<polygon opacity="0.6" fill="#70ACB0" points="7,4 7,40 33.861,40 44,30.194 44,4 	"/>
	<rect x="7" y="4" fill="#3A4656" width="37" height="9"/>
	<g>
		<rect x="14" fill="#70ACB0" width="3" height="8"/>
		<rect x="33" fill="#70ACB0" width="3" height="8"/>
	</g>
	<polygon opacity="0.6" fill="#70ACB0" points="34,40 43.667,30 34,30 	"/>
	<g>
		<g>
			<path fill="#E9EEEE" d="M11.6,21.328c0.26,0.479,0.619,0.689,1.02,0.689c0.609,0,0.92-0.33,0.92-1.26v-4.387h1.158v4.486
				c0,1.189-0.579,2.17-1.948,2.17c-0.909,0-1.54-0.381-1.949-1.109L11.6,21.328z"/>
			<path fill="#E9EEEE" d="M16.3,16.371h1.159v3.758c0,1.418,0.529,1.889,1.319,1.889c0.8,0,1.359-0.471,1.359-1.889v-3.758h1.109
				v3.668c0,2.148-0.95,2.988-2.469,2.988c-1.509,0-2.479-0.84-2.479-2.988V16.371z"/>
			<path fill="#E9EEEE" d="M22.879,16.371h1.16v5.557h2.719v0.979h-3.879V16.371z"/>
			<path fill="#E9EEEE" d="M27.899,16.371h1.159v2.627h2.648v-2.627h1.16v6.535h-1.16v-2.898h-2.648v2.898h-1.159V16.371z"/>
			<path fill="#E9EEEE" d="M34.189,19.609c0-2.109,1.18-3.359,2.879-3.359c1.709,0,2.888,1.25,2.888,3.359
				c0,2.117-1.179,3.418-2.888,3.418C35.369,23.027,34.189,21.727,34.189,19.609z M38.757,19.609c0-1.461-0.659-2.35-1.688-2.35
				s-1.689,0.889-1.689,2.35c0,1.469,0.66,2.408,1.689,2.408S38.757,21.078,38.757,19.609z"/>
		</g>
	</g>
	<g>
		<g>
			<polygon fill="#EF4437" points="11,28 0,28 0,36 1,36 1,39.129 3.664,36 11,36 			"/>
		</g>
		<polygon fill="#EF4437" points="12,35 12,37 7,37 7,41 14.343,41 16,42.92 16,41 17,41 17,35 		"/>
	</g>
</g>
<g>
</g>
<g>
</g>
<g>
</g>
<g>
</g>
<g>
</g>
<g>
</g>
</svg>
