{
    "prepare_queue": {
        "installed": [],
        "uninstalled": []
    },
    "config_munge": {
        "files": {
            "framework": {
                "parents": {
                    "AssetsLibrary.framework": [
                        {
                            "xml": false,
                            "count": 1
                        }
                    ],
                    "MobileCoreServices.framework": [
                        {
                            "xml": false,
                            "count": 1
                        }
                    ],
                    "CoreGraphics.framework": [
                        {
                            "xml": false,
                            "count": 1
                        }
                    ],
                    "libsqlite3.dylib": [
                        {
                            "xml": false,
                            "count": 1
                        }
                    ],
                    "Social.framework": [
                        {
                            "xml": true,
                            "count": 1
                        }
                    ],
                    "Accounts.framework": [
                        {
                            "xml": true,
                            "count": 1
                        }
                    ],
                    "Security.framework": [
                        {
                            "xml": true,
                            "count": 1
                        }
                    ]
                }
            },
            "config.xml": {
                "parents": {
                    "/*": [
                        {
                            "xml": "<feature name=\"File\"><param name=\"ios-package\" value=\"CDVFile\" /><param name=\"onload\" value=\"true\" /></feature>",
                            "count": 1
                        },
                        {
                            "xml": "<feature name=\"InAppBrowser\"><param name=\"ios-package\" value=\"CDVInAppBrowser\" /></feature>",
                            "count": 1
                        },
                        {
                            "xml": "<feature name=\"FacebookConnectPlugin\"><param name=\"ios-package\" value=\"FacebookConnectPlugin\" /><param name=\"onload\" value=\"true\" /></feature>",
                            "count": 1
                        },
                        {
                            "xml": "<plugin name=\"FacebookConnectPlugin\" value=\"FacebookConnectPlugin\" />",
                            "count": 1
                        },
                        {
                            "xml": "<access origin=\"https://m.facebook.com\" />",
                            "count": 1
                        },
                        {
                            "xml": "<access origin=\"https://graph.facebook.com\" />",
                            "count": 1
                        },
                        {
                            "xml": "<access origin=\"https://api.facebook.com\" />",
                            "count": 1
                        },
                        {
                            "xml": "<access origin=\"https://*.fbcdn.net\" />",
                            "count": 1
                        },
                        {
                            "xml": "<access origin=\"https://*.akamaihd.net\" />",
                            "count": 1
                        }
                    ]
                }
            },
            "*-Info.plist": {
                "parents": {
                    "FacebookAppID": [
                        {
                            "xml": "<string>793593654040767</string>",
                            "count": 1
                        }
                    ],
                    "FacebookDisplayName": [
                        {
                            "xml": "<string>Plataforma Brasil</string>",
                            "count": 1
                        }
                    ],
                    "CFBundleURLTypes": [
                        {
                            "xml": "<array><dict><key>CFBundleURLSchemes</key><array><string>fb793593654040767</string></array></dict></array>",
                            "count": 1
                        }
                    ]
                }
            }
        }
    },
    "installed_plugins": {
        "org.apache.cordova.file": {
            "PACKAGE_NAME": "br.org.plataformabrasil.mobile"
        },
        "org.apache.cordova.inappbrowser": {
            "PACKAGE_NAME": "br.org.plataformabrasil.mobile"
        },
        "com.phonegap.plugins.facebookconnect": {
            "APP_ID": "793593654040767",
            "APP_NAME": "Plataforma Brasil",
            "PACKAGE_NAME": "br.org.plataformabrasil.mobile"
        }
    },
    "dependent_plugins": {}
}