<?xml version="1.0" encoding="UTF-8" standalone="no"?>
<svg width="960px" height="72px" viewBox="0 0 960 72" version="1.1" xmlns="http://www.w3.org/2000/svg" xmlns:xlink="http://www.w3.org/1999/xlink">
    <g stroke="none" stroke-width="1" fill="none" fill-rule="evenodd">
        <path d="M960,0.8 L0,0.8 L0,25.0091691 L43.5546306,25.0091691 L43.5546306,71.8 L79.3173777,25.0091691 L960,25.0091691 L960,0.8 L960,0.8 Z" fill="#6FACB1"></path>
    </g>
</svg>
