<?xml version="1.0" encoding="UTF-8" standalone="no"?>
<svg width="124px" height="36px" viewBox="0 0 124 36" version="1.1" xmlns="http://www.w3.org/2000/svg" xmlns:xlink="http://www.w3.org/1999/xlink">
    <defs></defs>
    <g stroke="none" stroke-width="1" fill="none" fill-rule="evenodd">
        <path d="M0.044,8.51 L2.07,8.51 C2.326,8.51 2.606,8.522 2.911,8.545 C3.217,8.568 3.521,8.623 3.827,8.709 C4.132,8.795 4.427,8.927 4.711,9.105 C4.995,9.283 5.247,9.524 5.466,9.829 C5.686,10.135 5.862,10.517 5.994,10.975 C6.126,11.433 6.193,11.992 6.193,12.649 L6.193,13.119 C6.193,13.834 6.132,14.445 6.009,14.954 C5.887,15.463 5.724,15.891 5.52,16.237 C5.317,16.584 5.081,16.862 4.812,17.07 C4.543,17.279 4.264,17.437 3.975,17.544 C3.686,17.651 3.393,17.722 3.099,17.756 C2.804,17.789 2.526,17.807 2.265,17.807 L2.07,17.807 L2.07,21.875 L0.044,21.875 L0.044,8.51 L0.044,8.51 Z M2.172,16.319 C2.537,16.319 2.845,16.266 3.096,16.159 C3.346,16.053 3.545,15.886 3.695,15.658 C3.843,15.431 3.95,15.139 4.015,14.782 C4.08,14.425 4.113,13.996 4.113,13.495 L4.113,12.29 C4.113,11.894 4.085,11.551 4.027,11.261 C3.969,10.972 3.867,10.733 3.718,10.545 C3.569,10.357 3.369,10.218 3.119,10.126 C2.868,10.035 2.553,9.989 2.172,9.989 L2.07,9.989 L2.07,16.319 L2.172,16.319 L2.172,16.319 Z" fill="#394556"></path>
        <path d="M7.6,8.51 L9.626,8.51 L9.626,20.278 L12.388,20.278 L12.388,21.875 L7.6,21.875 L7.6,8.51 L7.6,8.51 Z" fill="#394556"></path>
        <path d="M15.775,8.51 L18.107,8.51 L20.58,21.874 L18.529,21.874 L18.162,19.479 L15.721,19.479 L15.368,21.874 L13.31,21.874 L15.775,8.51 L15.775,8.51 Z M17.928,17.955 L16.989,11.296 L16.903,11.296 L15.956,17.955 L17.928,17.955 L17.928,17.955 Z" fill="#394556"></path>
        <path d="M22.547,10.106 L20.395,10.106 L20.395,8.51 L26.717,8.51 L26.717,10.106 L24.573,10.106 L24.573,21.875 L22.547,21.875 L22.547,10.106 L22.547,10.106 Z" fill="#394556"></path>
        <path d="M29.32,8.51 L31.652,8.51 L34.125,21.874 L32.074,21.874 L31.707,19.479 L29.266,19.479 L28.913,21.874 L26.855,21.874 L29.32,8.51 L29.32,8.51 Z M31.473,17.955 L30.534,11.296 L30.448,11.296 L29.5,17.955 L31.473,17.955 L31.473,17.955 Z" fill="#394556"></path>
        <path d="M35.416,8.51 L40.525,8.51 L40.525,10.106 L37.442,10.106 L37.442,14.105 L39.86,14.105 L39.86,15.701 L37.442,15.701 L37.442,21.875 L35.416,21.875 L35.416,8.51 L35.416,8.51 Z" fill="#394556"></path>
        <path d="M44.71,21.992 C44.496,21.992 44.265,21.975 44.014,21.941 C43.764,21.907 43.516,21.836 43.271,21.726 C43.026,21.616 42.79,21.461 42.563,21.26 C42.336,21.059 42.135,20.794 41.96,20.466 C41.785,20.137 41.646,19.732 41.541,19.249 C41.437,18.767 41.385,18.191 41.385,17.523 L41.385,12.79 C41.385,12.117 41.439,11.542 41.545,11.064 C41.652,10.586 41.794,10.185 41.972,9.859 C42.15,9.533 42.352,9.274 42.578,9.081 C42.804,8.888 43.042,8.74 43.29,8.639 C43.538,8.538 43.784,8.471 44.029,8.44 C44.274,8.409 44.502,8.393 44.71,8.393 C44.908,8.393 45.129,8.408 45.372,8.436 C45.614,8.464 45.856,8.527 46.1,8.624 C46.342,8.721 46.579,8.864 46.808,9.055 C47.037,9.246 47.241,9.503 47.418,9.829 C47.595,10.155 47.737,10.559 47.844,11.042 C47.951,11.524 48.005,12.107 48.005,12.791 L48.005,17.524 C48.005,18.187 47.95,18.756 47.84,19.234 C47.731,19.712 47.587,20.116 47.41,20.447 C47.232,20.778 47.027,21.044 46.796,21.245 C46.564,21.446 46.326,21.602 46.084,21.715 C45.841,21.827 45.6,21.902 45.359,21.938 C45.12,21.973 44.903,21.992 44.71,21.992 L44.71,21.992 L44.71,21.992 Z M44.71,20.466 C44.908,20.466 45.082,20.432 45.231,20.364 C45.38,20.296 45.502,20.178 45.599,20.011 C45.696,19.844 45.768,19.623 45.818,19.35 C45.868,19.077 45.892,18.731 45.892,18.313 L45.892,12.234 C45.892,11.806 45.868,11.449 45.818,11.162 C45.768,10.875 45.696,10.644 45.599,10.47 C45.502,10.296 45.38,10.171 45.231,10.098 C45.083,10.026 44.909,9.989 44.71,9.989 C44.507,9.989 44.329,10.026 44.179,10.098 C44.028,10.171 43.902,10.295 43.803,10.47 C43.703,10.645 43.629,10.875 43.58,11.162 C43.53,11.449 43.506,11.807 43.506,12.234 L43.506,18.313 C43.506,18.731 43.53,19.077 43.58,19.35 C43.629,19.623 43.703,19.844 43.803,20.011 C43.902,20.178 44.028,20.295 44.179,20.364 C44.329,20.432 44.507,20.466 44.71,20.466 L44.71,20.466 L44.71,20.466 Z" fill="#394556"></path>
        <path d="M49.633,8.51 L51.831,8.51 C52.082,8.51 52.356,8.521 52.657,8.541 C52.957,8.562 53.257,8.612 53.556,8.693 C53.855,8.774 54.146,8.895 54.424,9.057 C54.703,9.218 54.951,9.44 55.168,9.722 C55.384,10.003 55.558,10.357 55.688,10.783 C55.819,11.208 55.884,11.722 55.884,12.328 L55.884,12.664 C55.884,13.682 55.738,14.51 55.446,15.148 C55.154,15.788 54.723,16.248 54.155,16.53 L56.299,21.874 L54.155,21.874 L52.379,16.874 L51.62,16.874 L51.62,21.874 L49.633,21.874 L49.633,8.51 L49.633,8.51 Z M51.925,15.412 C52.28,15.412 52.58,15.373 52.825,15.295 C53.07,15.217 53.268,15.085 53.42,14.899 C53.572,14.713 53.681,14.468 53.748,14.164 C53.816,13.858 53.85,13.482 53.85,13.033 L53.85,11.976 C53.85,11.632 53.819,11.334 53.756,11.084 C53.693,10.834 53.588,10.628 53.44,10.466 C53.292,10.305 53.094,10.185 52.849,10.106 C52.604,10.028 52.296,9.989 51.925,9.989 L51.62,9.989 L51.62,15.412 L51.925,15.412 L51.925,15.412 Z" fill="#394556"></path>
        <path d="M57.593,8.51 L60.238,8.51 L61.521,13.682 C61.657,14.256 61.763,14.802 61.841,15.322 C61.92,15.841 61.995,16.33 62.069,16.789 L62.131,16.789 C62.204,16.33 62.279,15.841 62.358,15.322 C62.436,14.802 62.544,14.257 62.679,13.682 L64.001,8.51 L66.591,8.51 L66.591,21.874 L64.697,21.874 L64.697,17.453 C64.697,16.775 64.704,16.123 64.717,15.497 C64.73,14.871 64.747,14.296 64.768,13.771 C64.789,13.246 64.812,12.784 64.838,12.382 C64.864,11.98 64.888,11.662 64.908,11.428 L64.76,11.428 L62.741,20.152 L61.458,20.152 L59.424,11.428 L59.275,11.428 C59.296,11.662 59.32,11.981 59.346,12.382 C59.371,12.783 59.395,13.246 59.416,13.771 C59.437,14.295 59.453,14.871 59.467,15.497 C59.48,16.123 59.487,16.775 59.487,17.453 L59.487,21.874 L57.593,21.874 L57.593,8.51 L57.593,8.51 Z" fill="#394556"></path>
        <path d="M70.347,8.51 L72.679,8.51 L75.152,21.874 L73.101,21.874 L72.734,19.479 L70.293,19.479 L69.94,21.874 L67.882,21.874 L70.347,8.51 L70.347,8.51 Z M72.499,17.955 L71.56,11.296 L71.474,11.296 L70.527,17.955 L72.499,17.955 L72.499,17.955 Z" fill="#394556"></path>
        <path d="M51.346,24.636 L52.999,24.636 C53.636,24.636 54.146,24.82 54.531,25.187 C54.916,25.555 55.108,26.042 55.108,26.65 C55.108,27.468 54.925,28.152 54.56,28.701 C54.196,29.25 53.695,29.586 53.057,29.708 L53.042,29.753 C53.399,29.846 53.69,30.065 53.913,30.41 C54.136,30.755 54.248,31.164 54.248,31.634 C54.248,32.374 54.123,33.029 53.873,33.597 C53.623,34.165 53.26,34.605 52.785,34.916 C52.309,35.228 51.738,35.383 51.072,35.383 L49.073,35.383 L51.346,24.636 L51.346,24.636 Z M50.919,30.097 L49.941,34.691 L51.102,34.691 C51.857,34.691 52.445,34.428 52.867,33.901 C53.288,33.375 53.499,32.658 53.499,31.752 C53.499,31.242 53.374,30.839 53.124,30.543 C52.874,30.246 52.526,30.098 52.08,30.098 L50.919,30.098 L50.919,30.097 L50.919,30.097 Z M51.059,29.407 L52.139,29.407 C52.58,29.407 52.967,29.294 53.301,29.069 C53.634,28.843 53.893,28.526 54.076,28.117 C54.259,27.708 54.351,27.248 54.351,26.739 C54.351,26.263 54.226,25.912 53.976,25.683 C53.726,25.455 53.346,25.341 52.836,25.341 L51.933,25.341 L51.059,29.407 L51.059,29.407 Z" fill="#394556"></path>
        <path d="M59.354,27.252 C59.544,27.252 59.723,27.282 59.89,27.341 L59.699,28.054 C59.553,27.981 59.39,27.944 59.215,27.944 C58.798,27.944 58.411,28.23 58.053,28.804 C57.696,29.377 57.411,30.161 57.2,31.156 L56.296,35.383 L55.606,35.383 L57.29,27.407 L57.804,27.407 L57.591,28.804 L57.62,28.804 C58.051,27.77 58.629,27.252 59.354,27.252 L59.354,27.252 L59.354,27.252 Z" fill="#394556"></path>
        <path d="M61.408,35.53 C60.428,35.53 59.938,34.839 59.938,33.457 C59.938,32.433 60.09,31.419 60.397,30.414 C60.704,29.409 61.1,28.632 61.587,28.08 C62.075,27.529 62.608,27.253 63.187,27.253 C63.843,27.253 64.269,27.621 64.465,28.356 L64.509,28.356 L64.796,27.408 L65.384,27.408 L63.7,35.384 L63.141,35.384 L63.274,34.238 L63.245,34.238 C62.688,35.098 62.074,35.53 61.408,35.53 L61.408,35.53 L61.408,35.53 Z M61.548,34.919 C61.989,34.919 62.401,34.664 62.783,34.154 C63.165,33.644 63.488,32.9 63.753,31.92 C64.018,30.94 64.15,30.016 64.15,29.149 C64.15,28.743 64.062,28.435 63.888,28.227 C63.714,28.018 63.47,27.915 63.157,27.915 C62.726,27.915 62.327,28.164 61.96,28.661 C61.592,29.158 61.283,29.888 61.033,30.848 C60.783,31.809 60.658,32.712 60.658,33.56 C60.658,34.006 60.723,34.344 60.853,34.575 C60.983,34.806 61.215,34.919 61.548,34.919 L61.548,34.919 L61.548,34.919 Z" fill="#394556"></path>
        <path d="M67.279,35.53 C67.005,35.53 66.717,35.495 66.419,35.426 C66.121,35.357 65.917,35.281 65.809,35.198 L65.809,34.39 C65.927,34.507 66.124,34.617 66.401,34.717 C66.678,34.818 66.956,34.867 67.235,34.867 C67.711,34.867 68.081,34.728 68.345,34.452 C68.61,34.175 68.741,33.782 68.741,33.272 C68.741,33.056 68.715,32.859 68.661,32.68 C68.606,32.501 68.537,32.335 68.451,32.184 C68.365,32.032 68.176,31.794 67.882,31.471 C67.564,31.123 67.348,30.86 67.235,30.681 C67.123,30.502 67.035,30.31 66.971,30.104 C66.907,29.898 66.875,29.661 66.875,29.391 C66.875,28.753 67.07,28.238 67.463,27.843 C67.855,27.448 68.362,27.251 68.984,27.251 C69.65,27.251 70.187,27.403 70.593,27.707 L70.218,28.339 C69.87,28.055 69.448,27.913 68.954,27.913 C68.552,27.913 68.22,28.039 67.958,28.291 C67.695,28.544 67.564,28.881 67.564,29.302 C67.564,29.592 67.617,29.854 67.722,30.089 C67.827,30.324 68.027,30.604 68.321,30.927 C68.675,31.309 68.913,31.598 69.038,31.794 C69.163,31.99 69.263,32.203 69.336,32.434 C69.409,32.665 69.446,32.919 69.446,33.199 C69.446,33.943 69.258,34.518 68.884,34.923 C68.51,35.328 67.975,35.53 67.279,35.53 L67.279,35.53 L67.279,35.53 Z" fill="#394556"></path>
        <path d="M71.625,35.382 L70.935,35.382 L72.633,27.406 L73.323,27.406 L71.625,35.382 L71.625,35.382 Z M72.978,25.416 C72.978,25.166 73.035,24.95 73.147,24.769 C73.26,24.588 73.405,24.498 73.581,24.498 C73.811,24.498 73.927,24.64 73.927,24.924 C73.927,25.203 73.873,25.434 73.766,25.615 C73.658,25.797 73.516,25.886 73.339,25.886 C73.098,25.885 72.978,25.729 72.978,25.416 L72.978,25.416 L72.978,25.416 Z" fill="#394556"></path>
        <path d="M75.01,35.382 L74.32,35.382 L76.753,23.944 L77.451,23.944 L75.01,35.382 L75.01,35.382 Z" fill="#394556"></path>
        <path d="M123.913,13.938 L123.913,0.092 L110.069,0.092 L110.069,6.058 L117.947,6.058 L117.947,13.938 L123.913,13.938 L123.913,13.938 Z M93.671,12.168 L110.001,12.168 L110.001,6.203 L87.705,6.203 L87.705,35.806 L98.948,35.806 L98.948,29.839 L93.671,29.839 L93.671,12.168 L93.671,12.168 Z M111.837,14.014 L111.837,29.838 L103.759,29.838 L99.104,35.805 L117.804,35.805 L117.804,14.014 L111.837,14.014 L111.837,14.014 Z" fill="#394556"></path>
    </g>
</svg>
