<?xml version="1.0" encoding="UTF-8" standalone="no"?>
<svg width="103px" height="119px" viewBox="0 0 103 119" version="1.1" xmlns="http://www.w3.org/2000/svg" xmlns:xlink="http://www.w3.org/1999/xlink">
    <defs></defs>
    <g stroke="none" stroke-width="1" fill="none" fill-rule="evenodd">
        <path d="M80.391,25.977 L80.391,55.509 L65.318,55.509 L56.629,66.642 L91.524,66.644 L91.524,25.977 L80.391,25.977 L80.391,25.977 Z M46.49,22.534 L76.966,22.534 L76.966,11.401 L35.356,11.401 L35.356,66.643 L56.338,66.643 L56.338,55.509 L46.49,55.509 L46.49,22.534 L46.49,22.534 Z M102.926,25.836 L102.926,0 L77.09,0 L77.09,11.132 L91.793,11.132 L91.793,25.836 L102.926,25.836 L102.926,25.836 Z" fill="#fff"></path>
        <path d="M0.391,86.006 L2.858,86.006 C3.17,86.006 3.511,86.021 3.882,86.049 C4.254,86.078 4.625,86.144 4.997,86.249 C5.369,86.354 5.727,86.514 6.074,86.73 C6.42,86.946 6.726,87.24 6.993,87.611 C7.26,87.983 7.474,88.448 7.636,89.007 C7.798,89.566 7.879,90.245 7.879,91.046 L7.879,91.618 C7.879,92.488 7.804,93.233 7.655,93.852 C7.506,94.471 7.307,94.992 7.059,95.414 C6.811,95.836 6.524,96.174 6.197,96.429 C5.87,96.683 5.53,96.875 5.178,97.005 C4.825,97.135 4.47,97.221 4.111,97.262 C3.752,97.303 3.414,97.324 3.096,97.324 L2.858,97.324 L2.858,102.278 L0.391,102.278 L0.391,86.006 L0.391,86.006 Z M2.982,95.515 C3.426,95.515 3.801,95.45 4.106,95.32 C4.411,95.19 4.654,94.987 4.835,94.711 C5.016,94.435 5.146,94.079 5.226,93.644 C5.306,93.209 5.345,92.686 5.345,92.077 L5.345,90.61 C5.345,90.127 5.31,89.71 5.24,89.357 C5.17,89.004 5.045,88.714 4.864,88.485 C4.683,88.256 4.44,88.086 4.135,87.975 C3.83,87.864 3.446,87.808 2.982,87.808 L2.858,87.808 L2.858,95.516 L2.982,95.516 L2.982,95.515 Z" fill="#fff"></path>
        <path d="M9.61,86.006 L12.077,86.006 L12.077,100.336 L15.44,100.336 L15.44,102.279 L9.61,102.279 L9.61,86.006 L9.61,86.006 Z" fill="#fff"></path>
        <path d="M19.556,86.006 L22.395,86.006 L25.405,102.279 L22.909,102.279 L22.461,99.363 L19.488,99.363 L19.059,102.279 L16.554,102.279 L19.556,86.006 L19.556,86.006 Z M22.176,97.506 L21.032,89.399 L20.928,89.399 L19.775,97.506 L22.176,97.506 L22.176,97.506 Z" fill="#fff"></path>
        <path d="M27.819,87.95 L25.199,87.95 L25.199,86.006 L32.897,86.006 L32.897,87.95 L30.286,87.95 L30.286,102.279 L27.819,102.279 L27.819,87.95 L27.819,87.95 Z" fill="#fff"></path>
        <path d="M36.083,86.006 L38.922,86.006 L41.932,102.279 L39.436,102.279 L38.988,99.363 L36.015,99.363 L35.586,102.279 L33.081,102.279 L36.083,86.006 L36.083,86.006 Z M38.703,97.506 L37.559,89.399 L37.455,89.399 L36.302,97.506 L38.703,97.506 L38.703,97.506 Z" fill="#fff"></path>
        <path d="M43.505,86.006 L49.726,86.006 L49.726,87.95 L45.972,87.95 L45.972,92.819 L48.916,92.819 L48.916,94.762 L45.972,94.762 L45.972,102.279 L43.505,102.279 L43.505,86.006 L43.505,86.006 Z" fill="#fff"></path>
        <path d="M54.819,102.422 C54.559,102.422 54.276,102.401 53.971,102.36 C53.666,102.318 53.364,102.231 53.066,102.098 C52.768,101.965 52.48,101.776 52.204,101.531 C51.928,101.287 51.683,100.964 51.471,100.564 C51.258,100.164 51.088,99.67 50.961,99.083 C50.834,98.496 50.771,97.795 50.771,96.982 L50.771,91.218 C50.771,90.399 50.836,89.698 50.966,89.117 C51.096,88.536 51.269,88.047 51.485,87.65 C51.701,87.253 51.947,86.937 52.223,86.702 C52.499,86.467 52.788,86.287 53.09,86.163 C53.392,86.039 53.692,85.958 53.99,85.92 C54.288,85.882 54.565,85.863 54.819,85.863 C55.061,85.863 55.329,85.881 55.624,85.915 C55.919,85.95 56.215,86.026 56.51,86.144 C56.805,86.262 57.093,86.436 57.372,86.668 C57.651,86.9 57.899,87.214 58.115,87.611 C58.331,88.008 58.504,88.5 58.634,89.088 C58.764,89.675 58.829,90.385 58.829,91.217 L58.829,96.981 C58.829,97.788 58.762,98.481 58.629,99.063 C58.496,99.644 58.321,100.136 58.105,100.54 C57.889,100.944 57.64,101.268 57.357,101.512 C57.074,101.757 56.786,101.947 56.49,102.084 C56.194,102.221 55.901,102.311 55.609,102.355 C55.318,102.4 55.054,102.422 54.819,102.422 L54.819,102.422 Z M54.819,100.564 C55.061,100.564 55.272,100.522 55.453,100.44 C55.634,100.358 55.783,100.215 55.901,100.011 C56.018,99.808 56.108,99.539 56.168,99.206 C56.229,98.873 56.259,98.452 56.259,97.944 L56.259,90.541 C56.259,90.02 56.229,89.585 56.168,89.236 C56.108,88.887 56.019,88.606 55.901,88.393 C55.783,88.18 55.634,88.03 55.453,87.94 C55.272,87.851 55.061,87.807 54.819,87.807 C54.571,87.807 54.356,87.851 54.172,87.94 C53.987,88.029 53.835,88.18 53.714,88.393 C53.593,88.606 53.503,88.887 53.443,89.236 C53.382,89.586 53.352,90.021 53.352,90.541 L53.352,97.944 C53.352,98.452 53.382,98.873 53.443,99.206 C53.503,99.539 53.594,99.808 53.714,100.011 C53.835,100.215 53.987,100.357 54.172,100.44 C54.356,100.523 54.572,100.564 54.819,100.564 L54.819,100.564 Z" fill="#fff"></path>
        <path d="M60.833,86.006 L63.51,86.006 C63.815,86.006 64.15,86.019 64.515,86.044 C64.88,86.07 65.245,86.131 65.611,86.23 C65.977,86.329 66.329,86.476 66.669,86.673 C67.009,86.87 67.311,87.14 67.574,87.483 C67.837,87.826 68.049,88.256 68.207,88.774 C68.365,89.292 68.445,89.919 68.445,90.655 L68.445,91.065 C68.445,92.304 68.267,93.312 67.911,94.09 C67.556,94.868 67.031,95.429 66.339,95.772 L68.949,102.279 L66.339,102.279 L64.176,96.191 L63.252,96.191 L63.252,102.279 L60.832,102.279 L60.832,86.006 L60.833,86.006 Z M63.625,94.41 C64.057,94.41 64.422,94.362 64.721,94.267 C65.019,94.172 65.261,94.012 65.445,93.786 C65.629,93.56 65.762,93.262 65.845,92.89 C65.928,92.518 65.969,92.059 65.969,91.513 L65.969,90.227 C65.969,89.808 65.931,89.446 65.855,89.141 C65.779,88.836 65.65,88.585 65.469,88.388 C65.288,88.191 65.048,88.045 64.75,87.95 C64.452,87.855 64.077,87.807 63.626,87.807 L63.254,87.807 L63.254,94.41 L63.625,94.41 L63.625,94.41 Z" fill="#fff"></path>
        <path d="M70.544,86.006 L73.764,86.006 L75.326,92.304 C75.491,93.003 75.621,93.668 75.717,94.3 C75.812,94.932 75.904,95.528 75.993,96.086 L76.069,96.086 C76.158,95.527 76.25,94.932 76.345,94.3 C76.44,93.668 76.57,93.003 76.736,92.304 L78.346,86.006 L81.5,86.006 L81.5,102.279 L79.194,102.279 L79.194,96.896 C79.194,96.07 79.202,95.276 79.218,94.514 C79.234,93.752 79.254,93.052 79.28,92.413 C79.305,91.775 79.334,91.211 79.366,90.722 C79.398,90.233 79.426,89.846 79.452,89.559 L79.271,89.559 L76.813,100.182 L75.251,100.182 L72.774,89.56 L72.593,89.56 C72.618,89.846 72.647,90.233 72.678,90.723 C72.709,91.213 72.739,91.776 72.764,92.414 C72.789,93.053 72.81,93.753 72.826,94.515 C72.842,95.277 72.85,96.071 72.85,96.897 L72.85,102.28 L70.544,102.28 L70.544,86.006 L70.544,86.006 Z" fill="#fff"></path>
        <path d="M86.074,86.006 L88.913,86.006 L91.923,102.279 L89.427,102.279 L88.979,99.363 L86.006,99.363 L85.577,102.279 L83.072,102.279 L86.074,86.006 L86.074,86.006 Z M88.694,97.506 L87.55,89.399 L87.446,89.399 L86.293,97.506 L88.694,97.506 L88.694,97.506 Z" fill="#fff"></path>
        <path d="M64.528,106.109 L66.436,106.109 C67.171,106.109 67.761,106.321 68.205,106.745 C68.649,107.169 68.871,107.732 68.871,108.433 C68.871,109.377 68.66,110.166 68.239,110.8 C67.818,111.433 67.239,111.821 66.504,111.962 L66.487,112.013 C66.9,112.12 67.235,112.373 67.492,112.772 C67.749,113.17 67.878,113.641 67.878,114.184 C67.878,115.038 67.734,115.793 67.445,116.449 C67.157,117.105 66.738,117.613 66.19,117.971 C65.642,118.33 64.983,118.51 64.214,118.51 L61.907,118.51 L64.528,106.109 L64.528,106.109 Z M64.036,112.412 L62.908,117.713 L64.248,117.713 C65.119,117.713 65.797,117.409 66.284,116.801 C66.77,116.193 67.013,115.366 67.013,114.32 C67.013,113.732 66.868,113.267 66.58,112.925 C66.291,112.583 65.89,112.412 65.375,112.412 L64.036,112.412 L64.036,112.412 Z M64.197,111.615 L65.444,111.615 C65.953,111.615 66.4,111.485 66.784,111.224 C67.169,110.964 67.467,110.598 67.679,110.126 C67.891,109.654 67.997,109.124 67.997,108.535 C67.997,107.987 67.852,107.581 67.564,107.318 C67.275,107.055 66.837,106.923 66.249,106.923 L65.206,106.923 L64.197,111.615 L64.197,111.615 Z" fill="#fff"></path>
        <path d="M73.752,109.129 C73.972,109.129 74.179,109.163 74.371,109.231 L74.15,110.054 C73.981,109.969 73.794,109.927 73.59,109.927 C73.11,109.927 72.663,110.258 72.25,110.92 C71.837,111.582 71.509,112.486 71.266,113.634 L70.223,118.511 L69.426,118.511 L71.368,109.307 L71.962,109.307 L71.716,110.919 L71.75,110.919 C72.248,109.726 72.915,109.129 73.752,109.129 L73.752,109.129 Z" fill="#fff"></path>
        <path d="M76.109,118.68 C74.978,118.68 74.412,117.883 74.412,116.288 C74.412,115.106 74.589,113.935 74.942,112.776 C75.295,111.617 75.754,110.719 76.316,110.083 C76.879,109.447 77.494,109.129 78.161,109.129 C78.919,109.129 79.411,109.553 79.637,110.401 L79.688,110.401 L80.019,109.307 L80.698,109.307 L78.756,118.511 L78.111,118.511 L78.264,117.188 L78.23,117.188 C77.585,118.183 76.878,118.68 76.109,118.68 L76.109,118.68 Z M76.271,117.977 C76.78,117.977 77.255,117.683 77.696,117.095 C78.137,116.507 78.51,115.647 78.816,114.516 C79.122,113.385 79.274,112.319 79.274,111.318 C79.274,110.848 79.174,110.494 78.973,110.253 C78.772,110.013 78.491,109.893 78.129,109.893 C77.631,109.893 77.171,110.18 76.747,110.754 C76.323,111.328 75.966,112.17 75.678,113.277 C75.389,114.385 75.245,115.429 75.245,116.407 C75.245,116.922 75.32,117.312 75.47,117.577 C75.619,117.844 75.886,117.977 76.271,117.977 L76.271,117.977 Z" fill="#fff"></path>
        <path d="M82.866,118.68 C82.549,118.68 82.219,118.64 81.874,118.561 C81.529,118.482 81.294,118.394 81.17,118.298 L81.17,117.365 C81.306,117.501 81.533,117.627 81.853,117.742 C82.173,117.857 82.494,117.916 82.816,117.916 C83.364,117.916 83.792,117.756 84.097,117.437 C84.403,117.118 84.555,116.664 84.555,116.076 C84.555,115.827 84.524,115.6 84.462,115.393 C84.4,115.186 84.319,114.996 84.22,114.82 C84.121,114.644 83.902,114.37 83.563,113.997 C83.195,113.596 82.946,113.291 82.816,113.085 C82.686,112.878 82.584,112.656 82.511,112.419 C82.437,112.181 82.401,111.907 82.401,111.596 C82.401,110.861 82.627,110.265 83.079,109.81 C83.532,109.355 84.117,109.127 84.835,109.127 C85.604,109.127 86.223,109.302 86.692,109.653 L86.259,110.382 C85.858,110.054 85.371,109.89 84.8,109.89 C84.336,109.89 83.953,110.036 83.651,110.327 C83.348,110.618 83.197,111.007 83.197,111.493 C83.197,111.827 83.258,112.129 83.379,112.401 C83.5,112.673 83.731,112.995 84.07,113.368 C84.477,113.809 84.753,114.142 84.897,114.368 C85.041,114.595 85.156,114.841 85.24,115.106 C85.325,115.372 85.367,115.666 85.367,115.988 C85.367,116.847 85.151,117.51 84.718,117.977 C84.287,118.447 83.669,118.68 82.866,118.68 L82.866,118.68 Z" fill="#fff"></path>
        <path d="M87.875,118.511 L87.078,118.511 L89.037,109.307 L89.834,109.307 L87.875,118.511 L87.875,118.511 Z M89.436,107.009 C89.436,106.72 89.501,106.471 89.631,106.262 C89.761,106.053 89.928,105.948 90.131,105.948 C90.397,105.948 90.53,106.112 90.53,106.44 C90.53,106.762 90.468,107.028 90.343,107.237 C90.218,107.446 90.054,107.55 89.851,107.55 C89.574,107.551 89.436,107.371 89.436,107.009 L89.436,107.009 Z" fill="#fff"></path>
        <path d="M91.765,118.511 L90.968,118.511 L93.776,105.312 L94.582,105.312 L91.765,118.511 L91.765,118.511 Z" fill="#fff"></path>
    </g>
</svg>
