<?xml version="1.0" encoding="utf-8"?>
<!-- Generator: Adobe Illustrator 16.0.0, SVG Export Plug-In . SVG Version: 6.00 Build 0)  -->
<!DOCTYPE svg PUBLIC "-//W3C//DTD SVG 1.1//EN" "http://www.w3.org/Graphics/SVG/1.1/DTD/svg11.dtd">
<svg version="1.1" id="Layer_1" xmlns="http://www.w3.org/2000/svg" xmlns:xlink="http://www.w3.org/1999/xlink" x="0px" y="0px"
	 width="120px" height="69.498px" viewBox="0 0 120 69.498" enable-background="new 0 0 120 69.498" xml:space="preserve">
<polygon fill="#9C83BD" points="120,0 0,0 0,52 30,52 30,69.498 43.693,52 120,52 "/>
<g>
	<path fill="#ECF0F0" d="M75.537,32.172c-0.809,0.29-2.407,0.768-4.295,0.768c-2.117,0-3.86-0.54-5.23-1.848
		c-1.203-1.162-1.95-3.029-1.95-5.208c0.021-4.171,2.885-7.222,7.574-7.222c1.619,0,2.885,0.353,3.486,0.643l-0.436,1.474
		c-0.747-0.332-1.681-0.602-3.092-0.602c-3.403,0-5.624,2.116-5.624,5.624c0,3.549,2.138,5.645,5.396,5.645
		c1.183,0,1.992-0.166,2.407-0.374V26.9h-2.843v-1.453h4.606V32.172z"/>
	<path fill="#ECF0F0" d="M90.252,25.655c0,4.814-2.926,7.367-6.495,7.367c-3.694,0-6.288-2.864-6.288-7.098
		c0-4.44,2.76-7.346,6.495-7.346C87.782,18.579,90.252,21.505,90.252,25.655z M79.398,25.884c0,2.988,1.619,5.665,4.462,5.665
		c2.864,0,4.482-2.636,4.482-5.811c0-2.781-1.452-5.686-4.462-5.686C80.893,20.053,79.398,22.812,79.398,25.884z"/>
	<path fill="#ECF0F0" d="M95.669,32.794l-4.565-13.987h1.951l2.179,6.891c0.602,1.888,1.12,3.59,1.494,5.229h0.041
		c0.395-1.618,0.976-3.382,1.599-5.208l2.365-6.911h1.93l-5.001,13.987H95.669z"/>
</g>
<g>
	<g>
		<ellipse fill="#4A586A" cx="26.422" cy="26.267" rx="3.719" ry="3.711"/>
		<path fill="#4A586A" d="M32.913,35.145c2.089-1.523,3.618-3.759,4.23-6.351l8.778-8.536l-0.38-0.054l-8.553,2.937
			c-0.868-2.923-2.919-5.332-5.601-6.685L26.154,6.125L26,6.133v9.158c-3,0.126-5.51,1.342-7.404,3.264L7.255,20.204l8.595,2.987
			c-0.285,0.976-0.45,2.006-0.45,3.075c0,1.683,0.388,3.271,1.065,4.695l-2.029,11.782l5.522-7.58
			c1.817,1.316,4.047,2.101,6.464,2.101c0.201,0,0.395-0.019,0.595-0.028l11.336,5.889l-0.006-0.381L32.913,35.145z M26.422,32.812
			c-3.625,0-6.562-2.932-6.562-6.546c0-3.617,2.938-6.546,6.562-6.546s6.56,2.929,6.56,6.546
			C32.981,29.881,30.047,32.812,26.422,32.812z"/>
	</g>
	<g>
		<path fill="#8474A2" d="M45.542,20.204l-11.269-1.635c1.247,1.264,2.196,2.823,2.716,4.571L45.542,20.204z"/>
		<path fill="#8474A2" d="M26,15.291V6.133l-5.354,10.82C22.212,15.979,24,15.377,26,15.291z"/>
		<path fill="#8474A2" d="M14.436,42.744l0.037-0.218l-0.157,0.218l-0.245,0.381l11.145-5.934c-1.95-0.215-3.748-0.933-5.258-2.027
			L14.436,42.744z"/>
		<path fill="#8474A2" d="M32.913,35.145l2.21,3.091l3.284,4.509l-2.029-11.796C35.587,32.619,34.396,34.061,32.913,35.145z"/>
		<path fill="#8474A2" d="M15.396,26.267c0-1.069,0.16-2.1,0.445-3.075l-8.583-2.982l-0.336,0.049l8.777,8.536
			C15.504,27.981,15.396,27.139,15.396,26.267z"/>
	</g>
</g>
</svg>
