<?xml version="1.0" encoding="utf-8"?>
<!-- Generator: Adobe Illustrator 16.0.0, SVG Export Plug-In . SVG Version: 6.00 Build 0)  -->
<!DOCTYPE svg PUBLIC "-//W3C//DTD SVG 1.1//EN" "http://www.w3.org/Graphics/SVG/1.1/DTD/svg11.dtd">
<svg version="1.1" id="Layer_1" xmlns="http://www.w3.org/2000/svg" xmlns:xlink="http://www.w3.org/1999/xlink" x="0px" y="0px"
	 width="32px" height="32px" viewBox="0 0 32 32" enable-background="new 0 0 32 32" xml:space="preserve">
<g>
	<polygon fill="#E9EEEE" points="23,11.885 16.456,18.428 9,10.974 9,23 23,23 	"/>
	<polygon fill="#E9EEEE" points="22.009,10 10.854,10 16.456,15.6 	"/>
	<path fill="#E9EEEE" d="M5,5v22h22V5H5z M25,25H7V8h18V25z"/>
</g>
</svg>
