<?xml version="1.0" encoding="UTF-8" standalone="no"?>
<svg width="40px" height="38px" viewBox="0 0 40 38" version="1.1" xmlns="http://www.w3.org/2000/svg" xmlns:xlink="http://www.w3.org/1999/xlink">
    <defs></defs>
    <g stroke="none" stroke-width="1" fill="none" fill-rule="evenodd">
        <g>
            <g transform="translate(1.000000, 0.000000)" fill="#4A586A">
                <circle cx="19.4" cy="20.3" r="3.7"></circle>
                <path d="M25.9,29.1 C28,27.6 29.5,25.3 30.1,22.7 L38.9,14.2 L38.5,14.1 L29.9,17 C29,14.1 27,11.7 24.3,10.3 L19.1,0 L18.9,0 L18.9,9.2 C15.9,9.3 13.4,10.5 11.5,12.5 L0.2,14.1 L8.8,17.1 C8.5,18.1 8.3,19.1 8.3,20.2 C8.3,21.9 8.7,23.5 9.4,24.9 L7.4,36.7 L12.9,29.1 C14.7,30.4 16.9,31.2 19.4,31.2 L20,31.2 L31.3,37.1 L31.3,36.7 L25.9,29.1 L25.9,29.1 Z M19.4,26.8 C15.8,26.8 12.8,23.9 12.8,20.3 C12.8,16.7 15.7,13.8 19.4,13.8 C23.1,13.8 26,16.7 26,20.3 C26,23.9 23,26.8 19.4,26.8 L19.4,26.8 Z"></path>
            </g>
            <g fill="#8474A2">
                <path d="M39.5,14.2 L28.2,12.6 C29.4,13.9 30.4,15.4 30.9,17.2 L39.5,14.2 L39.5,14.2 Z"></path>
                <path d="M20,9.3 L20,0.1 L14.6,10.9 C16.2,10 18,9.4 20,9.3 L20,9.3 Z"></path>
                <path d="M8.4,36.7 L8.4,36.5 L8.2,36.7 L8,37.1 L19.1,31.2 C17.1,31 15.4,30.3 13.8,29.2 L8.4,36.7 L8.4,36.7 Z"></path>
                <path d="M26.9,29.1 L29.1,32.2 L32.4,36.7 L30.4,24.9 C29.6,26.6 28.4,28.1 26.9,29.1 L26.9,29.1 Z"></path>
                <path d="M9.4,20.3 C9.4,19.2 9.6,18.2 9.8,17.2 L1.2,14.2 L0.9,14.2 L9.7,22.7 C9.5,22 9.4,21.1 9.4,20.3 L9.4,20.3 Z"></path>
            </g>
        </g>
    </g>
</svg>