<?xml version="1.0" encoding="utf-8"?>
<!-- Generator: Adobe Illustrator 16.0.0, SVG Export Plug-In . SVG Version: 6.00 Build 0)  -->
<!DOCTYPE svg PUBLIC "-//W3C//DTD SVG 1.1//EN" "http://www.w3.org/Graphics/SVG/1.1/DTD/svg11.dtd">
<svg version="1.1" id="Layer_1" xmlns="http://www.w3.org/2000/svg" xmlns:xlink="http://www.w3.org/1999/xlink" x="0px" y="0px"
	 width="20px" height="20px" viewBox="0 0 20 20" enable-background="new 0 0 20 20" xml:space="preserve">
<g>
	<path fill="#4A586A" d="M9.912,0c0.026,0,0.047,0,0.075,0c0.026,0,0.048,0,0.075,0H9.912z"/>
	<path fill="#4A586A" d="M10.062,20c-0.027,0-0.049,0-0.075,0c-0.028,0-0.049,0-0.075,0H10.062z"/>
	<path fill="#4A586A" d="M20,9.934c0,0.027,0,0.049,0,0.076c0,0.025,0,0.048,0,0.076V9.934z"/>
	<path fill="#4A586A" d="M18.088,7.267c-0.123-0.362-0.27-0.713-0.439-1.052l1-1.697c0,0-0.46-0.469-1.584-1.593
		c-1.127-1.127-1.59-1.581-1.59-1.581l-1.693,1.004c-0.346-0.171-0.699-0.322-1.07-0.445l-0.484-1.896c0,0-0.648-0.007-2.239-0.007
		C8.396,0,7.738,0.007,7.738,0.007L7.242,1.918C6.887,2.04,6.543,2.185,6.213,2.349L4.516,1.35c0,0-0.469,0.461-1.593,1.584
		c-1.128,1.127-1.58,1.591-1.58,1.591l1.003,1.692c-0.168,0.339-0.316,0.688-0.438,1.05L0.004,7.761c0,0-0.004,0.657-0.004,2.249
		c0,1.591,0.004,2.239,0.004,2.239l1.905,0.487c0.122,0.36,0.27,0.71,0.437,1.047l-1.003,1.692c0,0,0.452,0.464,1.578,1.589
		s1.595,1.585,1.595,1.585l1.697-0.997c0.33,0.164,0.674,0.308,1.029,0.43l0.496,1.911c0,0,0.657,0.007,2.249,0.007
		c1.591,0,2.239-0.007,2.239-0.007l0.484-1.896c0.369-0.123,0.725-0.274,1.07-0.445l1.693,1.004c0,0,0.461-0.453,1.588-1.578
		c1.124-1.127,1.585-1.595,1.585-1.595l-0.999-1.697c0.168-0.339,0.316-0.688,0.439-1.05l1.904-0.487c0,0,0.008-0.648,0.008-2.239
		c0-1.592-0.008-2.249-0.008-2.249L18.088,7.267z M9.998,14.414c-2.438,0-4.414-1.976-4.414-4.414S7.56,5.586,9.998,5.586
		c2.438,0,4.414,1.976,4.414,4.414S12.436,14.414,9.998,14.414z"/>
	<path fill="#4A586A" d="M0,10.086c0-0.028,0-0.051,0-0.076c0-0.027,0-0.049,0-0.076V10.086z"/>
	<path fill="#4A586A" d="M17.116,17.024c-0.019,0.019-0.034,0.035-0.054,0.054c-0.02,0.018-0.035,0.034-0.055,0.054L17.116,17.024z"
		/>
	<path fill="#4A586A" d="M2.865,2.989c0.021-0.02,0.037-0.036,0.058-0.056C2.94,2.916,2.957,2.901,2.975,2.882L2.865,2.989z"/>
	<path fill="#4A586A" d="M2.975,17.119c-0.018-0.021-0.035-0.035-0.054-0.055s-0.034-0.034-0.053-0.054L2.975,17.119z"/>
	<path fill="#4A586A" d="M17.01,2.869c0.019,0.02,0.035,0.036,0.055,0.056c0.02,0.019,0.033,0.032,0.052,0.052L17.01,2.869z"/>
</g>
</svg>
