<?xml version="1.0" encoding="utf-8"?>
<!-- Generator: Adobe Illustrator 16.0.0, SVG Export Plug-In . SVG Version: 6.00 Build 0)  -->
<!DOCTYPE svg PUBLIC "-//W3C//DTD SVG 1.1//EN" "http://www.w3.org/Graphics/SVG/1.1/DTD/svg11.dtd">
<svg version="1.1" id="Layer_1" xmlns="http://www.w3.org/2000/svg" xmlns:xlink="http://www.w3.org/1999/xlink" x="0px" y="0px"
	 width="32px" height="32px" viewBox="0 0 32 32" enable-background="new 0 0 32 32" xml:space="preserve">
<path fill="#3A4656" d="M8,8v17h17V8H8z M16.229,22.494c-0.677,0-1.193-0.532-1.193-1.258s0.517-1.258,1.193-1.258
	c0.678,0,1.21,0.532,1.21,1.258S16.906,22.494,16.229,22.494z M17.035,18.833h-1.629c-0.339-2.354,2.113-3.274,2.113-4.726
	c0-0.774-0.484-1.29-1.307-1.29c-0.661,0-1.193,0.322-1.661,0.839l-1.032-0.952c0.693-0.822,1.645-1.403,2.822-1.403
	c1.742,0,2.983,0.92,2.983,2.678C19.325,16.026,16.81,16.753,17.035,18.833z"/>
</svg>
