<?xml version="1.0" encoding="utf-8"?>
<!-- Generator: Adobe Illustrator 16.0.0, SVG Export Plug-In . SVG Version: 6.00 Build 0)  -->
<!DOCTYPE svg PUBLIC "-//W3C//DTD SVG 1.1//EN" "http://www.w3.org/Graphics/SVG/1.1/DTD/svg11.dtd">
<svg version="1.1" id="Layer_1" xmlns="http://www.w3.org/2000/svg" xmlns:xlink="http://www.w3.org/1999/xlink" x="0px" y="0px"
	 width="120px" height="69.498px" viewBox="0 0 120 69.498" enable-background="new 0 0 120 69.498" xml:space="preserve">
<polygon fill="#80B9BF" points="120,0 0,0 0,52 30,52 30,69.498 43.693,52 120,52 "/>
<g>
	<path fill="#659497" d="M43.632,27.236c3.836-3.775,3.836-9.915,0-13.691c-1.854-1.828-4.326-2.836-6.957-2.836
		c-2.627,0-5.096,1.008-6.955,2.836c-0.851,0.836-1.857,1.87-2.974,3.035c-0.729-0.833-1.512-1.691-2.721-2.883
		c-3.551-3.491-9.309-3.491-12.856,0.001c-3.547,3.495-3.547,9.155,0,12.647c0.763,0.751,1.859,1.846,3.125,3.118
		c-0.04,0.038-0.082,0.083-0.122,0.122l0.016,0.017c-1.248,1.249-1.242,3.262,0.021,4.501c0.634,0.626,1.466,0.938,2.3,0.938
		c0.117,0,0.234-0.021,0.353-0.034c-0.014,0.115-0.034,0.229-0.034,0.348c0,0.858,0.337,1.66,0.954,2.266
		c0.634,0.623,1.463,0.936,2.3,0.936c0.12,0,0.237-0.021,0.355-0.033c-0.013,0.116-0.035,0.229-0.035,0.35
		c0,0.855,0.341,1.66,0.952,2.264c0.615,0.605,1.431,0.938,2.3,0.938c0.435,0,0.857-0.082,1.248-0.241
		c0.077,0.13,0.142,0.268,0.255,0.378l1.986,1.957c0.732,0.722,1.922,0.722,2.654,0c0.732-0.721,0.732-1.887,0-2.607l-1.989-1.957
		c-0.732-0.721-1.922-0.721-2.651,0c-0.171,0.168-0.294,0.364-0.386,0.57c-0.313,0.265-0.699,0.426-1.117,0.426
		c-0.469,0-0.906-0.181-1.24-0.506c-0.331-0.326-0.512-0.76-0.512-1.221c0-0.459,0.181-0.893,0.51-1.219
		c0.013-0.012,0.028-0.016,0.04-0.027l4.906-4.826c0.291-0.288,0.291-0.756,0-1.045c-0.292-0.287-0.77-0.287-1.061,0l-4.744,4.67
		c-0.083,0.036-0.164,0.084-0.232,0.152c-0.682,0.672-1.797,0.672-2.479,0.001c-0.33-0.326-0.514-0.761-0.514-1.224
		c0-0.459,0.184-0.893,0.514-1.219c0.007-0.007,0.009-0.015,0.016-0.022c0.005-0.003,0.011-0.005,0.017-0.011l4.905-4.824
		c0.289-0.287,0.289-0.754,0-1.044c-0.294-0.287-0.771-0.287-1.061,0l-4.783,4.706c-0.065,0.032-0.132,0.066-0.186,0.12
		c-0.682,0.673-1.799,0.673-2.48,0c-0.685-0.672-0.685-1.767,0-2.44c0.026-0.027,0.039-0.061,0.06-0.092
		c2.651-2.607,5.465-5.544,8.078-8.289c1.056,0.937,2.911,3.17,5.678,3.17c3.499,0,3.952-2.1,3.952-2.1
		c-2.826-2.781-4.191-4.313-5.312-5.604c1.152-1.199,2.191-2.267,3.055-3.119c1.574-1.549,3.669-2.403,5.895-2.403
		c2.228,0,4.32,0.854,5.896,2.403c3.251,3.199,3.251,8.405,0,11.606c-1.781,1.753-2.253,2.241-2.714,2.718
		c-0.196,0.202-0.401,0.415-0.707,0.725l-0.609-0.599c-0.731-0.721-1.917-0.721-2.647,0c-0.732,0.72-0.732,1.888,0,2.608
		l1.986,1.956c0.733,0.72,1.917,0.72,2.65,0c0.732-0.722,0.732-1.889,0-2.608l-0.321-0.315c0.32-0.322,0.532-0.54,0.735-0.748
		C41.397,29.463,41.863,28.979,43.632,27.236z"/>
	<path fill="#659497" d="M31.383,36.092c-0.728-0.722-1.917-0.688-2.646,0.051c-0.735,0.736-0.735,1.836,0,2.56l1.986,1.904
		c0.734,0.722,1.921,0.699,2.651-0.038c0.731-0.554,0.731-1.85,0-2.571L31.383,36.092z"/>
	<path fill="#659497" d="M34.966,32.559c-0.735-0.72-1.919-0.72-2.654,0c-0.729,0.721-0.729,1.888,0,2.609l1.991,1.957
		c0.729,0.719,1.916,0.719,2.649,0c0.732-0.721,0.732-1.889,0-2.609L34.966,32.559z"/>
</g>
<g>
	<path fill="#ECF0F0" d="M78.995,25.655c0,4.814-2.926,7.367-6.495,7.367c-3.694,0-6.288-2.864-6.288-7.098
		c0-4.44,2.76-7.346,6.495-7.346C76.525,18.579,78.995,21.505,78.995,25.655z M68.142,25.884c0,2.988,1.619,5.665,4.462,5.665
		c2.863,0,4.482-2.636,4.482-5.811c0-2.781-1.453-5.686-4.462-5.686C69.636,20.053,68.142,22.812,68.142,25.884z"/>
	<path fill="#ECF0F0" d="M81.342,32.794V18.807h1.972l4.482,7.077c1.037,1.64,1.847,3.112,2.511,4.544l0.041-0.021
		c-0.166-1.867-0.207-3.569-0.207-5.748v-5.853h1.701v13.987h-1.826l-4.44-7.097c-0.976-1.557-1.909-3.154-2.614-4.67l-0.062,0.021
		c0.104,1.764,0.145,3.444,0.145,5.769v5.977H81.342z"/>
	<path fill="#ECF0F0" d="M105.643,32.172c-0.809,0.29-2.407,0.768-4.295,0.768c-2.117,0-3.86-0.54-5.23-1.848
		c-1.203-1.162-1.95-3.029-1.95-5.208c0.021-4.171,2.885-7.222,7.574-7.222c1.619,0,2.885,0.353,3.486,0.643l-0.436,1.474
		c-0.747-0.332-1.681-0.602-3.092-0.602c-3.403,0-5.624,2.116-5.624,5.624c0,3.549,2.138,5.645,5.396,5.645
		c1.183,0,1.992-0.166,2.407-0.374V26.9h-2.843v-1.453h4.606V32.172z"/>
</g>
</svg>
