<?xml version="1.0" encoding="utf-8"?>
<!-- Generator: Adobe Illustrator 16.0.0, SVG Export Plug-In . SVG Version: 6.00 Build 0)  -->
<!DOCTYPE svg PUBLIC "-//W3C//DTD SVG 1.1//EN" "http://www.w3.org/Graphics/SVG/1.1/DTD/svg11.dtd">
<svg version="1.1" id="Layer_1" xmlns="http://www.w3.org/2000/svg" xmlns:xlink="http://www.w3.org/1999/xlink" x="0px" y="0px"
	 width="32px" height="32px" viewBox="-4 -7.072 32 32" enable-background="new -4 -7.072 32 32" xml:space="preserve">
<g>
	<path fill="#E9EEEE" d="M0,15.857c8-1.062,12,2,12,2v-15c0,0-6-4.75-12-2C0,5.482,0,12.419,0,15.857z"/>
	<path fill="#E9EEEE" d="M24,15.857c-7-1.062-11,2-11,2v-15c0,0,5-4.75,11-2C24,5.482,24,12.419,24,15.857z"/>
</g>
</svg>
