<?xml version="1.0" encoding="UTF-8" standalone="no"?>
<svg width="48px" height="30px" viewBox="0 0 48 30" version="1.1" xmlns="http://www.w3.org/2000/svg" xmlns:xlink="http://www.w3.org/1999/xlink">
    <defs></defs>
    <g stroke="none" stroke-width="1" fill="none" fill-rule="evenodd">
        <g>
            <g transform="translate(9.000000, 0.000000)" fill="#A1AE39">
                <ellipse cx="15.9" cy="8.3" rx="7.9" ry="8"></ellipse>
                <path d="M24.7,17 L20.6,17 C19.2,17 17.6,18.2 15.9,18.2 C14.2,18.2 12.6,17 11.2,17 L7.2,17 C3.6,17 0.1,20.2 0.1,23.8 L0.1,23.9 C0.1,27.6 3.6,29 7.2,29 L24.8,29 C28.4,29 31.1,27.5 31.1,23.9 L31.1,23.8 C31,20.2 28.3,17 24.7,17 L24.7,17 Z"></path>
            </g>
            <g transform="translate(0.000000, 5.000000)" fill="#4A586A">
                <path d="M14.6,8 L12.6,8 C13.5,7 14.1,5.8 14.1,4.5 C14.1,2.1 12.1,0 9.7,0 C7.3,0 5.3,2.1 5.3,4.6 C5.3,5.9 5.9,7 6.8,8 L4.9,8 C2.9,8 1,10.8 1,12.9 L1,12.9 C1,14.9 2.9,16 4.9,16 L10.1,16 C11.2,14 13.5,12 16.2,12 L17.9,12 C17.7,10 16.5,8 14.6,8 L14.6,8 Z"></path>
                <path d="M44.8,8 L42.8,8 C43.7,7 44.3,5.8 44.3,4.5 C44.3,2.1 42.3,0 39.9,0 C37.5,0 35.5,2.1 35.5,4.6 C35.5,5.9 36.1,7 37,8 L35.1,8 C33.2,8 31.4,10 31.2,12 L33.7,12 C36.3,12 38.2,14 39.1,16 L44.8,16 C46.8,16 48,14.9 48,12.9 L48,12.9 C48,10.8 46.8,8 44.8,8 L44.8,8 Z"></path>
            </g>
        </g>
    </g>
</svg>