<?xml version="1.0" encoding="UTF-8" standalone="no"?>
<svg width="48px" height="30px" viewBox="0 0 48 30" version="1.1" xmlns="http://www.w3.org/2000/svg" xmlns:xlink="http://www.w3.org/1999/xlink">
    <defs></defs>
    <g stroke="none" stroke-width="1" fill="none" fill-rule="evenodd">
        <g>
            <g fill="#4A586A">
                <path d="M7,19.5 C6.8,19.5 6.7,19.5 6.5,19.4 L5.4,22.2 L6.9,26 L8.5,22.1 L7.4,19.4 C7.2,19.5 7.1,19.5 7,19.5 L7,19.5 Z"></path>
                <path d="M23.6,0.8 L0.3,10 L8.4,13.2 C8.7,12.9 8.9,12.7 9.2,12.4 C11.3,10.7 14.4,9.7 18.4,9.4 C21.4,9.2 23.7,9.4 23.8,9.4 C24.1,9.4 24.4,9.7 24.4,10.1 C24.4,10.4 24,10.7 23.7,10.7 C23.6,10.7 14.5,9.8 10,13.4 C9.9,13.5 9.8,13.6 9.7,13.7 L24,19.4 L47.3,10.2 L23.6,0.8 L23.6,0.8 Z"></path>
            </g>
            <g transform="translate(5.000000, 9.000000)" fill="#B0697A">
                <path d="M18.7,1.7 C19,1.7 19.4,1.5 19.4,1.1 C19.4,0.8 19.2,0.4 18.8,0.4 C18.7,0.4 16.4,0.1 13.4,0.4 C9.4,0.7 6.3,1.7 4.2,3.4 C2.9,4.4 2.1,5.7 1.6,7.2 C0.8,7.3 0.2,8 0.2,8.8 C0.2,9.7 1,10.5 1.9,10.5 C2.8,10.5 3.6,9.8 3.6,8.8 C3.6,8.2 3.3,7.7 2.8,7.4 C3.2,6.2 3.9,5.2 4.9,4.3 C9.6,0.8 18.6,1.7 18.7,1.7 L18.7,1.7 Z"></path>
                <path d="M31.7,5.4 L19.1,10.4 L6.2,5.3 L6.2,15.3 C6.2,18.5 11.9,21 18.9,21 L19.1,21 C26.1,21 31.8,18.5 31.8,15.3 C31.7,15.1 31.7,10.1 31.7,5.4 L31.7,5.4 Z"></path>
            </g>
        </g>
    </g>
</svg>