<?xml version="1.0" encoding="utf-8"?>
<!-- Generator: Adobe Illustrator 16.0.0, SVG Export Plug-In . SVG Version: 6.00 Build 0)  -->
<!DOCTYPE svg PUBLIC "-//W3C//DTD SVG 1.1//EN" "http://www.w3.org/Graphics/SVG/1.1/DTD/svg11.dtd">
<svg version="1.1" id="Layer_1" xmlns="http://www.w3.org/2000/svg" xmlns:xlink="http://www.w3.org/1999/xlink" x="0px" y="0px"
	 width="39.44px" height="32.078px" viewBox="0 0 39.44 32.078" enable-background="new 0 0 39.44 32.078" xml:space="preserve">
<g>
	<g>
		<path fill="#A9B1A7" d="M18.868,15.12c-0.555-1.896-1.122-3.832-1.501-5.125C14.128,16.721,4.234,18.52,4.234,18.52l0.239,0.817
			l1.752,5.979l0.239,0.817c0,0,0.938-0.353,1.897-0.638l1.659,5.664c0.207,0.708,1.108,1.066,1.814,0.859
			c0.707-0.207,1.271-0.995,1.064-1.702l-1.623-5.541c2.97-0.535,7.102-0.658,10.845,1.448c-0.379-1.293-0.946-3.229-1.502-5.126
			C20.62,21.099,19.76,18.162,18.868,15.12z"/>
		<path fill="#A9B1A7" d="M0.376,22.752c-0.365,0.165-0.454,0.611-0.311,1.101c0.152,0.521,0.467,0.885,0.887,0.771
			c0.891,1.562,2.645,2.391,4.564,1.829l-2.343-7.995C1.255,19.02,0.148,20.836,0.376,22.752z"/>
		<path fill="#A9B1A7" d="M22.958,18.409c0.937-0.361,0.594-0.781,0.423-1.365c-0.171-0.583-0.109-1.122-1.092-0.92l-2.075-7.082
			c-0.12-0.411-0.324-0.222-0.734-0.102l-0.223,0.064c-0.41,0.121-1.082,0.188-0.962,0.599l4.819,16.45
			c0.12,0.411,0.793,0.346,1.203,0.226l0.222-0.065c0.411-0.12,0.614-0.312,0.494-0.722L22.958,18.409z"/>
		<path fill="#A9B1A7" d="M27.483,7.558l-1.039,1.899c0.967,1.273,1.732,2.729,2.208,4.351c0.566,1.936,0.665,3.896,0.385,5.771
			l1.856,1.015c0.47-2.367,0.402-4.875-0.322-7.348C29.938,11.082,28.861,9.169,27.483,7.558z"/>
		<path fill="#A9B1A7" d="M29.653,3.59l-1.01,1.846c1.861,1.975,3.308,4.391,4.121,7.168c0.902,3.081,0.916,6.212,0.214,9.13
			l1.803,0.986c0.915-3.395,0.961-7.064-0.098-10.679C33.714,8.729,31.944,5.865,29.653,3.59z"/>
		<path fill="#A9B1A7" d="M38.481,10.929C37.202,6.562,34.771,2.843,31.616,0l-0.99,1.81c2.717,2.561,4.812,5.848,5.936,9.682
			c1.212,4.135,1.127,8.344-0.004,12.199l1.795,0.982C39.708,20.349,39.848,15.594,38.481,10.929z"/>
	</g>
</g>
</svg>
