<?xml version="1.0" encoding="UTF-8" standalone="no"?>
<svg width="39px" height="35px" viewBox="0 0 39 35" version="1.1" xmlns="http://www.w3.org/2000/svg" xmlns:xlink="http://www.w3.org/1999/xlink">
    <defs></defs>
    <g stroke="none" stroke-width="1" fill="none" fill-rule="evenodd">
        <g fill="#659497">
            <path d="M35.6,17.2 C39.4,13.4 39.4,7.3 35.6,3.5 C33.7,1.7 31.3,0.7 28.6,0.7 C26,0.7 23.5,1.7 21.6,3.5 C20.7,4.3 19.7,5.4 18.6,6.5 C17.9,5.7 17.1,4.8 15.9,3.6 C12.3,0.1 6.6,0.1 3,3.6 C-0.5,7.1 -0.5,12.8 3,16.2 C3.8,17 4.9,18 6.1,19.3 L6,19.4 L6,19.4 C4.8,20.6 4.8,22.7 6,23.9 C6.6,24.5 7.5,24.8 8.3,24.8 L8.7,24.8 L8.7,25.1 C8.7,26 9,26.8 9.7,27.4 C10.3,28 11.2,28.3 12,28.3 L12.4,28.3 L12.4,28.6 C12.4,29.5 12.7,30.3 13.4,30.9 C14,31.5 14.8,31.8 15.7,31.8 C16.1,31.8 16.6,31.7 16.9,31.6 C17,31.7 17,31.9 17.2,32 L19.2,34 C19.9,34.7 21.1,34.7 21.9,34 C22.6,33.3 22.6,32.1 21.9,31.4 L19.9,29.4 C19.2,28.7 18,28.7 17.2,29.4 C17,29.6 16.9,29.8 16.8,30 C16.5,30.3 16.1,30.4 15.7,30.4 C15.2,30.4 14.8,30.2 14.5,29.9 C14.2,29.6 14,29.1 14,28.7 C14,28.2 14.2,27.8 14.5,27.5 L14.5,27.5 L19.4,22.7 C19.7,22.4 19.7,21.9 19.4,21.7 C19.1,21.4 18.6,21.4 18.3,21.7 L13.6,26.4 C13.5,26.4 13.4,26.5 13.4,26.6 C12.7,27.3 11.6,27.3 10.9,26.6 C10.6,26.3 10.4,25.8 10.4,25.4 C10.4,24.9 10.6,24.5 10.9,24.2 L10.9,24.2 L15.8,19.4 C16.1,19.1 16.1,18.6 15.8,18.4 C15.5,18.1 15,18.1 14.7,18.4 L9.9,23.1 C9.8,23.1 9.8,23.2 9.7,23.2 C9,23.9 7.9,23.9 7.2,23.2 C6.5,22.5 6.5,21.4 7.2,20.8 C7.2,20.8 7.2,20.7 7.3,20.7 C10,18.1 12.8,15.2 15.4,12.4 C16.5,13.3 18.3,15.6 21.1,15.6 C24.6,15.6 25.1,13.5 25.1,13.5 C22.3,10.7 20.9,9.2 19.8,7.9 C21,6.7 22,5.6 22.9,4.8 C24.5,3.3 26.6,2.4 28.8,2.4 C31,2.4 33.1,3.3 34.7,4.8 C38,8 38,13.2 34.7,16.4 C32.9,18.2 32.4,18.6 32,19.1 C31.8,19.3 31.6,19.5 31.3,19.8 L30.7,19.2 C30,18.5 28.8,18.5 28.1,19.2 C27.4,19.9 27.4,21.1 28.1,21.8 L30.1,23.8 C30.8,24.5 32,24.5 32.8,23.8 C33.5,23.1 33.5,21.9 32.8,21.2 L32.5,20.9 C32.8,20.6 33,20.4 33.2,20.2 C33.4,19.5 33.9,19 35.6,17.2 L35.6,17.2 Z"></path>
            <path d="M23.4,26.1 C22.7,25.4 21.5,25.4 20.8,26.2 C20.1,26.9 20.1,28 20.8,28.8 L22.8,30.7 C23.5,31.4 24.7,31.4 25.5,30.7 C26.2,30.1 26.2,28.9 25.5,28.1 L23.4,26.1 L23.4,26.1 Z"></path>
            <path d="M27,22.6 C26.3,21.9 25.1,21.9 24.3,22.6 C23.6,23.3 23.6,24.5 24.3,25.2 L26.3,27.2 C27,27.9 28.2,27.9 28.9,27.2 C29.6,26.5 29.6,25.3 28.9,24.6 L27,22.6 L27,22.6 Z"></path>
        </g>
    </g>
</svg>