<?xml version="1.0" encoding="utf-8"?>
<!-- Generator: Adobe Illustrator 16.0.0, SVG Export Plug-In . SVG Version: 6.00 Build 0)  -->
<!DOCTYPE svg PUBLIC "-//W3C//DTD SVG 1.1//EN" "http://www.w3.org/Graphics/SVG/1.1/DTD/svg11.dtd">
<svg version="1.1" id="Layer_1" xmlns="http://www.w3.org/2000/svg" xmlns:xlink="http://www.w3.org/1999/xlink" x="0px" y="0px"
	 width="16.184px" height="17.743px" viewBox="0 0 16.184 17.743" enable-background="new 0 0 16.184 17.743" xml:space="preserve">
<g>
	<path id="Distrito_Federal" fill="#E8ECEC" d="M13.738,9.001V8.993l0.014-0.02l0.028-0.008l0.007-0.014l0.021-0.028h0.007
		l0.008-0.014l-0.008-0.028l-0.007-0.014l-0.014,0.007L13.78,8.868V8.847l0.007-0.027l0.007-0.021l0.014-0.021h0.015V8.665V8.651
		h0.153h0.021h0.265h0.12h0.097h0.069h0.084V8.7h0.015l0.014,0.021h0.008v0.008l0.006,0.007h0.028l0.021,0.007h0.007l0.007,0.007
		L14.73,8.756l-0.014,0.035l0.007,0.015v0.014v0.015L14.717,8.84l0.007,0.007h0.007l0.007,0.007v0.015L14.73,8.882v0.014
		l0.007,0.008V8.91H14.73v0.014V8.917v0.007l-0.007,0.007v0.007v0.008h-0.007L14.71,8.966l-0.008,0.008v0.006h-0.007v0.014h-0.007
		l-0.007,0.008v0.007v0.007v0.007v0.007l-0.008,0.007h0.008v0.008l-0.008,0.014h-0.006h0.006V9.07l0.008,0.008l-0.008,0.007h0.015
		l-0.007,0.007v0.007h0.007v0.007v0.007h-0.015l0.008,0.008v0.006v0.008h-0.008v0.007v0.007v0.015v0.006v0.008h0.008v0.007h0.007
		v0.007h0.014v0.007h0.008v0.007l0.007-0.007l0.007,0.014h0.007v0.008h0.014l-0.007,0.006h0.007v0.008h-0.321h-0.063l-0.14,0.007
		h-0.126h-0.083h-0.014H13.94h-0.195V9.231l0.007-0.021V9.189l0.007-0.014l0.007-0.021l-0.007-0.007l0.015-0.014V9.12V9.112
		l-0.015-0.007l-0.007,0.007l-0.007-0.007V9.099h0.007V9.085h-0.007V9.07V9.063l0.007-0.007L13.745,9.05l-0.007-0.035V9.001z"/>
	<g>
		<path id="Goiás" fill="#E8ECEC" d="M8.637,10.776v-0.008l0.008-0.014v-0.007l0.006-0.014v0.007v-0.007v-0.008v-0.014H8.645
			l0.006-0.007l-0.006-0.008l0.006-0.007l0.008-0.007v-0.007h0.007v-0.007h0.007v-0.007H8.665l0.007-0.007v-0.008v0.008l0.007-0.008
			v-0.014H8.672h0.007l0.007-0.007H8.672v-0.007v-0.007h0.007v-0.008H8.672l0.007-0.006l-0.007-0.008l-0.014-0.007h0.007V10.58
			l0.007-0.007H8.665v-0.008l-0.007,0.008v-0.008V10.56l0.014-0.008v-0.007l0.014-0.007l-0.007-0.021h0.014l0.007-0.014l0.008-0.008
			v-0.021h0.006v-0.007v-0.007l0.008-0.021v-0.015l0.008-0.006l0.006,0.006l0.008-0.014l0.007-0.006v-0.008h0.007l0.006-0.021V10.37
			v-0.007l0.008-0.007h0.007h0.007L8.776,10.35h0.007h0.008v-0.007h0.007l-0.007-0.008h0.013l-0.006-0.006h0.006l0.008,0.006v-0.014
			v0.008v-0.008h0.007l0.007-0.006v-0.009l-0.007-0.006v0.006v-0.006v-0.008H8.812v-0.006h0.007l-0.007-0.014h0.007v-0.009h0.007
			l-0.007-0.006h0.007v-0.007v-0.007l0.007-0.008l-0.007-0.006v-0.028h0.007v0.007l0.008-0.015v-0.006l0.006-0.007v-0.008v-0.007
			v-0.007v-0.014h0.008V10.14H8.86l0.007-0.007v-0.014h0.007l-0.007-0.007v-0.015l0.007-0.006v0.006l0.008-0.006l0.007,0.006h0.007
			h0.014l0.007,0.008l0.008-0.008v-0.006l0.006,0.006v-0.006v-0.008h0.007v0.008h0.008l-0.008-0.015H8.93h0.029v-0.008H8.951
			l0.008-0.014l-0.015-0.014h0.007v-0.007h0.008v0.014h0.007l0.007-0.007h0.007v-0.014l0.014-0.008L9,10.015H8.993l0.015-0.008
			h0.013l0.007-0.014L9.035,10l0.007-0.007h0.007V10h0.008V9.986h0.006l0.021-0.021L9.09,9.973l0.008-0.008h0.007V9.951V9.944
			l0.008-0.014h0.014V9.902l0.007-0.008H9.119V9.889l0.014-0.008l0.014-0.006l0.008,0.006L9.141,9.86l0.006-0.008l0.008-0.006
			l0.007,0.006l0.007,0.015L9.174,9.86L9.168,9.832H9.154V9.825l0.007-0.007L9.154,9.805h0.007h0.007l0.021,0.014L9.183,9.791h0.006
			l0.015,0.014h0.014l0.007-0.008L9.217,9.783H9.23L9.224,9.777V9.763H9.23l0.014,0.015V9.763L9.258,9.77V9.755l0.008-0.007V9.734
			V9.728H9.258V9.714h0.016h0.006l0.008-0.015V9.692V9.686L9.279,9.679l0.015-0.007L9.279,9.664L9.273,9.672V9.664l0.006-0.006
			L9.258,9.645L9.252,9.637V9.622V9.616H9.244H9.217L9.203,9.603V9.595l0.014-0.007L9.203,9.574V9.561V9.553L9.21,9.546V9.532V9.524
			L9.203,9.519L9.21,9.504h0.007V9.49l0.021-0.014h0.006v0.006h0.014h0.016l0.014-0.014h0.021V9.462l0.007-0.014h0.007l0.015,0.014
			h0.006H9.35V9.455L9.328,9.427V9.42h0.014H9.35V9.385l0.008-0.014L9.35,9.357L9.371,9.35V9.329l0.014-0.007l0.014,0.007h0.007
			l0.007-0.007l0.015-0.007H9.44l0.021-0.014L9.503,9.28l0.021,0.007L9.531,9.28l0.007-0.007l0.007-0.008l0.008,0.008L9.573,9.26
			V9.252L9.58,9.231V9.224L9.588,9.21l0.007-0.021l0.014-0.014l0.007-0.008V9.147l0.027-0.021V9.112H9.65l0.006-0.027L9.65,9.063
			h0.021h0.028l0.014-0.007l0.07,0.014l0.021-0.014l0.007,0.007l0.007-0.007h0.015l0.021,0.007l0.05-0.007L9.916,9.05L9.93,9.015
			l0.014-0.007l0.014,0.007V9.008V8.993l0.008-0.014h0.042l0.021,0.021l0.007-0.008l0.007-0.02l0.021-0.021l0.008-0.015l0.021-0.034
			l0.028-0.014V8.875l0.035-0.063l0.007-0.006l0.007-0.021V8.771l-0.021-0.056L10.14,8.693h0.006V8.687h0.015l0.007,0.021h0.015
			h0.014V8.693l-0.008-0.021V8.665l0.008-0.014l0.021-0.007l0.007-0.007V8.631V8.623l-0.007-0.021l0.015-0.021V8.574l-0.008-0.014
			V8.554l0.028-0.042V8.498l-0.014-0.015V8.449l0.007-0.021l0.014-0.007l0.021-0.015V8.399l-0.015-0.007l-0.007-0.014V8.358
			l0.014-0.021V8.309l0.021-0.014h0.027l0.008-0.007l0.021-0.05l0.028-0.006l0.014-0.035l0.014-0.014l0.008-0.007l0.042,0.007
			l0.014-0.015l0.007-0.014h0.014l0.014-0.028L10.53,8.12l0.021,0.015l0.021-0.015l0.014-0.014l0.008-0.015h0.014l0.021,0.015
			l0.007,0.035l0.007,0.014l0.021,0.007l0.028-0.007l0.049-0.028L10.789,8.1V8.078l0.014-0.021h0.008l0.041-0.028h0.008V8.022
			l-0.015-0.015l0.007-0.021V7.974V7.952l0.021-0.034l0.021-0.014L10.9,7.89l-0.014-0.021V7.848l0.008-0.007L10.9,7.827l0.008-0.007
			l0.006-0.015V7.799l-0.006-0.021l0.006-0.014h0.008l0.027-0.056l-0.006-0.034l0.034-0.057L10.971,7.59l0.007-0.021l-0.007-0.015
			L10.957,7.54V7.526l-0.014-0.021l0.006-0.014l0.008-0.015V7.471l-0.008-0.028l0.015-0.007l0.007-0.021l-0.007-0.036l0.007-0.014
			l0.014-0.042l0.021-0.042l0.014-0.027l0.014-0.014V7.219l-0.006-0.027V7.178h0.006h0.007l0.015,0.014h0.021l0.028-0.021
			l0.008-0.014l0.006-0.021l-0.021-0.048V7.059l-0.014-0.021V7.017l0.021-0.021V6.98V6.953V6.939V6.933V6.911V6.905l-0.015-0.028
			l0.008-0.021l-0.008-0.014l0.008-0.035l-0.021-0.028l0.008-0.014l0.006-0.008h0.008l0.015-0.007l0.013,0.007l0.021-0.027
			l0.014-0.041l0.008-0.036l0.014-0.02l0.007-0.07l0.021-0.028l0.028-0.014l0.021-0.021l0.014-0.028l0.014-0.007l0.007-0.014
			l-0.007-0.028V6.394l0.021-0.014l0.007-0.014l0.016-0.014l0.014-0.021l0.006-0.008V6.29l0.008-0.008l0.014-0.021V6.233V6.22
			l-0.014-0.014h-0.008l0.008-0.015l0.006-0.014l-0.006-0.028l0.006-0.034V6.101l-0.006-0.007l-0.014-0.028l0.006-0.007l0.028-0.007
			l0.007-0.014V6.031l-0.014-0.008l-0.008-0.02l0.015-0.009l0.014,0.009h0.008l0.014-0.022l0.021-0.006V5.934l0.008-0.021
			l0.006-0.021l0.008-0.015V5.863L11.445,5.85l0.014-0.021l0.008-0.014l-0.008-0.008L11.467,5.8h0.007l-0.007-0.027l0.007-0.015
			h0.007V5.745l0.008-0.008h-0.015V5.73V5.724l0.015-0.007l0.007-0.008l-0.007-0.006L11.48,5.695V5.688l0.015-0.007V5.675h0.021
			h0.008l0.006-0.008l-0.006-0.014l0.006-0.007l-0.006-0.008l0.006-0.006V5.626h-0.006v0.007h-0.008l0.014-0.015l0.014,0.008
			l0.008-0.008l-0.008-0.021l0.008-0.007l0.015-0.007l0.007-0.007h-0.007l0.007-0.015l0.007-0.014h0.014V5.542V5.528L11.6,5.521
			l-0.007-0.007H11.6h0.014V5.507V5.5l0.016,0.007L11.635,5.5l-0.006-0.014h0.006l0.014,0.006V5.486l-0.007-0.008V5.472l0.007-0.007
			l0.028-0.015V5.444h0.021h0.007l0.008-0.021h0.021l0.007-0.015h0.021l-0.014-0.006h0.007l0.015-0.008h0.014V5.388l-0.014-0.007
			V5.374h0.006v0.007l0.008,0.007h0.007l0.008-0.007V5.366l0.027-0.014L11.81,5.374v0.021h-0.007v0.008h-0.015v0.006l-0.007,0.008
			l-0.014,0.007L11.76,5.43v0.015L11.753,5.45h-0.007v0.036L11.732,5.5l0.007,0.014l0.014,0.007v0.015l0.007-0.007V5.521
			l0.008,0.008l0.006,0.007H11.76v0.007l-0.021,0.014h-0.007V5.549h-0.007l-0.008,0.021l0.008,0.028l-0.008,0.007l-0.006-0.007
			l-0.008,0.014v0.007l-0.007,0.015v0.006L11.69,5.653l0.007,0.008H11.69l-0.007-0.008v0.014l-0.007-0.006H11.67v0.006V5.661V5.653
			l-0.008,0.008l0.008,0.014v0.007l-0.008,0.007l0.015,0.007v0.021l-0.015,0.007h0.008L11.662,5.73l0.008,0.007l-0.014,0.014
			l0.006,0.015l-0.006,0.007l-0.008,0.014l0.008,0.007v0.014h0.006v0.008h0.008v0.014l0.007-0.007v0.007h0.007l0.007,0.007V5.828
			l0.014,0.007h-0.007h0.015v0.007h0.014V5.85l0.007-0.008V5.85h0.007v0.014l0.014,0.007V5.863l0.007,0.014h0.008v0.008l0.014,0.007
			V5.885h0.007l0.008,0.007l0.014-0.007l0.007,0.007l0.028,0.007l0.013,0.007l0.008-0.007h0.028L11.9,5.912h0.021l0.007,0.014h0.008
			l0.021-0.007l0.014,0.007l0.014,0.014l0.006-0.006l0.028,0.021h0.014l0.021,0.007h0.007l0.008,0.007l0.307,0.182l0.147,0.084
			l0.097,0.057l0.028-0.021V6.255V6.248l-0.007-0.021l0.007-0.014l-0.007-0.015l0.007-0.014l-0.014-0.021l0.007-0.015l0.007-0.014
			V6.121l-0.014-0.006V6.107l0.021-0.042l0.014-0.014l0.021-0.028l0.021-0.034h0.007V5.976h-0.007V5.968l0.014-0.028l0.007-0.006
			h0.008V5.926l0.006-0.014V5.892l0.015-0.007V5.877l0.007-0.007l0.007-0.007L12.78,5.87l0.008-0.007l0.014-0.007V5.842l0.007-0.007
			l0.021-0.014l0.014-0.015h0.007l0.007-0.021l0.021-0.014l0.014,0.049h0.007l0.015,0.014h0.021l-0.007,0.007V5.85v0.007
			L12.914,5.87l0.006,0.007h-0.006v0.008l0.006,0.014h0.028v0.007h0.007l0.015-0.007h0.007l0.007,0.007l0.007,0.007l0.007,0.014
			l0.021,0.014l0.008,0.015l0.098-0.147L13.13,5.8h0.007L13.13,5.793l0.007-0.007l0.008,0.007h0.007h0.007v0.014l0.007,0.008
			l-0.007,0.014l0.007,0.007h0.007V5.828l0.007,0.007h0.007v0.007l0.008,0.008v0.007h0.006l0.008,0.007h0.008v0.014h0.006V5.87
			l0.021,0.021l0.006,0.007h0.008l0.007,0.014h0.007l0.008,0.014L13.27,5.939l0.008,0.015v0.014v0.021h0.007l0.006,0.015
			l0.008-0.009l0.007,0.009V5.995h0.014v0.009h0.008V5.989h0.006l0.008,0.015l0.007-0.009l0.007,0.009V6.01h0.007h0.014v0.008v0.014
			l0.008,0.021h0.014l0.007,0.007h0.008v0.007v0.014h0.006v0.008l0.008,0.014l-0.008,0.007h0.015l0.007,0.021l-0.007,0.007v0.014
			h-0.007v0.008h-0.008l0.008,0.007v0.014l0.014,0.007l-0.007,0.007l0.007,0.007h-0.007V6.22v0.014l-0.015,0.015H13.41l0.006,0.014
			l0.008,0.007v0.007l-0.008,0.021L13.41,6.311l0.021,0.021h0.007h0.007l0.015-0.015V6.296L13.451,6.29l0.008-0.021V6.248
			l0.006-0.008l-0.006-0.007V6.213l0.014-0.007l0.014-0.008V6.191l0.008-0.014V6.149l0.014-0.014l0.014,0.007l0.006,0.007h0.008
			V6.136l0.008,0.007v0.007l0.006,0.021h-0.006v0.007v0.007v0.014l-0.008,0.008l0.008,0.007V6.22v0.007v0.007v0.015h0.006v0.007
			l0.015,0.007h-0.007v0.007l0.007,0.007h-0.007v0.021h0.014l0.007,0.015l0.007-0.007V6.296V6.29l0.007-0.008l0.007,0.008
			l0.015-0.008h0.007h0.008l0.006-0.007v0.007l0.007-0.014h0.007V6.262h0.008l0.007-0.007h0.008l0.006,0.007h0.008l-0.008-0.007
			l0.008-0.007L13.675,6.24h0.014h0.008h0.007v0.008h0.008h0.006V6.24h-0.006h0.006h-0.006l0.02-0.007V6.227V6.213h0.008h0.007
			V6.206V6.22l0.007-0.007h0.007V6.206h0.015l0.007-0.008V6.191h0.007l0.007-0.014l0.007,0.007l0.007-0.007l0.007,0.007l0.014-0.007
			V6.171l0.008-0.007h0.008l0.006-0.007l0.015,0.007h0.007l0.006-0.007v0.007l-0.006,0.007v0.014l-0.007,0.007v0.007v0.008v0.007
			V6.22l0.007,0.014L13.864,6.24l-0.008,0.008v0.007l0.008,0.007h0.007v0.034l-0.015,0.021v0.007l0.008-0.007l0.007,0.007V6.317
			l0.006,0.007l0.008-0.007l0.021-0.007V6.304l0.006,0.007l0.007-0.007l0.009,0.007l0.006-0.007h0.014V6.296V6.29V6.282h0.008
			l-0.008-0.027l0.008-0.007v0.007l0.014-0.007v0.007l0.007-0.007v0.007v0.007v0.007h0.021l0.006,0.007l-0.006,0.007V6.29
			l0.006-0.008l0.008,0.014l0.021-0.006h0.014l0.008,0.021l0.006,0.007v0.007l0.008,0.008l0.007-0.008h0.008h0.007l0.006-0.021
			l0.008,0.007h0.007h0.007v0.007V6.311h0.008l0.006,0.007v0.015h0.008l0.006-0.008v0.008l0.008,0.006h0.014l0.008-0.006
			l0.021,0.006l0.021-0.006l0.021,0.014v0.007l0.125,0.14l0.008-0.021l0.006-0.014l0.009-0.007l0.006-0.015l0.008-0.007l0.007-0.014
			h0.007l0.007-0.007V6.388h-0.014l-0.015-0.014V6.359l-0.006-0.021l0.006-0.006l-0.006-0.015V6.311V6.29h0.006l0.015-0.015
			l-0.007-0.014V6.255l-0.014-0.007l0.006-0.008V6.233l-0.015-0.007V6.22h0.009l-0.009-0.007l0.009-0.007h-0.009l0.009-0.008
			l0.006-0.014l-0.021-0.007l0.015-0.007l0.006-0.007V6.157h0.008V6.149V6.143l-0.008-0.007h0.008V6.129l0.007-0.008l0.007-0.014
			l0.007,0.008l0.007-0.008l0.028,0.014h0.021l0.006,0.008l-0.006,0.028l0.006,0.034L14.5,6.198l0.014-0.007h0.007l0.015,0.007
			h0.006l0.015-0.007h0.014L14.556,6.22v0.014l0.028,0.007l0.014-0.007l0.014,0.007l0.007,0.008l-0.021,0.007L14.59,6.262
			l0.021,0.021v0.014l0.007,0.008h0.008l0.006-0.021l0.022-0.007V6.262l0.006-0.007h0.008l0.006-0.015l0.008,0.008l0.014,0.014
			h0.015l0.021,0.007l0.007-0.007h0.021v0.007h0.008l-0.008,0.007h0.014l0.008-0.014h0.008V6.248h0.014l0.006-0.008L14.801,6.22
			l0.021-0.007V6.206h0.007h0.008l0.006-0.008l0.014,0.008l0.015-0.008l0.007,0.008L14.87,6.213l0.015,0.007l0.006-0.007
			l0.015,0.007l0.014-0.007V6.198h-0.007l0.014-0.014h0.015l0.006-0.007v0.014h0.008V6.185l0.006-0.007l0.008,0.007v0.007
			l0.007-0.007V6.178V6.171h0.015V6.164l0.007,0.007l0.014-0.007l0.007-0.007h0.008l0.014-0.008h0.014V6.136V6.129h0.007h0.007
			h0.007v0.007h0.008V6.129l0.014-0.014h0.014l0.008-0.015l0.021-0.007V6.087l0.014-0.014l0.015-0.008l0.006-0.014h0.016v0.007
			v0.007l0.006-0.007v0.007v0.008l0.021-0.008V6.059V6.052h0.006V6.045l0.008-0.014h0.007V6.018l0.014-0.008L15.24,6.004h0.007
			l0.07-0.043l0.118,0.007h0.161h0.028V5.939l0.007-0.006l0.007-0.008h0.007l0.014-0.119l0.008,0.008v0.014v0.007h0.007l0.007,0.007
			l0.014-0.007l0.007,0.007V5.835V5.85l0.014,0.007L15.709,5.87h0.006l-0.006,0.007l0.006,0.008l-0.006,0.007l0.006,0.007v0.007
			v0.021l-0.006,0.008v0.006v0.015l-0.008,0.007l0.008,0.007l-0.008,0.014l0.014,0.008l0.029-0.008V5.976h0.027l0.021-0.008
			l0.006-0.007l0.008,0.007l0.035-0.014v0.007l0.021-0.007h0.028l0.007-0.007l0.007-0.008V5.934l0.021-0.008l0.014,0.008
			l0.027-0.015l0.007-0.007v0.014L15.96,5.954l-0.014,0.007l-0.015,0.015h-0.014l-0.007,0.006l-0.021,0.008l-0.007,0.006h-0.008
			l-0.007,0.009h-0.007l-0.014-0.009h-0.007h-0.008l-0.007,0.009L15.807,6.01v0.014l-0.008,0.008v0.007v0.007l-0.006,0.007
			l-0.008,0.014l-0.007,0.014l-0.021,0.021l0.007,0.015l0.007,0.014h0.007l0.007,0.007v0.021l-0.014,0.007l0.007,0.014l-0.014,0.007
			l0.007,0.007h0.007v0.015v0.007L15.765,6.22v0.014l-0.007,0.021l-0.007,0.007v0.007h0.027v0.014v0.014l-0.014,0.021l0.021,0.015
			h0.008v0.014l0.006,0.021h0.008h0.008l0.027-0.014l0.021-0.021l0.014,0.006l0.035-0.006l0.042-0.028l0.007-0.008h0.014
			l0.015-0.006l0.035-0.015l0.014,0.007l0.007,0.008v0.006l-0.007,0.028l-0.035,0.021l-0.014,0.007L15.974,6.38L15.96,6.388
			l-0.007,0.006l-0.021,0.008l-0.021,0.007l-0.021,0.007l-0.021,0.007l-0.007,0.014L15.842,6.45v0.007v0.007l0.014-0.007
			l0.007,0.014l0.014,0.021v0.007l-0.021,0.007v0.008h0.007v0.014l-0.007,0.014l-0.014,0.014l0.007,0.014l-0.007,0.015l0.007,0.014
			l0.007,0.008l0.007-0.008l0.007,0.008l0.028-0.008l0.021,0.021l0.008,0.007l-0.028,0.027l-0.028,0.014l-0.007,0.015h-0.007
			l-0.014,0.014l-0.015,0.028L15.82,6.729l0.007,0.007l0.015,0.007l0.007,0.007v0.007h-0.007l-0.027,0.021v0.008l0.013,0.007
			l0.021-0.007l0.014,0.027L15.855,6.82l-0.049,0.014l-0.008,0.008l0.021,0.014l-0.006,0.014v0.008h0.02l0.015,0.014v0.007v0.008
			L15.82,6.953V6.98l-0.006,0.022l0.034,0.021l0.014,0.007l0.007,0.007l-0.007,0.021l0.014,0.014l-0.007,0.006l-0.014,0.029
			l-0.021,0.014h0.008h0.007l0.007,0.014l-0.014,0.021h-0.008l-0.007-0.008l-0.013,0.015l0.013,0.007h0.021l0.021,0.014h0.015v0.008
			v0.021l0.014,0.007l0.034,0.007l0.021-0.007l0.014,0.007l0.007,0.015l-0.007,0.021h0.021v0.015h0.007l0.015-0.008l0.014-0.007
			l0.014,0.015l-0.014,0.027l0.021,0.015h0.015l0.006,0.014v0.006h0.008l0.007-0.006h0.014L16.1,7.337l-0.007,0.014h0.021
			l0.014,0.008L16.135,7.4l0.008,0.007l0.006,0.014l0.015,0.008h0.014l0.007,0.007l-0.007,0.014v0.008L16.17,7.463l-0.007,0.008
			v0.021l-0.007,0.007h-0.014l-0.016,0.014h-0.006L16.113,7.52l-0.021-0.007l-0.014-0.021l-0.007,0.007v0.007h0.007v0.007
			l0.007,0.007v0.014L16.079,7.54l-0.007,0.014l0.007,0.008l0.014,0.014v0.007V7.59l-0.007,0.006h0.007l-0.007,0.008l0.007,0.007
			l0.014,0.013l0.007,0.009l-0.007,0.006l-0.014-0.006L16.1,7.646h-0.007L16.1,7.652v0.007h-0.007H16.1l0.007,0.007L16.1,7.688
			l-0.014,0.006l0.021,0.021v0.007l-0.014,0.015L16.1,7.743v0.014l-0.014,0.007h-0.007V7.757v0.007h-0.015v0.008v0.006l-0.006,0.008
			l0.006,0.007l0.015,0.014h0.007v0.008v0.021h-0.007v0.014v0.021v0.007v0.007v0.021L16.072,7.91l-0.008,0.008v0.007l-0.013,0.007
			l-0.015,0.007v0.007h0.007l0.015,0.021l-0.007,0.021h-0.008l-0.007,0.015l-0.014,0.021L16.01,8.016l-0.008,0.028L15.995,8.05
			h-0.014h-0.008l-0.007-0.014h-0.014l-0.007,0.008h-0.007l-0.014-0.015V8.022h-0.008l0.008,0.021l-0.021,0.021L15.876,8.05h-0.007
			v0.008h-0.014l-0.007-0.021h-0.015L15.82,8.044h-0.027l-0.008-0.008V8.022h-0.014l-0.007-0.007h-0.007l0.007-0.014V7.994
			l0.007-0.007l0.007-0.021h-0.014L15.758,7.96V7.945V7.925h-0.014V7.91l-0.021-0.006h-0.008l-0.006-0.008h-0.008l-0.027-0.027
			l-0.028-0.015l-0.014-0.021h-0.021l-0.008-0.021V7.806l-0.021,0.008l-0.014-0.008L15.562,7.82l0.008,0.014l-0.008,0.007
			l-0.007,0.007l-0.021,0.007h-0.007v0.021L15.506,7.89v0.015l0.008,0.014v0.007v0.007l0.021,0.007h0.007l0.014,0.021l-0.014,0.034
			l-0.007,0.014l-0.007,0.036l0.007,0.014v0.014l0.007,0.007l0.014,0.008v0.006V8.1l-0.007,0.007l-0.007,0.021l0.014,0.008v0.007
			l0.007,0.007l0.008,0.028l-0.008,0.007l-0.014-0.007h-0.007L15.527,8.19H15.52l-0.006,0.007l-0.015,0.014l-0.015-0.007
			l-0.014,0.007h-0.007l-0.021,0.007L15.43,8.211l-0.015-0.007l-0.028-0.021l-0.021-0.007l-0.027-0.015l-0.028-0.007l-0.028-0.014
			L15.24,8.135l-0.034-0.008l-0.008,0.015l-0.056,0.035l-0.007,0.007v0.014l0.014,0.014l0.015,0.007v0.015l0.014,0.006L15.17,8.246
			l-0.006,0.015l-0.015,0.027l-0.007,0.021l-0.021,0.028l0.007,0.021l-0.007,0.007l0.014,0.027l0.014-0.014l0.007-0.007h0.008h0.006
			v0.049h0.021l0.035,0.042l-0.008,0.028h-0.013l-0.015,0.014l0.021,0.007v0.007l-0.015,0.015L15.178,8.54l-0.014,0.007
			l-0.015,0.014l-0.021,0.028v0.042l-0.014,0.042v0.034v0.014l0.027,0.021l0.021,0.007l0.014,0.015h0.008v0.007l0.027,0.007v0.007
			l-0.007,0.014l0.007,0.014l-0.007,0.035l0.013,0.028l0.021,0.021v0.021l0.015,0.035L15.24,8.979l0.007,0.008L15.24,8.993
			l0.021,0.035v0.015L15.255,9.05v0.007H15.24l-0.139,0.035l-0.1,0.021l-0.027,0.021l-0.007,0.007L14.96,9.134l-0.006,0.007
			l-0.008-0.007L14.933,9.12l-0.014,0.006l0.007-0.014l-0.007-0.007h-0.007h0.007l-0.007,0.007h-0.007V9.12h-0.008v0.006
			L14.891,9.12l-0.006,0.014h0.006h-0.006v0.007h0.006h-0.006l0.006,0.007h-0.006h0.006l-0.006,0.007h-0.008L14.87,9.147v0.007
			v0.008h-0.007h-0.008v0.006h-0.007v0.008l-0.007,0.007l-0.006,0.007v0.007h-0.008h-0.007h-0.007l-0.014,0.007l-0.007-0.007h-0.022
			V9.189v0.007l-0.006-0.007v0.007h-0.008h-0.006v0.007V9.196V9.21l-0.015,0.008h0.007H14.73V9.21h-0.007l-0.007-0.014L14.71,9.203
			V9.196h-0.008V9.189h-0.014V9.183h-0.007V9.176h-0.008V9.168V9.162V9.147V9.141V9.134h0.008V9.126V9.12l-0.008-0.008h0.015V9.105
			V9.099h-0.007V9.092l0.007-0.007h-0.015l0.008-0.007L14.674,9.07V9.057h-0.006h0.006l0.008-0.014V9.035h-0.008l0.008-0.007V9.021
			V9.015V9.008V9.001l0.007-0.008h0.007V8.979h0.007V8.974l0.008-0.008l0.007-0.021h0.007V8.938V8.931l0.007-0.007V8.917v0.007V8.91
			h0.007V8.903L14.73,8.896V8.882l0.007-0.014V8.854L14.73,8.847h-0.007L14.717,8.84l0.007-0.006V8.819V8.806l-0.007-0.015
			l0.014-0.035l0.007-0.007L14.73,8.742h-0.007l-0.021-0.007h-0.028l-0.006-0.007V8.721H14.66L14.646,8.7h-0.015V8.651h-0.084
			h-0.069h-0.097h-0.12h-0.265h-0.021h-0.153v0.014v0.112h-0.015l-0.014,0.021l-0.007,0.021L13.78,8.847v0.021l0.014,0.007
			l0.014-0.007l0.007,0.014l0.008,0.028l-0.008,0.014h-0.007l-0.021,0.028L13.78,8.966l-0.028,0.008l-0.014,0.02v0.008v0.014
			l0.007,0.035l0.007,0.007l-0.007,0.007V9.07v0.015h0.007v0.014h-0.007v0.007l0.007,0.007l0.007-0.007l0.015,0.007V9.12v0.014
			l-0.015,0.014l0.007,0.007l-0.007,0.021l-0.007,0.014V9.21l-0.007,0.021v0.007h0.195h0.057h0.014h0.083h0.126l0.14-0.007h0.063
			h0.321v0.007v0.008l-0.007,0.006l0.007,0.008v0.006h-0.007v0.008L14.73,9.28V9.273h-0.007V9.28l-0.007-0.007V9.28v0.007v0.007
			L14.71,9.302l0.007,0.006H14.71v0.008l-0.015,0.007l0.007,0.007v0.007h0.008l-0.008,0.008L14.71,9.35l-0.008,0.008h0.008
			l0.007,0.007v0.007L14.71,9.378h0.007l0.007,0.015h-0.007l0.007,0.007l0.007,0.007h-0.007l0.007,0.021l-0.007,0.021h-0.007v0.007
			l-0.015,0.007l-0.007,0.015l0.007,0.006L14.695,9.49v0.014l-0.007,0.007l-0.007,0.021h-0.008l-0.006,0.014L14.646,9.58
			l-0.015,0.008l-0.006,0.007l-0.008,0.008l0.008,0.027L14.618,9.65l-0.014,0.008l-0.007,0.014L14.59,9.679v0.021v0.015v0.007
			l0.008,0.007l0.007,0.014v0.014h0.014l-0.007,0.008l0.007,0.007V9.763l0.008,0.007l0.006-0.007L14.64,9.77l-0.008,0.008h0.008
			l-0.008,0.006h0.008l-0.008,0.008h0.015h0.008v0.006l0.006,0.008V9.797h0.014v0.015v0.007h0.008V9.812l0.014-0.007v0.007h0.015
			v0.007h0.007H14.71l0.007,0.007L14.71,9.832l0.007,0.007l0.014-0.014V9.818l0.007,0.007L14.73,9.839l0.007-0.007l0.007,0.015
			v0.006l0.008-0.006h0.006V9.86l0.008-0.008V9.86v0.007h0.006v0.014l0.008,0.008l0.008-0.008l0.007-0.006l0.007,0.014h-0.007h0.007
			l0.006,0.006l-0.013,0.008l0.007,0.007l0.006-0.007v0.021l-0.006,0.008h0.006h0.008l0.014,0.006v0.015v0.008h-0.007l0.007,0.006
			l-0.007,0.008l-0.007,0.014l0.007,0.007h0.007h-0.007v0.014h0.015v0.008v0.006v0.008v0.007v0.007l0.013,0.007l-0.007,0.007v0.007
			l0.021-0.007l-0.015,0.014l0.007,0.022v0.006h-0.014l0.007,0.015h0.007v0.007h0.008l-0.008,0.007h-0.007l0.007,0.007h0.008
			l-0.008,0.015l0.015-0.008h0.007l0.008,0.014h0.006l0.007,0.008l-0.021,0.007l0.008,0.007v0.008l0.006-0.008l0.007,0.008
			l-0.007,0.007l0.015,0.006l-0.008,0.008l0.008,0.007l0.007-0.007v0.007l0.014,0.007l0.007,0.006l-0.007,0.009l-0.021,0.006h0.014
			v0.008h-0.007v0.007l0.014-0.007v0.007l-0.014,0.007l0.007,0.006h-0.007h-0.007l0.007,0.009h-0.007v0.006l-0.008-0.006v0.006
			v-0.006l-0.007,0.006v0.008h-0.006l0.006,0.006l-0.014-0.006v-0.008H14.87v0.021h0.007l-0.007,0.006v-0.006l-0.007,0.006h-0.008
			v0.009h0.008l-0.008,0.006l-0.007-0.006l-0.007,0.006l0.007,0.008l-0.021-0.008v0.008h-0.007v0.006h0.007h-0.007l-0.007-0.006
			l-0.008,0.006v-0.006v0.021h-0.006l-0.007-0.007v0.007l-0.007-0.007v0.021l-0.008-0.014l-0.008,0.014l0.008,0.007h-0.008v0.007
			l-0.006,0.008l0.006,0.014l-0.014-0.007l-0.014,0.007l0.008,0.008l-0.008,0.006l-0.007-0.014l-0.014,0.008v-0.008l-0.007,0.008
			l0.007,0.006l-0.007,0.008h-0.021l0.007,0.006l-0.007,0.008l0.015,0.007h-0.008h-0.007h-0.007l0.007,0.007l0.007,0.007v0.008
			h-0.007v-0.008l-0.007,0.008v0.007v0.007h-0.015h-0.006l-0.008,0.007l0.008,0.014H14.66l0.008,0.008l-0.008,0.007l-0.006-0.007
			H14.64v0.007v0.007h-0.014l0.006,0.006v0.008l-0.021,0.007v0.007h0.007l0.008,0.007v0.008l-0.008,0.006l0.008,0.015v0.007
			l-0.015-0.007l-0.007,0.007h-0.007v0.007H14.59l0.015,0.014l-0.007,0.008v-0.008h-0.014l0.006,0.008l-0.006,0.007l-0.008-0.015
			l-0.021,0.008v-0.008h-0.008v-0.006l-0.013-0.008v-0.007v0.015h0.006l-0.021,0.014l0.007,0.007v0.021l-0.007,0.006l-0.007-0.006
			v0.006v0.008h-0.007l0.007,0.007v0.007h0.007v0.007h-0.014l0.007,0.007v0.007h0.007v0.007v0.015h-0.014L14.5,10.727h0.007
			l0.021,0.008l0.008,0.014l0.006,0.007v0.014v0.021v0.007h0.007l0.008,0.007l0.014-0.021l0.007,0.028h0.008h0.006l0.008-0.007
			l0.034-0.007l0.015-0.007h0.014l0.014,0.007l0.021,0.007l0.021-0.007l0.014,0.007l0.007,0.015l0.007,0.014l0.021,0.021
			l0.014,0.021l0.008,0.014v0.014v0.021h-0.016v0.014v0.009h0.008v0.006v0.008l-0.014,0.014h-0.014v0.007h-0.008l-0.007,0.007V11
			l-0.007,0.014l-0.014,0.014l-0.007,0.007v0.007l0.007,0.008v0.006l-0.007,0.008v0.007l-0.015,0.007v0.007l0.007,0.008
			l-0.007,0.007h-0.007l0.014,0.007h-0.007l-0.007,0.007l-0.007,0.007l-0.008,0.007l0.008,0.007l0.007,0.015v0.006v0.008
			l0.007,0.007l-0.007,0.014l0.007,0.008h-0.007l0.007,0.006h0.007l0.008,0.008l-0.008,0.007h0.008l-0.008,0.007l0.008,0.007h-0.008
			l0.008,0.008v0.006h0.007v0.015l0.021,0.014v0.014H14.73v0.008V11.3h0.007v0.007l0.015,0.008l0.006,0.007l-0.006,0.007
			l0.006,0.007h-0.006h0.006l0.008,0.014v0.015l-0.008,0.007h-0.006h-0.008l0.008,0.014l-0.015-0.007H14.73l-0.021,0.014
			l-0.008,0.007l-0.014-0.007v0.015h0.007v0.006l-0.014,0.008v0.007h-0.014l-0.008,0.007l-0.006-0.007v0.014l-0.015,0.008h0.015
			v0.006H14.64l-0.008,0.008v-0.008h-0.014l-0.007,0.015l0.007,0.007v0.007h-0.007l-0.007-0.007h-0.007l-0.014,0.015h-0.008v0.006
			l-0.014-0.006v0.006l-0.007,0.008l0.007,0.007h-0.007l-0.008,0.007l-0.007-0.007l-0.014,0.007v0.014l-0.014,0.007v0.008v0.007
			l-0.007-0.007v-0.008v-0.021V11.51H14.5l-0.014,0.014h-0.008l-0.006,0.014l-0.008,0.008h-0.014l0.014,0.007h-0.008h-0.006
			l-0.015,0.013v0.009v0.006v0.008l-0.007-0.008v-0.006l-0.014,0.006l0.007,0.014l-0.014,0.008l-0.007,0.007l0.007,0.007
			l0.007,0.015l0.014,0.006l-0.014,0.015v0.007h-0.007l-0.014,0.007v-0.007l-0.008-0.007h-0.006l-0.015,0.034h-0.008h-0.006v0.008
			l-0.015,0.014h-0.007h-0.007v-0.014h-0.028l0.007,0.014h-0.007l-0.007,0.007l-0.007,0.014l0.007,0.008v0.007h-0.014l-0.007,0.008
			l-0.014,0.006l-0.008-0.006h-0.007l-0.007-0.008l0.007-0.007h-0.007l-0.008-0.008l-0.007,0.008l-0.013,0.007v0.014l-0.008,0.014
			l0.008,0.008v0.007h-0.008l-0.014-0.007l-0.008-0.008l-0.006,0.008v0.007l-0.008,0.007l0.008,0.007v0.007l-0.008,0.007h-0.008
			l-0.006-0.007l-0.008,0.007l-0.027-0.014l-0.007,0.007l-0.007,0.021h-0.008l-0.013,0.008l-0.008,0.007l-0.007-0.007V11.81h-0.008
			h-0.006v-0.014v-0.014v-0.007l-0.021,0.014h-0.006l-0.008-0.007v-0.007l-0.015-0.008l-0.014-0.006l-0.007-0.014l-0.007-0.008
			h-0.007l-0.008,0.014l-0.006,0.008H13.94h-0.007l-0.021-0.008l-0.014-0.006l-0.021-0.008v-0.015l-0.013-0.014v-0.014H13.85
			l-0.021-0.007h-0.027l-0.007-0.008V11.67h-0.028l-0.007-0.014h-0.007h-0.007L13.73,11.67l-0.027,0.021v0.007l0.014,0.007v0.007
			h-0.006h-0.015l-0.008-0.014h-0.006h-0.008l-0.006-0.007l-0.015,0.007h-0.035h-0.007v-0.015h-0.007h-0.008l-0.014,0.008
			l-0.014-0.008l-0.035,0.021l-0.008-0.007l0.008-0.015l-0.008-0.006h-0.006L13.5,11.691l-0.014-0.014h-0.021l-0.006-0.008v-0.014
			l-0.008-0.007h-0.021l-0.007,0.007h-0.008l-0.042-0.007l-0.006,0.007v0.007v0.007h-0.015H13.34h-0.014l-0.015,0.008l-0.014-0.008
			l-0.021,0.008l-0.021-0.008l-0.021,0.014l-0.015-0.006l-0.014,0.006l-0.014,0.021h-0.015l-0.007-0.035l-0.007-0.007l-0.035-0.007
			l-0.007-0.014h-0.028l-0.007-0.014h-0.021l-0.021,0.021l-0.015,0.007l-0.006,0.007h-0.008v0.021h-0.006l-0.008,0.015h-0.007
			l-0.021-0.007l-0.021,0.014v0.015l-0.007,0.014l-0.028,0.015V11.74h-0.014l-0.007-0.007h-0.013v-0.008l0.006-0.006v-0.008h-0.021
			l-0.027,0.021l-0.007,0.007l-0.028,0.008l-0.021-0.008l-0.008,0.008v0.006l0.021,0.014v0.008v0.007l-0.007,0.007l-0.015,0.007
			l-0.014,0.014l-0.014,0.028l-0.008,0.021l-0.021,0.007h-0.007l-0.007,0.007l-0.008,0.007l-0.006,0.021l-0.008,0.006l-0.021-0.006
			h-0.008l-0.014,0.034l-0.021,0.021l-0.008,0.021l-0.006,0.007l-0.021,0.008l-0.014-0.008H12.57l-0.014-0.035l-0.049-0.048
			l-0.006-0.021v-0.014v-0.021v-0.007l-0.008-0.007h-0.007l-0.021-0.008l-0.014,0.008h-0.007l-0.007,0.007l0.007,0.028l-0.007,0.007
			v0.007h-0.008l-0.006,0.007L12.41,11.88l-0.056,0.007l-0.021,0.007v0.008l-0.007,0.006l0.021,0.021l-0.007,0.015h-0.008
			l-0.021-0.015h-0.007h-0.015l-0.014,0.007l-0.02,0.014l-0.016,0.008h-0.006l-0.015-0.008l-0.014,0.008l-0.007,0.014l-0.007,0.014
			h-0.009H12.18l-0.021-0.007h-0.021l-0.014-0.014h-0.015l-0.007-0.007l-0.007-0.008h-0.008l-0.02,0.015H12.04l-0.042-0.007
			l-0.008-0.014h-0.033h-0.016l-0.006,0.006l-0.015,0.035l-0.014,0.015l-0.021,0.021l-0.084-0.014l-0.035,0.021h-0.021l-0.034-0.007
			l-0.021,0.007l-0.014,0.008L11.67,12.04l-0.014,0.008l-0.015,0.014l-0.034,0.049l-0.021,0.056l-0.007,0.008h-0.014l-0.022,0.006
			l-0.007,0.008v0.007l-0.021,0.056l-0.021,0.028h-0.007l-0.029,0.014l-0.014,0.007v0.015l0.014,0.034l-0.006,0.021l0.006,0.008
			v0.027l-0.027,0.042l-0.014,0.028h-0.007v0.006l-0.028,0.014l-0.014,0.015h-0.063h-0.014h-0.014l-0.007,0.007l0.007,0.021
			l-0.007,0.015l-0.057,0.014l-0.007,0.014v0.015V12.6l-0.007,0.015l-0.021,0.027h-0.021l-0.028,0.028l-0.014,0.021v0.007
			l-0.006,0.014v0.021l-0.015,0.021l-0.008,0.028l-0.014,0.014v0.008l-0.006,0.014l0.006,0.006l0.036,0.029l0.013,0.021v0.006
			l-0.013,0.014h-0.008l-0.063-0.02l-0.034-0.015v-0.007l-0.008-0.007l-0.007-0.008l-0.014-0.015h-0.021v-0.02h-0.021l0.008-0.008
			l-0.008-0.006l-0.006,0.006l-0.021-0.006l0.014-0.008v-0.007l-0.008-0.007l-0.006-0.021H10.9v-0.015l-0.014-0.014l-0.007-0.008
			l-0.007,0.008v-0.008l-0.021-0.014V12.69h-0.007h-0.014l-0.007-0.007h-0.014l-0.015-0.014h-0.027l-0.015-0.008l-0.007-0.014
			h-0.014v-0.007l-0.007,0.007l-0.008-0.007h-0.006h-0.008v0.007h-0.014l-0.007,0.007l-0.008-0.007l-0.021-0.007v-0.014
			l-0.007,0.007l-0.007-0.007l-0.007-0.007h-0.007V12.6H10.6l-0.014-0.007L10.565,12.6v-0.007l-0.007-0.007v-0.008v-0.006h-0.021
			l-0.007-0.008h-0.007v-0.006h-0.008l0.008-0.008h-0.008l-0.006-0.007h-0.008h-0.014l-0.007-0.008h-0.007l-0.007,0.008
			l-0.014-0.014l-0.008,0.006h-0.014l-0.007-0.006v-0.008h-0.007l-0.021-0.007h-0.015h-0.007l-0.007-0.007h-0.021v-0.007h-0.014
			l-0.007,0.007l-0.014,0.007v-0.007h-0.014l-0.014-0.007h-0.008l-0.015,0.007l-0.034-0.021l-0.008,0.006l-0.014-0.014h0.007
			l-0.007-0.006l-0.007,0.006h-0.007l-0.008-0.014l-0.006,0.008v-0.008h-0.008V12.46h0.008h-0.008H10.16l-0.015-0.014l-0.006,0.006
			l-0.015-0.006h0.007l-0.014-0.008h0.007l-0.027-0.014h-0.021v-0.007l0.007-0.008h-0.007h-0.007v0.008h-0.008l-0.014-0.014v-0.008
			h-0.007l-0.007-0.014h-0.007v-0.006l-0.008-0.015h-0.013L10,12.348H9.992v-0.007H9.979l-0.008-0.007v0.007H9.965H9.957
			L9.95,12.334l-0.007-0.007l0.007,0.014H9.943H9.937L9.93,12.334H9.916v-0.007l-0.008,0.007l-0.006,0.007l-0.008,0.007v-0.007
			l0.008-0.007l-0.008-0.007H9.887L9.873,12.32v0.007V12.32l-0.007-0.007H9.859l-0.007-0.007l-0.007,0.007H9.832l-0.007-0.007H9.817
			v-0.008h0.008H9.817l-0.014-0.014h0.007l-0.007-0.007v-0.015l-0.007-0.006v0.006l-0.014-0.006H9.775L9.77,12.25H9.762
			l-0.007-0.006l-0.007-0.008H9.741v-0.015l-0.008-0.006v-0.008H9.727v-0.006H9.72l-0.014,0.006v-0.006l-0.007,0.006v-0.006
			l-0.014-0.008H9.656L9.643,12.18v0.008L9.629,12.18H9.608v0.015H9.595L9.58,12.188L9.566,12.18v-0.006H9.559v-0.008H9.545h0.008
			v-0.014H9.531l0.007-0.007H9.524v-0.008l-0.021-0.02V12.11l-0.014-0.007v-0.007V12.09l-0.015-0.008v-0.006l-0.021-0.042H9.427
			L9.398,12.02l-0.021-0.007v-0.007l-0.015-0.007H9.342v0.007l-0.014,0.007l-0.021,0.014l-0.007,0.008H9.273L9.258,12.04
			l-0.006-0.006l-0.035-0.008H9.21L9.174,12.04l-0.013-0.006H9.141l-0.015-0.008H9.104l-0.027-0.014L9.062,12.02l-0.014-0.007H9.042
			v-0.007l-0.028-0.014l-0.041-0.008v-0.021l-0.007-0.007H8.944l0.007-0.014l-0.007-0.015L8.93,11.915v-0.014l-0.006-0.015V11.88
			l0.021-0.028l0.028-0.007l0.007-0.021l0.007-0.014l0.021-0.014l0.006-0.028v-0.006l0.007-0.008h0.007h0.021l0.041-0.006
			l0.015-0.028l0.021-0.021l0.007-0.021L9.126,11.67v-0.007l-0.021-0.014L9.09,11.643l-0.02-0.008H9.062H9.014l-0.048-0.014H8.937
			l-0.034,0.008l-0.035,0.021L8.86,11.678H8.854L8.84,11.67H8.812l-0.035-0.035v-0.042L8.77,11.564v-0.027l-0.021-0.062v-0.021
			l-0.007-0.042l-0.008-0.021l0.008-0.014l0.014-0.007l0.006-0.007h0.029h0.007l0.006-0.008l0.008-0.007v-0.062l-0.008-0.014
			l-0.006-0.008l-0.015-0.028l-0.034-0.021l0.007-0.021l-0.007-0.006v-0.008l-0.007-0.007l-0.008-0.007l0.008-0.035l-0.008-0.014
			v-0.007l-0.014-0.014l-0.008-0.015l0.008-0.007l-0.014-0.014l0.006-0.008H8.707l-0.008-0.014H8.692l-0.007-0.007l-0.007-0.007
			v-0.007l-0.014-0.007l-0.007-0.008v0.008L8.637,11l0.008-0.008l-0.008-0.007v-0.007H8.629l0.008-0.007v-0.007l-0.008-0.007
			l0.008-0.008H8.629v-0.015l-0.006-0.014v-0.014l0.006-0.007H8.623l0.006-0.007v-0.007l0.008-0.007v-0.007v-0.008V10.86v-0.008
			v-0.007l-0.008-0.007l0.008-0.007l-0.008-0.008v-0.014h0.008H8.629v-0.007l0.008-0.014v-0.008v0.008V10.776z"/>
		<path id="Mato_Grosso" fill="#E8ECEC" d="M0,2.048V2.034V2.026h0.035l0.007-0.014l0.014-0.007h0.021l0.021,0.007L0.104,2.02
			l0.007-0.007L0.104,1.999l0.007-0.035V1.957V1.943L0.104,1.936L0.098,1.915L0.09,1.908L0.076,1.888V1.873V1.859V1.846l0.008-0.021
			H0.09V1.81l0.015-0.014V1.775l0.007-0.021L0.14,1.698l0.007-0.007l0.021-0.027L0.153,1.649L0.146,1.629L0.126,1.607L0.118,1.579
			L0.111,1.573V1.565V1.559H0.098H0.09L0.062,1.545H0.056L0.048,1.537h0.755h0.014h0.092h0.336l0.579,0.008h0.755h0.027h0.616
			l0.063-0.008L3.298,1.53h0.008h0.007h0.006l0.015-0.014l0.042-0.042l0.021-0.014l0.006-0.007V1.447L3.375,1.433L3.347,1.439H3.34
			L3.312,1.454L3.291,1.447L3.285,1.439l0.027-0.062l0.006-0.014l0.008-0.021l0.007-0.007V1.32L3.326,1.307L3.312,1.293l0.006-0.028
			V1.251L3.312,1.236l-0.007-0.02l0.013-0.028l0.008-0.008L3.34,1.16l0.007-0.014l0.028-0.035V1.098l0.007-0.015L3.375,1.069
			l0.007-0.015L3.41,1.042l0.006-0.007L3.41,1.013L3.402,1.007V0.992L3.41,0.979L3.402,0.937l0.014-0.021L3.402,0.874L3.41,0.853
			l0.027-0.014l0.008-0.015L3.438,0.804l0.008-0.021L3.438,0.769L3.41,0.721L3.402,0.699V0.685L3.396,0.657L3.375,0.629L3.354,0.594
			V0.545L3.34,0.531V0.518h0.007l0.008-0.015l0.042-0.021L3.43,0.447l0.016-0.021V0.412V0.385l0.007-0.007L3.479,0.35l0.014-0.028
			l0.036-0.034V0.266L3.521,0.251L3.514,0.217L3.508,0.189l0.006-0.036l0.008-0.034l0.035-0.07l0.035-0.034l0.007-0.008V0
			l0.015,0.007l0.055,0.035l0.008,0.014l0.027,0.057l0.035,0.035l0.028,0.048l0.027,0.07v0.007l0.007,0.049l0.008,0.008h0.014
			l0.014,0.007L3.843,0.35L3.857,0.44l0.007,0.042l0.034,0.062l0.007,0.021l0.008,0.076v0.021l0.028,0.028l0.027,0.056L4.018,0.79
			l0.007,0.056l0.007,0.014l0.008,0.007l0.027,0.008L4.081,0.88l0.021,0.036V0.93v0.007L4.088,0.972L4.081,1.007L4.066,1.027v0.008
			v0.014l0.015,0.028v0.006v0.008L4.06,1.125v0.007l0.007,0.021l0.028,0.036v0.014L4.088,1.217v0.006l0.021,0.014l0.007,0.008
			L4.108,1.265L4.095,1.279L4.102,1.3v0.007l0.014,0.007L4.129,1.32L4.123,1.37l0.006,0.007l0.014,0.021l0.016,0.041L4.15,1.475
			l0.008,0.021h0.027l0.035-0.014L4.27,1.509L4.29,1.523h0.014h0.021l0.014,0.014v0.028L4.332,1.594l0.007,0.007l0.015,0.007
			l0.021,0.021h0.035l0.034,0.006l0.008,0.021l0.008,0.008h0.013l0.035-0.008l0.007-0.007l0.014,0.007l0.021,0.008l0.014,0.007
			L4.57,1.678l0.056,0.069l0.042,0.021l0.006,0.021L4.688,1.81l0.014,0.008v0.021l0.015,0.008l0.007,0.014v0.014L4.702,1.901
			l0.007,0.021L4.702,1.936v0.008l0.007,0.006l0.015,0.015L4.73,1.979l0.014,0.006l0.014,0.008l0.014,0.007l0.043-0.007l0.014,0.007
			l0.062,0.007h0.008l0.014-0.007l0.014,0.007l0.028,0.007l0.014,0.021L4.989,2.09h0.007v0.014v0.035l0.007,0.014v0.014L5.01,2.18
			h0.007l0.021-0.006l0.021-0.015V2.152h0.008H5.08l0.028-0.007L5.514,2.18l0.118,0.008L6.01,2.222l0.817,0.063L7.1,2.313
			L7.226,2.32l0.517,0.042L8.28,2.404l0.469,0.034l0.468,0.035h0.057L9.65,2.502l0.817,0.056l0.161,0.015l0.251,0.014L11.104,2.6
			l0.636,0.042v0.007v0.007l-0.021,0.022l-0.021,0.041v0.028l-0.014,0.021v0.014L11.67,2.803V2.83l-0.008,0.021l-0.014,0.015
			L11.62,2.879l-0.013,0.014L11.6,2.914l-0.014,0.015l-0.014,0.027l-0.007,0.035v0.007h0.007l0.007,0.05l-0.014,0.034l-0.007,0.035
			l-0.022,0.049v0.007l0.007,0.021l-0.007,0.008l-0.021,0.014l-0.007,0.014L11.48,3.242l-0.014,0.07l0.007,0.021L11.467,3.34h-0.008
			l-0.02,0.008v0.021L11.432,3.39l0.008,0.021l-0.015,0.021l-0.007,0.021l-0.007,0.007h-0.008H11.39l-0.007,0.015l-0.014,0.021
			l-0.021,0.021v0.014l0.021,0.014v0.021l0.007,0.014v0.014l0.007,0.021l-0.021,0.035v0.014v0.007h-0.014l-0.006,0.008v0.006
			l-0.008,0.014v0.008v0.028l0.014,0.006l0.008,0.014v0.015l-0.021,0.021l-0.015,0.021l0.015,0.035l-0.006,0.014l0.006,0.021v0.027
			l0.008,0.015v0.028l-0.008,0.014V3.97l-0.021,0.014l-0.007,0.021l-0.014,0.006v0.015l-0.007,0.021l0.007,0.027v0.014l0.007,0.021
			l-0.007,0.028l-0.007,0.042l-0.014,0.008L11.258,4.2L11.25,4.207l-0.006,0.014v0.014l-0.008,0.021l-0.014,0.028v0.027L11.208,4.34
			v0.021v0.014v0.028l0.007,0.013l-0.007,0.029l0.021,0.041h0.008l0.028,0.007h0.014h0.007L11.292,4.5v0.008v0.014v0.008
			l-0.007,0.014l0.007,0.021v0.028l-0.007,0.007l-0.007,0.014l-0.014,0.007l-0.007,0.007l-0.029,0.028v0.007l0.008,0.015
			l0.008,0.014l0.006,0.034l0.008,0.014l0.007,0.015v0.035l0.007,0.007h0.021l0.021,0.021v0.021l-0.021,0.007l-0.007,0.015
			l0.014,0.021v0.021l-0.027,0.027L11.265,4.94l0.007,0.008v0.007l-0.007,0.021v0.007l0.021,0.021v0.021l-0.007,0.042v0.021
			l-0.007,0.014v0.035L11.265,5.15l0.007,0.021l0.027-0.008l0.007,0.008v0.027l0.014,0.021v0.014l-0.014,0.014v0.007v0.021
			l0.007,0.007l-0.007,0.021l0.014,0.021l0.009,0.021l-0.009,0.035l0.015,0.007l-0.006,0.028v0.007l-0.016-0.007l-0.014,0.007
			l0.007,0.027l-0.014,0.021l-0.007,0.035l-0.014,0.014l-0.007,0.021l0.021,0.014v0.014h-0.007l-0.021-0.007L11.25,5.569
			l-0.006,0.015l0.006,0.014v0.028l0.049-0.008l0.007,0.008v0.013l-0.007,0.015l0.007,0.028h0.014l-0.007,0.021l0.016,0.014v0.028
			l-0.009,0.013h0.022l-0.014,0.028V5.8l0.006,0.007h0.008l0.006-0.021h0.021h0.007v0.007l-0.021,0.014v0.008l0.034,0.014h0.035
			l0.015-0.007l0.006,0.014V5.85l0.008,0.014v0.014l-0.008,0.015l-0.006,0.021l-0.008,0.021v0.042l-0.021,0.006l-0.014,0.022H11.39
			l-0.014-0.009l-0.015,0.009l0.008,0.02l0.014,0.008v0.007l-0.007,0.014l-0.028,0.007l-0.006,0.007l0.014,0.028l0.006,0.007v0.015
			l-0.006,0.034l0.006,0.028l-0.006,0.014l-0.008,0.015h0.008l0.014,0.014v0.014v0.028l-0.014,0.021L11.348,6.29v0.034l-0.006,0.008
			l-0.014,0.021l-0.016,0.014L11.306,6.38l-0.021,0.014v0.028l0.007,0.028l-0.007,0.014l-0.014,0.007l-0.014,0.028l-0.021,0.021
			l-0.028,0.014l-0.021,0.028l-0.007,0.07l-0.014,0.02l-0.008,0.036l-0.014,0.041l-0.021,0.027L11.111,6.75l-0.015,0.007h-0.008
			l-0.006,0.008l-0.008,0.014l0.021,0.028l-0.008,0.035l0.008,0.014l-0.008,0.021l0.015,0.028v0.006v0.021v0.007v0.014V6.98v0.015
			l-0.021,0.021v0.021l0.014,0.021v0.028l0.021,0.048l-0.006,0.021L11.104,7.17l-0.028,0.021h-0.021L11.04,7.178h-0.007h-0.006
			v0.014l0.006,0.027V7.24L11.02,7.254l-0.014,0.027l-0.021,0.042l-0.014,0.042l-0.007,0.014l0.007,0.036l-0.007,0.021l-0.015,0.007
			l0.008,0.028v0.007l-0.008,0.015l-0.006,0.014l0.014,0.021V7.54l0.014,0.014l0.007,0.015L10.971,7.59l0.007,0.027l-0.034,0.057
			l0.006,0.034l-0.027,0.056h-0.008l-0.006,0.014l0.006,0.021v0.007L10.908,7.82L10.9,7.827l-0.006,0.014l-0.008,0.007v0.021
			L10.9,7.89l-0.006,0.015l-0.021,0.014l-0.021,0.034v0.021v0.014l-0.007,0.021l0.015,0.015v0.007h-0.008l-0.041,0.028h-0.008
			l-0.014,0.021V8.1L10.74,8.127l-0.049,0.028l-0.028,0.007l-0.021-0.007l-0.007-0.014l-0.007-0.035l-0.021-0.015h-0.014
			l-0.008,0.015L10.572,8.12l-0.021,0.015L10.53,8.12l-0.028,0.007l-0.014,0.028h-0.014l-0.007,0.014l-0.014,0.015l-0.042-0.007
			l-0.008,0.007l-0.014,0.014l-0.014,0.035l-0.028,0.006l-0.021,0.05L10.32,8.295h-0.027l-0.021,0.014v0.028l-0.014,0.021v0.021
			l0.007,0.014l0.015,0.007v0.007l-0.021,0.015l-0.014,0.007l-0.007,0.021v0.034l0.014,0.015v0.014l-0.028,0.042v0.007l0.008,0.014
			v0.007l-0.015,0.021l0.007,0.021v0.008v0.007l-0.007,0.007l-0.021,0.007l-0.008,0.014v0.008l0.008,0.021v0.014h-0.014h-0.015
			L10.16,8.687h-0.015v0.007H10.14l0.006,0.021l0.021,0.056v0.014L10.16,8.806l-0.007,0.006l-0.035,0.063V8.89L10.09,8.903
			l-0.021,0.034l-0.008,0.015l-0.021,0.021l-0.007,0.02l-0.007,0.008l-0.021-0.021H9.965L9.957,8.993v0.015v0.007L9.943,9.008
			L9.93,9.015L9.916,9.05L9.902,9.057l-0.05,0.007L9.832,9.057H9.817L9.811,9.063L9.804,9.057L9.783,9.07l-0.07-0.014L9.699,9.063
			H9.671H9.65l0.006,0.021L9.65,9.112H9.643v0.014L9.615,9.147v0.021L9.608,9.176L9.595,9.189L9.588,9.21L9.58,9.224v0.008
			L9.573,9.252V9.26L9.553,9.273L9.545,9.266L9.538,9.273L9.531,9.28L9.524,9.287L9.503,9.28L9.461,9.302L9.44,9.315H9.427
			L9.412,9.322L9.405,9.329H9.398L9.385,9.322L9.371,9.329V9.35L9.35,9.357l0.008,0.014L9.35,9.385V9.42H9.342H9.328v0.007
			L9.35,9.455v0.007H9.342H9.336L9.321,9.448H9.314L9.308,9.462v0.007H9.287L9.273,9.482H9.258H9.244V9.477H9.238L9.217,9.49v0.014
			H9.21L9.203,9.519L9.21,9.524v0.008v0.014L9.203,9.553v0.008v0.014l0.014,0.014L9.203,9.595v0.008l0.014,0.014h0.027h0.008v0.006
			v0.015l0.006,0.008l0.021,0.014L9.273,9.664v0.008l0.006-0.008l0.015,0.008L9.279,9.679l0.008,0.007v0.007v0.007L9.279,9.714
			H9.273H9.258v0.014h0.008v0.007v0.014L9.258,9.755V9.77L9.244,9.763v0.015L9.23,9.763H9.224v0.015L9.23,9.783H9.217l0.007,0.014
			L9.217,9.805H9.203L9.188,9.791H9.183l0.006,0.027L9.168,9.805H9.161H9.154l0.007,0.014L9.154,9.825v0.007h0.014L9.174,9.86
			L9.168,9.867L9.161,9.853L9.154,9.847L9.146,9.853L9.141,9.86l0.014,0.021L9.146,9.875L9.133,9.881L9.119,9.889v0.006h0.014
			L9.126,9.902v0.028H9.112L9.104,9.944v0.007v0.014H9.098L9.09,9.973L9.084,9.965L9.062,9.986H9.057V10H9.049V9.993H9.042L9.035,10
			L9.027,9.993l-0.007,0.014H9.008l-0.015,0.008H9l-0.007,0.006l-0.014,0.008v0.014H8.973l-0.007,0.007H8.959v-0.014H8.951v0.007
			H8.944l0.015,0.014l-0.008,0.014h0.008v0.008H8.93h0.007l0.008,0.015H8.937v-0.008H8.93v0.008v0.006l-0.006-0.006v0.006
			l-0.008,0.008l-0.007-0.008H8.896H8.889l-0.007-0.006l-0.008,0.006v-0.006l-0.007,0.006v0.015l0.007,0.007H8.867v0.014L8.86,10.14
			H8.854v0.008H8.846v0.014v0.007v0.007v0.008L8.84,10.189v0.006L8.832,10.21v-0.007H8.825v0.028l0.007,0.006l-0.007,0.008v0.007
			v0.007H8.818l0.007,0.006H8.818v0.009H8.812l0.007,0.014H8.812v0.006h0.007v0.008v0.006v-0.006l0.007,0.006v0.009l-0.007,0.006
			H8.812v0.008v-0.008v0.014l-0.008-0.006H8.798l0.006,0.006H8.791l0.007,0.008H8.791v0.007H8.783H8.776l0.007,0.007H8.776H8.77
			l-0.008,0.007v0.007v0.007l-0.006,0.021H8.749v0.008l-0.007,0.006l-0.008,0.014L8.729,10.42l-0.008,0.006v0.015l-0.008,0.021
			v0.007v0.007H8.707v0.021l-0.008,0.008l-0.007,0.014H8.679l0.007,0.021l-0.014,0.007v0.007L8.658,10.56v0.006v0.008l0.007-0.008
			v0.008h0.007L8.665,10.58v0.007H8.658l0.014,0.007l0.007,0.008l-0.007,0.006h0.007v0.008H8.672v0.007v0.007h0.014l-0.007,0.007
			H8.672h0.007v0.014l-0.007,0.008v-0.008v0.008l-0.007,0.007h0.007v0.007H8.665v0.007H8.658v0.007L8.65,10.691l-0.006,0.007
			l0.006,0.008l-0.006,0.007H8.65v0.014v0.008v0.007v-0.007l-0.006,0.014v0.007l-0.008,0.014v0.008v0.014v-0.008v0.008l-0.008,0.014
			v0.007h0.008H8.629v0.014l0.008,0.008l-0.008,0.007l0.008,0.007v0.007v0.008v0.006v0.008v0.007l-0.008,0.007v0.007l-0.006,0.007
			h0.006l-0.006,0.007v0.014l0.006,0.014v0.015h0.008l-0.008,0.008l0.008,0.007v0.007l-0.008,0.007h0.008v0.007l0.008,0.007
			L8.637,11l0.021,0.014v-0.008l0.007,0.008l0.014,0.007v0.007l0.007,0.007l0.007,0.007h0.007l0.008,0.014h0.006l-0.006,0.008
			l0.014,0.014l-0.008,0.007l0.008,0.015l0.014,0.014v0.007l0.008,0.014l-0.008,0.035l0.008,0.007l0.007,0.007v0.008l0.007,0.006
			l-0.007,0.021l0.034,0.021l0.015,0.028l0.006,0.008l0.008,0.014v0.062H8.707l-0.021-0.007l-0.007-0.014H8.672l-0.014-0.007
			l-0.014-0.007H8.637l-0.021-0.008L8.574,11.3l-0.028,0.007l-0.007,0.008H8.531l-0.02-0.008L8.49,11.314L8.47,11.3H8.462v-0.007
			L8.455,11.3l-0.007-0.014v0.007H8.441v-0.007l-0.008,0.007v-0.007l-0.006,0.007V11.3L8.42,11.293V11.3H8.413v0.021l-0.007,0.007
			l-0.008,0.014H8.392l-0.007,0.007l-0.014-0.007l-0.007-0.007H8.357l-0.007-0.007H8.337l-0.015-0.007H8.309v-0.015H8.301
			l-0.006,0.008H8.28v-0.008L8.26,11.3l-0.007-0.014v-0.008H8.238v0.008l-0.007-0.008H8.203v0.008l-0.014,0.007L8.183,11.3
			l-0.008,0.007l-0.006,0.015l-0.008-0.015H8.147V11.3H8.141l-0.008,0.007L8.127,11.3H8.12l-0.036,0.007L8.078,11.3L8.07,11.293
			v-0.007H8.063l0.007-0.008H8.063H8.057v-0.006H8.05v-0.008v-0.007H8.043l-0.007,0.007v-0.007v-0.007l-0.007-0.007H8.021v-0.008
			H8.016V11.23l-0.008,0.006V11.23l-0.007-0.008L7.986,11.23v-0.015H7.979l0.007,0.007H7.979l-0.007-0.014H7.959H7.952v0.007H7.945
			H7.931l-0.006-0.007l-0.008,0.007H7.91v0.007l-0.008-0.007l0.008-0.014H7.902l0.008-0.008l-0.008-0.014v-0.007v-0.007l0.008-0.015
			l0.007-0.006v-0.015l0.028-0.034l0.007-0.015l0.007-0.014v-0.007l0.014-0.028l0.007-0.007v-0.007l0.015-0.007l0.007-0.008v-0.021
			l0.015-0.007l0.034-0.014l0.007-0.007h0.007h0.015h0.006h0.021h0.008l0.014-0.014l0.014,0.006l0.014-0.006h0.007l0.021-0.434
			l-0.014-0.007v-0.015l-0.015-0.007l-0.027,0.007l-0.014,0.015H8.105H8.1v0.014l-0.008,0.006l-0.014,0.021H8.057l-0.014,0.007
			l-0.007,0.021L8.029,10.58l-0.008,0.021l0.008,0.021l-0.043,0.014l-0.007,0.008l-0.007,0.014l-0.027,0.027l-0.007,0.007
			l-0.008,0.007l-0.006,0.008L7.91,10.72l-0.008,0.007l-0.02,0.008v0.007H7.875l-0.007,0.007l-0.007-0.007H7.854l-0.028,0.007
			l-0.007,0.014l-0.007,0.015H7.805v0.006l-0.006-0.006v0.014v0.007v0.007h0.006v0.007l-0.006,0.014v0.015v0.007l-0.021,0.021v0.008
			l-0.006,0.014l0.006,0.007l-0.006,0.007l-0.016-0.007H7.742l-0.007,0.007v-0.007v0.007l-0.007-0.007l-0.014,0.007l-0.008-0.014
			l-0.006,0.007l-0.008-0.007H7.679l-0.007-0.007l-0.014,0.007l-0.007,0.007H7.645l-0.007,0.007H7.623l-0.007,0.007H7.603
			l-0.007,0.014L7.582,10.93l-0.008,0.006H7.561H7.554l-0.008,0.009H7.54H7.525H7.519H7.512l-0.014-0.009H7.49V10.93v0.006
			l-0.02-0.014l-0.015-0.006l0.006-0.008l0.009-0.021H7.462v-0.007H7.456l0.006-0.007l-0.006-0.008v-0.014l0.006,0.008v-0.008
			v-0.007l-0.021-0.007l-0.007-0.007l-0.007-0.008v-0.006l-0.007-0.008l-0.007,0.008l-0.007-0.008l-0.034-0.007L7.365,10.79v-0.008
			H7.357l0.008-0.014H7.357v-0.007H7.351l-0.014-0.007H7.316l-0.008-0.007H7.302l-0.021,0.014l-0.008-0.014l-0.007,0.007v-0.007
			l-0.014-0.007l-0.007,0.007l-0.028,0.014l-0.021,0.007l-0.014-0.007l-0.008,0.007l-0.014,0.008H7.155v0.006l-0.013-0.006
			l-0.009-0.008v0.014L7.12,10.79H7.113H7.106l-0.021,0.007l-0.008,0.014v0.008l-0.006,0.014h0.006l-0.006,0.007v0.007H7.064H7.051
			L7.036,10.86H7.029l-0.014,0.014H7.009v0.007v0.007l-0.021,0.007H6.98l-0.014,0.007l-0.021-0.007l-0.014,0.007l-0.007-0.014H6.918
			H6.883l-0.008,0.007H6.862v0.007l-0.008-0.007l-0.007,0.014l-0.006-0.007l-0.009,0.015v0.006l-0.006-0.006l-0.015-0.008v0.008
			l-0.007-0.008v0.008H6.799v0.006v-0.006l-0.007,0.006H6.778v-0.006v0.006H6.771H6.764H6.758L6.75,10.916l-0.008-0.008v0.008
			l-0.006-0.008l-0.008,0.008l-0.006-0.008v0.008l-0.008-0.008l-0.007,0.014l-0.014,0.014L6.681,10.93v-0.008H6.666H6.658
			l-0.006-0.006v0.006H6.646l0.007-0.006H6.646v-0.008l-0.007-0.007l-0.015,0.007v-0.007H6.617v-0.007H6.597v-0.007l0.007,0.007
			v-0.007l-0.015-0.007v-0.007H6.583v0.007l-0.009-0.007v0.007l-0.006-0.007l0.006-0.008l-0.006,0.008V10.86H6.562v-0.008H6.555
			l-0.008-0.007l0.008-0.007l-0.008-0.007v0.007H6.541H6.533v-0.007l-0.007,0.007l0.007-0.007L6.52,10.824l0.007-0.006H6.52
			l-0.021,0.006l-0.006-0.006l-0.008,0.006h0.008v0.008l-0.015-0.008v-0.006v0.006H6.463v-0.021H6.457l-0.014-0.007L6.436,10.79
			L6.43,10.797H6.422V10.79l-0.014-0.008L6.394,10.79l-0.007-0.008H6.38H6.366H6.359v-0.006H6.352v-0.008l-0.014-0.014L6.33,10.748
			l-0.006,0.007H6.316L6.31,10.762v-0.007l-0.007,0.007v-0.007H6.296H6.289v-0.014H6.274l-0.007-0.007v-0.008L6.254,10.72h0.007
			l-0.015-0.014v0.007L6.24,10.706H6.232v-0.015v-0.007H6.227v0.007l-0.008-0.007v-0.014h0.008l-0.008-0.007h0.008l-0.008-0.007
			l0.008-0.014H6.219l0.008-0.008l-0.014,0.008l-0.009-0.008l-0.013-0.014v0.014l-0.008-0.007L6.17,10.615l-0.007-0.014v0.006v0.008
			v0.007l-0.014-0.007v-0.008v-0.006l-0.015,0.014l-0.006-0.014l-0.008,0.014l-0.008-0.014L6.1,10.615l-0.006-0.014l-0.015,0.014
			l-0.007-0.014H6.065l-0.007-0.008H6.051l-0.006-0.007H6.037l-0.008,0.007L6.023,10.58l-0.008,0.007v0.007l-0.021-0.021
			l0.007-0.014H5.995H5.981l-0.007,0.006L5.968,10.56l0.007-0.008H5.968L5.96,10.56l-0.006-0.008l-0.008-0.014l-0.007,0.007
			l-0.014-0.021l-0.008,0.008l0.008,0.007l-0.014,0.007l-0.008-0.007l0.008-0.007l-0.015,0.007v-0.007h0.007l0.008-0.008H5.884
			l-0.015-0.006v0.006v0.008l-0.014,0.007l-0.014-0.021l0.007-0.007H5.834H5.828H5.821l-0.008-0.007l-0.007,0.014v-0.021H5.799
			l-0.006,0.008v-0.015l-0.008,0.007v-0.021v-0.007l-0.006,0.007v-0.014h0.014l-0.014-0.015L5.765,10.44l-0.014-0.015H5.744
			l0.007,0.015H5.744l-0.007-0.015H5.73H5.723l-0.014,0.008l-0.021-0.008L5.681,10.42l-0.007,0.006H5.667L5.66,10.434H5.653v0.007
			v0.007L5.646,10.44H5.639l-0.014,0.007L5.617,10.44l-0.006,0.007L5.604,10.44v0.028L5.59,10.462l-0.006,0.007H5.575l0.009,0.014
			l-0.015-0.007v0.007H5.555l-0.007-0.007H5.534v0.014l-0.007-0.007v0.007l0.007,0.015l-0.014-0.008l-0.007,0.008h0.007H5.506H5.5
			v0.007l0.006,0.007L5.5,10.531H5.492l-0.008,0.007l-0.006-0.007H5.471l-0.007,0.007v0.007H5.451v0.007l-0.015-0.014v-0.007
			l0.007,0.007v-0.007L5.43,10.523v0.008H5.423v0.007L5.4,10.545v0.007l-0.006,0.014H5.38L5.373,10.58l-0.007-0.007L5.353,10.58
			l-0.015,0.014l-0.007-0.007v-0.014L5.317,10.58v-0.015H5.311v0.008L5.289,10.56H5.283v-0.015L5.275,10.56l-0.007-0.008
			l0.007,0.014H5.269v0.008H5.262L5.255,10.58l-0.008-0.007l-0.021,0.014L5.205,10.58H5.199l0.006,0.014H5.192H5.185H5.171H5.163
			v-0.007H5.15v0.007l-0.015-0.007L5.129,10.58v0.007l0.007,0.007l-0.007,0.008l-0.007-0.015H5.115l0.007,0.007l-0.007,0.008
			l-0.014-0.008v-0.007L5.094,10.58L5.08,10.587l0.007-0.007H5.059l-0.007-0.007H5.038v0.014H5.031H5.017v0.015l-0.014,0.006
			l0.007,0.008v0.007l-0.021,0.014l-0.007,0.008l0.007,0.014H4.982l-0.015-0.008L4.94,10.657v0.021l-0.015,0.007l0.015,0.007h0.006
			l0.008,0.007l-0.008,0.008H4.94l-0.007,0.007l0.013,0.007v0.007L4.94,10.734H4.926l-0.007,0.007l0.007,0.014l-0.007,0.007
			l-0.007-0.007l-0.008,0.014l0.008,0.008L4.904,10.79H4.898l-0.008,0.021l-0.014,0.008l-0.014-0.008L4.85,10.818l-0.021,0.006
			l-0.014,0.021H4.801L4.793,10.86H4.787l0.006,0.014l-0.006,0.007v0.007l0.006,0.007l0.015-0.007v0.007l-0.021,0.027L4.78,10.944
			l-0.015,0.014H4.758H4.751l-0.007,0.014v0.007H4.73l-0.007,0.042H4.717l-0.008-0.007l-0.007,0.007H4.688l-0.007,0.014
			l-0.014,0.007v0.021H4.646v0.007l-0.028-0.015l-0.014,0.015H4.584l-0.021,0.007h-0.02H4.534v0.007l-0.007-0.007l-0.014,0.015
			l-0.007-0.008l0.007,0.015h0.014v0.007H4.507l-0.014,0.007l-0.021-0.007v0.014l-0.007-0.007l0.007-0.007H4.465l-0.006,0.007
			l-0.008-0.007l-0.008,0.007L4.43,11.118v0.007H4.416v0.007l-0.007-0.007l-0.007,0.007l-0.007-0.007l-0.007-0.007H4.381
			l-0.014,0.021l-0.014-0.007v0.007l-0.008,0.008v0.006l-0.014-0.006l-0.014,0.021H4.304l0.008,0.021l-0.008,0.014L4.29,11.194
			l-0.015-0.021v-0.021L4.242,11.16l-0.029-0.014l0.008-0.015l-0.021-0.014l-0.007-0.007H4.179l-0.007-0.021l-0.029,0.007v-0.007
			l-0.006-0.021h0.006l0.008-0.007l-0.014-0.008l-0.008-0.014h0.008l-0.008-0.007l-0.006-0.014l-0.015-0.015H4.102v0.008
			l-0.021,0.007v-0.007H4.074v-0.008L4.06,11l0.007-0.008v-0.014v-0.007l0.008-0.007l0.007-0.007H4.074V10.95l-0.008-0.006v-0.009
			V10.93v-0.008H4.06v-0.014H4.053l-0.007-0.027v-0.015v-0.014l-0.015-0.007v-0.027l-0.014-0.015l-0.014,0.007l-0.015,0.028
			L3.857,10.72L3.76,10.782L3.738,10.79v-0.014L3.73,10.782l-0.006-0.006H3.717L3.71,10.769H3.703l-0.014-0.007v-0.027L3.676,10.72
			H3.661l-0.015,0.015L3.613,10.72v-0.035l-0.009-0.007l-0.013,0.007l-0.008-0.007l-0.007-0.007l0.007-0.021L3.55,10.657
			l-0.021-0.008l0.006-0.014l-0.006-0.014H3.508H3.5v-0.007H3.493H3.486v0.007l-0.014-0.007v-0.008H3.466v-0.014l-0.014-0.007V10.56
			l-0.015,0.006L3.43,10.56v-0.008l0.008-0.007l-0.014-0.007v-0.007L3.41,10.523l-0.008-0.006l0.008-0.007l-0.021-0.015v-0.007
			H3.382l-0.015-0.021H3.36v-0.015H3.354L3.333,10.44l-0.007-0.056l0.014-0.021l-0.007-0.007H3.326l-0.021,0.007H3.298v-0.007
			v-0.021H3.291v-0.006v-0.008v-0.015l0.015-0.014H3.291v-0.006v-0.008h0.015v-0.006H3.291v-0.021l0.007-0.007l0.008-0.014H3.291
			l-0.015-0.015V10.21H3.27H3.263v-0.015l0.007-0.013l-0.007-0.008l-0.007,0.008l-0.007-0.008l0.007-0.014l-0.007-0.008l0.007-0.006
			l0.007-0.015H3.256l0.007-0.027H3.256l0.007-0.008l-0.007-0.006l0.007-0.008H3.256l0.007-0.007l-0.014-0.021v-0.007v-0.028h0.014
			v-0.006v-0.008L3.256,9.986L3.249,9.973l0.007-0.028V9.931l0.007-0.042V9.875l0.028-0.063l0.007-0.007l0.008-0.014l0.027-0.014
			L3.34,9.755l0.027-0.014l0.015-0.014l0.015-0.028V9.686L3.382,9.664L3.367,9.637l0.015-0.034V9.595l0.007-0.007l0.008,0.007
			l0.006-0.007l0.021-0.014L3.416,9.566l0.008-0.034V9.511L3.41,9.49V9.462L3.389,9.469H3.382H3.375H3.36L3.34,9.455L3.333,9.497
			L3.318,9.511L3.291,9.524L2.928,9.504L2.222,9.477l-0.72-0.015L1.467,9.057L1.432,8.623L1.097,8.232L1.16,8.225h0.266l-0.028-0.51
			L1.376,7.722L1.349,7.708L1.342,7.674L1.334,7.659h0.008L1.334,7.646V7.632L1.327,7.623h0.007L1.327,7.617V7.604L1.32,7.596V7.582
			L1.299,7.575V7.568l0.008,0.007V7.562L1.285,7.548L1.292,7.54H1.285V7.526L1.278,7.52H1.271H1.265l0.007-0.007V7.506H1.265V7.499
			H1.258l0.007-0.007V7.484V7.471V7.463l0.007,0.008V7.463V7.457V7.442L1.265,7.449V7.442L1.258,7.449V7.442V7.436L1.251,7.442
			V7.436V7.429L1.244,7.436L1.236,7.429l0.008-0.008L1.23,7.415L1.223,7.4L1.215,7.394V7.387L1.209,7.379V7.365L1.201,7.358
			l0.008-0.008L1.201,7.337V7.331l0.014-0.008V7.317L1.201,7.31V7.295L1.194,7.289V7.275V7.261H1.181H1.174V7.254V7.24l0.007-0.007
			l0.007-0.008V7.219L1.181,7.205l0.014-0.008L1.181,7.184l0.014-0.006L1.188,7.17V7.163l0.007-0.007h0.007l0.014-0.008l0.021-0.021
			V7.121l0.008-0.014l0.014-0.015V7.087l0.007-0.015V7.059l0.007-0.008v0.008V7.051h0.014V7.044L1.278,7.037H1.251L1.236,7.017
			l0.008,0.007l0.007-0.015h0.007L1.251,7.003V6.995H1.244H1.236L1.223,6.988H1.215l0.008,0.007H1.215V6.961L1.209,6.946
			l0.006-0.007V6.933H1.209H1.201L1.194,6.939v0.007L1.188,6.939l0.007-0.007l0.007-0.008V6.911l0.008-0.006H1.194H1.188H1.181
			H1.174l0.021-0.021V6.877L1.181,6.884L1.174,6.877V6.869h0.007h0.014l0.007-0.007L1.188,6.855V6.849h0.007h0.007L1.194,6.842
			H1.174L1.167,6.834L1.16,6.842L1.152,6.834H1.131L1.146,6.82L1.139,6.813H1.131H1.117v0.014H1.11L1.104,6.813H1.09L1.097,6.8
			H1.083L1.09,6.793H1.076L1.068,6.786L1.062,6.793H1.055V6.778L1.048,6.786V6.778V6.771L1.034,6.757L1.027,6.771H1.02L1.014,6.778
			H1.006V6.771v0.007L0.992,6.771L0.978,6.757L0.971,6.736L0.964,6.743v0.014L0.95,6.743V6.729L0.943,6.723V6.716H0.95V6.708h0.007
			l0.007-0.006L0.957,6.694h0.007H0.957l0.007-0.006h0.007L0.964,6.681l0.007-0.007V6.666V6.66l0.014-0.008V6.646h0.008V6.639h0.014
			l0.008-0.014L1.02,6.633V6.625V6.618L1.027,6.61V6.604l0.021-0.008l0.014,0.008h0.007l0.008-0.008h0.007l0.021-0.014L1.11,6.576
			h0.007V6.568h0.014V6.548L1.16,6.527l0.021-0.007v0.007l0.007-0.007l0.014-0.007l0.008,0.007l0.027-0.007V6.506l0.021-0.021h0.007
			V6.479h0.014l0.007-0.015V6.443V6.436l0.014-0.007L1.285,6.415V6.394h0.007V6.388h0.007V6.374V6.366V6.359V6.353L1.292,6.338
			h0.007l0.008-0.014V6.317V6.311v0.007l0.007-0.007V6.296V6.29h0.014l0.007-0.021h0.008V6.24h0.007V6.227l0.014-0.021V6.198V6.185
			h0.007h0.007l0.028-0.035L1.39,6.143l0.008-0.014L1.39,6.121V6.115V6.107L1.384,6.101L1.39,6.094V6.079h0.015l0.014-0.021h0.008
			l0.006-0.014V6.031h0.015l0.007-0.008H1.46v-0.02l0.007-0.009l0.008-0.014l0.007-0.006V5.968l0.007-0.007l0.021,0.007l0.007-0.007
			h0.008h0.006l0.008,0.007l0.006-0.014h0.016l0.014-0.042l0.021-0.021L1.6,5.87L1.593,5.821L1.6,5.786V5.758L1.586,5.724V5.717
			V5.703L1.6,5.667V5.639l0.014-0.021V5.604L1.606,5.591l0.015-0.014l0.014-0.008h0.008l0.006-0.021V5.535l0.008-0.007L1.67,5.514
			l0.007-0.007L1.705,5.5l0.021-0.028l0.02-0.007V5.458V5.45h0.008V5.444h0.014h0.007l0.007-0.008v0.008l0.015-0.008l0.007,0.008
			L1.816,5.45L1.83,5.444l0.007-0.008l0.007-0.014L1.837,5.388l0.015-0.014V5.36l0.008-0.008h0.006V5.339L1.88,5.325V5.318
			l0.014-0.014l0.021-0.008L1.796,5.199H1.789V5.192V5.186L1.781,5.172V5.164L1.774,5.144V5.13l0.007-0.008V5.115V5.102V5.06
			L1.768,5.038H1.761L1.754,5.018L1.732,5.004H1.727V4.996H1.718V4.99L1.712,4.982V4.969H1.697l0.008-0.014L1.712,4.94V4.934
			L1.697,4.927h0.008h0.007V4.92L1.705,4.913l0.007-0.007L1.69,4.893h0.007V4.885V4.878L1.69,4.863L1.697,4.85L1.69,4.843H1.684
			L1.67,4.821L1.656,4.829L1.648,4.821L1.643,4.829L1.635,4.821L1.628,4.829L1.613,4.821L1.6,4.815V4.808V4.801L1.593,4.794V4.787
			H1.586V4.779H1.579v0.008V4.773V4.766L1.572,4.759L1.564,4.766l0.015-0.007L1.572,4.745h0.007L1.572,4.737l0.007-0.006
			L1.572,4.724h0.007V4.717H1.564L1.572,4.71V4.703H1.564V4.696h0.008V4.689V4.682H1.564V4.668L1.559,4.647L1.564,4.64L1.551,4.634
			l0.008-0.008V4.619V4.605L1.551,4.599h0.008V4.578V4.57V4.557h0.006L1.559,4.549l0.006-0.014H1.559l0.006-0.006L1.559,4.515
			l0.006-0.007L1.559,4.5l0.006-0.007h0.008h0.007L1.572,4.486h0.014L1.579,4.479h0.007L1.579,4.473l0.007-0.008v0.008l0.007-0.008
			H1.6V4.459l0.021-0.008V4.445l0.014-0.021l0.014-0.015V4.403V4.396l0.008,0.008l0.007-0.008L1.67,4.389l0.007-0.008L1.69,4.375
			L1.705,4.34h0.021l0.006-0.007l0.007-0.008h0.007l0.008-0.006V4.312l0.007-0.014V4.291V4.277L1.754,4.256l0.007-0.007H1.754
			l0.007-0.007V4.229L1.754,4.207L1.732,4.2L1.718,4.187V4.172L1.712,4.158V4.145L1.697,4.123V4.103V4.088h0.008l0.007-0.007
			l0.006-0.007H1.712V4.066H1.697L1.69,4.053V4.047L1.684,4.039V4.032h0.014L1.69,4.019l0.007,0.007l0.008-0.021L1.69,3.997v0.008
			H1.677H1.663V3.997L1.656,4.011H1.648L1.643,3.997L1.635,4.005L1.606,4.011L1.6,3.983L1.593,3.977L1.586,3.983v0.008H1.579H1.572
			L1.564,3.983L1.559,3.991L1.543,3.983L1.529,3.991L1.523,3.983L1.516,3.977L1.495,3.983H1.488L1.481,3.997L1.467,3.991H1.46
			L1.446,3.983L1.432,3.977H1.426H1.404H1.397L1.39,3.97V3.963V3.949V3.941H1.384H1.376L1.369,3.935L1.362,3.941H1.355L1.334,3.963
			L1.32,3.955l0.007,0.008L1.32,3.983h0.007L1.32,3.991L1.299,3.977H1.292H1.285H1.278L1.271,3.97V3.963L1.265,3.955V3.949H1.258
			H1.251l0.007-0.021L1.251,3.921L1.236,3.914L1.23,3.921H1.223L1.23,3.893H1.223L1.215,3.886V3.864H1.209h-0.56h-0.44L0.084,3.857
			V3.851h0.014h0.007V3.83l0.007-0.008V3.809l0.007-0.021V3.773H0.111V3.76L0.104,3.752h0.007V3.725V3.711l0.015-0.007V3.683
			l0.006-0.014L0.126,3.655l0.006-0.007L0.14,3.641v0.008l0.007,0.007v0.007H0.16L0.153,3.648L0.16,3.627L0.153,3.62V3.606
			L0.146,3.592V3.585L0.16,3.578V3.571H0.153L0.14,3.558V3.536l0.007-0.007h0.007V3.521V3.508V3.494V3.487L0.146,3.479L0.16,3.459
			L0.153,3.445L0.16,3.438L0.153,3.418l0.015-0.015V3.39L0.153,3.376V3.334l0.015-0.028L0.16,3.299l0.008-0.007l0.006-0.035H0.168
			H0.16V3.25l0.008-0.008L0.153,3.235L0.146,3.229H0.14L0.132,3.215V3.187H0.126L0.118,3.166H0.111H0.098L0.09,3.151H0.084
			L0.076,3.138L0.09,3.131L0.076,3.109L0.062,3.089L0.056,3.075V3.054V3.048V3.033l0.028-0.007L0.076,3.02V3.006V2.998L0.056,2.991
			V2.984H0.035V2.978l0.007-0.035V2.929l0.006-0.015V2.9h0.008L0.048,2.879l0.008-0.007V2.865l0.021-0.015L0.09,2.816V2.81
			l0.015-0.007V2.781L0.098,2.774l0.007-0.014h0.007V2.753L0.104,2.747l0.007-0.008V2.712l0.015-0.015v-0.02V2.67L0.118,2.648V2.628
			L0.104,2.621l0.007-0.015V2.6L0.098,2.593L0.084,2.586l0.021-0.028V2.537L0.076,2.522H0.062L0.056,2.516l0.028-0.014L0.09,2.509
			h0.015l0.007-0.014l0.021-0.007V2.474L0.126,2.453H0.14l0.014-0.028L0.16,2.419H0.153V2.411L0.146,2.419H0.14L0.132,2.404
			L0.14,2.369V2.362H0.132V2.355H0.126V2.327H0.118V2.313L0.104,2.32L0.084,2.3V2.293l0.027-0.008L0.069,2.264L0.062,2.258
			L0.056,2.25V2.243L0.048,2.236l0.021-0.021h0.007V2.201l0.008-0.007L0.069,2.174l0.015-0.008L0.069,2.159L0.056,2.146H0.035
			L0.021,2.139V2.132L0.006,2.139V2.118V2.11l0.008-0.014L0.021,2.09L0.014,2.076l0.007-0.021V2.048L0.006,2.055L0,2.048z"/>
		<path id="Mato_Grosso_do_Sul" fill="#E8ECEC" d="M3.703,12.949l0.154-0.321l0.104-0.231h0.077l0.014-0.02H4.046l0.007-0.015
			l-0.014-0.015l-0.008-0.007H4.024v-0.083h-0.05l0.218-0.699l0.104-0.007v-0.007l-0.014-0.008L4.275,11.53v-0.007v-0.007
			L4.27,11.51l-0.007,0.007L4.248,11.51v0.007l-0.076-0.069l-0.008-0.028L4.15,11.355l-0.126-0.237h0.042v-0.021l-0.042-0.035
			l0.015-0.042l-0.015-0.015H4.018l-0.014-0.027H3.997l-0.014-0.034l-0.015-0.009l-0.007-0.014l0.007-0.014v-0.014v-0.007
			l-0.007,0.007v-0.007l0.007-0.014H3.955h0.007l0.007-0.014l-0.014,0.006V10.86l0.007-0.008v-0.007l-0.015-0.007v-0.007h0.008
			l0.034,0.007l0.015-0.028l0.014-0.007l0.014,0.015v0.027l0.015,0.007v0.014v0.015l0.007,0.027H4.06v0.014h0.007v0.008v0.006v0.009
			l0.008,0.006v0.008h0.007l-0.007,0.007l-0.008,0.007v0.007v0.014L4.06,11l0.015,0.006v0.008h0.007v0.007l0.021-0.007v-0.008h0.007
			l0.015,0.015l0.006,0.014l0.008,0.007H4.129l0.008,0.014l0.014,0.008l-0.008,0.007H4.137l0.006,0.021v0.007l0.029-0.007
			l0.007,0.021h0.014l0.007,0.007l0.021,0.014l-0.008,0.015l0.029,0.014l0.033-0.008v0.021l0.015,0.021l0.014,0.008l0.008-0.014
			l-0.008-0.021h0.015l0.014-0.021l0.014,0.006v-0.006l0.008-0.008v-0.007l0.014,0.007l0.014-0.021h0.008l0.007,0.007l0.007,0.007
			l0.007-0.007l0.007,0.007v-0.007H4.43v-0.007l0.014-0.007l0.008-0.007l0.008,0.007l0.006-0.007h0.007l-0.007,0.007l0.007,0.007
			v-0.014l0.021,0.007l0.014-0.007h0.021v-0.007H4.514l-0.007-0.015l0.007,0.008l0.014-0.015l0.007,0.007v-0.007h0.009h0.02
			l0.021-0.007h0.021l0.014-0.015l0.028,0.015v-0.007h0.021v-0.021l0.014-0.007l0.007-0.014h0.014l0.007-0.007l0.008,0.007h0.007
			l0.007-0.042h0.014v-0.007l0.007-0.014h0.007h0.008l0.015-0.014l0.007-0.022l0.021-0.027v-0.007l-0.015,0.007l-0.006-0.007v-0.007
			l0.006-0.007L4.787,10.86h0.006l0.008-0.015h0.014l0.014-0.021l0.021-0.006l0.014-0.008l0.014,0.008l0.014-0.008l0.008-0.021
			h0.006l0.008-0.014l-0.008-0.008l0.008-0.014l0.007,0.007l0.007-0.007l-0.007-0.014l0.007-0.007H4.94l0.006-0.008V10.72
			l-0.013-0.007l0.007-0.007h0.006l0.008-0.008l-0.008-0.007H4.94l-0.015-0.007l0.015-0.007v-0.021l0.027-0.008l0.015,0.008h0.007
			l-0.007-0.014l0.007-0.008l0.021-0.014v-0.007l-0.007-0.008l0.014-0.006v-0.015h0.015h0.007v-0.014h0.014l0.007,0.007h0.028
			L5.08,10.587l0.014-0.007l0.008,0.007v0.007l0.014,0.008l0.007-0.008l-0.007-0.007h0.007l0.007,0.015l0.007-0.008l-0.007-0.007
			V10.58l0.007,0.007l0.015,0.007v-0.007h0.013v0.007h0.008h0.014h0.008h0.013L5.199,10.58h0.006l0.021,0.007l0.021-0.014
			l0.008,0.007l0.007-0.007h0.007v-0.008h0.007l-0.007-0.014l0.007,0.008l0.008-0.015v0.015h0.006l0.021,0.014v-0.008h0.007v0.015
			l0.014-0.007v0.014l0.007,0.007l0.015-0.014l0.014-0.007l0.007,0.007l0.007-0.015h0.015L5.4,10.552v-0.007l0.022-0.007v-0.007
			H5.43v-0.008l0.014,0.008v0.007l-0.007-0.007v0.007l0.015,0.014v-0.007h0.013v-0.007l0.007-0.007h0.008l0.006,0.007l0.008-0.007
			H5.5l0.006-0.014L5.5,10.511v-0.007h0.006h0.015H5.514l0.007-0.008l0.014,0.008l-0.007-0.015v-0.007l0.007,0.007v-0.014h0.014
			l0.007,0.007h0.015v-0.007l0.015,0.007l-0.009-0.014h0.009l0.006-0.007l0.014,0.007V10.44l0.008,0.007l0.006-0.007l0.008,0.007
			l0.014-0.007h0.007l0.008,0.007V10.44v-0.007H5.66l0.007-0.008h0.007l0.007-0.006l0.007,0.006l0.021,0.008l0.014-0.008H5.73h0.007
			l0.007,0.015h0.007l-0.007-0.015h0.007l0.014,0.015l0.015,0.007l0.014,0.015H5.779v0.014l0.006-0.007v0.007v0.021l0.008-0.007
			v0.015l0.006-0.008h0.008v0.021l0.007-0.014l0.008,0.007h0.007h0.006h0.015l-0.007,0.007l0.014,0.021l0.014-0.007v-0.008v-0.006
			l0.015,0.006h0.028l-0.008,0.008H5.897v0.007l0.015-0.007l-0.008,0.007l0.008,0.007l0.014-0.007l-0.008-0.007l0.008-0.008
			l0.014,0.021l0.007-0.007l0.008,0.014L5.96,10.56l0.008-0.008h0.007L5.968,10.56l0.007,0.006l0.007-0.006h0.014h0.007
			l-0.007,0.014l0.021,0.021v-0.007l0.008-0.007l0.006,0.014l0.008-0.007h0.008l0.006,0.007h0.008l0.007,0.008h0.007l0.007,0.014
			l0.015-0.014L6.1,10.615l0.014-0.014l0.008,0.014l0.008-0.014l0.006,0.014l0.015-0.014v0.006v0.008l0.014,0.007v-0.007v-0.008
			v-0.006l0.007,0.014l0.014,0.014l0.008,0.007v-0.014l0.013,0.014l0.009,0.008l0.014-0.008l-0.008,0.008h0.008l-0.008,0.014
			l0.008,0.007H6.219l0.008,0.007H6.219v0.014l0.008,0.007v-0.007h0.006v0.007v0.015H6.24l0.006,0.007v-0.007l0.015,0.014H6.254
			l0.014,0.007v0.008l0.007,0.007h0.015v0.014h0.007h0.007v0.007l0.007-0.007v0.007l0.007-0.007h0.008l0.006-0.007l0.008,0.007
			l0.014,0.014v0.008h0.008v0.006h0.007H6.38h0.007l0.007,0.008l0.015-0.008l0.014,0.008v0.007H6.43l0.006-0.007l0.008,0.007
			l0.014,0.007h0.006v0.021h0.015v-0.006v0.006l0.015,0.008v-0.008H6.484l0.008-0.006l0.006,0.006l0.021-0.006h0.007L6.52,10.824
			l0.014,0.008l-0.007,0.007l0.007-0.007v0.007h0.008h0.006v-0.007l0.008,0.007l-0.008,0.007l0.008,0.007h0.007v0.008h0.007v0.014
			l0.006-0.008l-0.006,0.008l0.006,0.007v-0.007l0.009,0.007v-0.007h0.006v0.007l0.015,0.007v0.007l-0.007-0.007v0.007h0.021v0.007
			h0.007v0.007l0.015-0.007l0.007,0.007v0.008h0.007l-0.007,0.006h0.007v-0.006l0.006,0.006h0.008h0.015v0.008l0.014,0.006
			l0.014-0.014l0.007-0.014l0.008,0.008v-0.008l0.006,0.008l0.008-0.008l0.006,0.008v-0.008l0.008,0.008l0.008,0.006h0.006h0.008
			h0.007v-0.006v0.006h0.014l0.007-0.006v0.006v-0.006h0.007v-0.008l0.007,0.008v-0.008l0.015,0.008l0.006,0.006v-0.006l0.009-0.015
			l0.006,0.007l0.007-0.014l0.008,0.007v-0.007h0.013l0.008-0.007h0.035h0.007l0.007,0.014l0.014-0.007l0.021,0.007l0.014-0.007
			h0.008l0.021-0.007v-0.007v-0.007h0.007l0.014-0.014h0.007l0.015-0.015h0.014h0.008v-0.007l0.006-0.007H7.072l0.006-0.014v-0.008
			l0.008-0.014l0.021-0.007h0.007H7.12l0.014-0.008v-0.014l0.009,0.008l0.013,0.006v-0.006h0.007l0.014-0.008l0.008-0.007
			l0.014,0.007l0.021-0.007l0.028-0.014l0.007-0.007l0.014,0.007v0.007l0.007-0.007l0.008,0.014l0.021-0.014h0.007l0.008,0.007
			h0.021l0.014,0.007h0.007v0.007h0.008l-0.008,0.014h0.008v0.008l0.008,0.014l0.034,0.007l0.007,0.008l0.007-0.008l0.007,0.008
			v0.006l0.007,0.008l0.007,0.007l0.021,0.007v0.007v0.008l-0.006-0.008v0.014l0.006,0.008l-0.006,0.007h0.006v0.007h0.009
			l-0.009,0.021l-0.006,0.008l0.015,0.006l0.02,0.014V10.93v0.006h0.008l0.014,0.009h0.007h0.007H7.54h0.006l0.008-0.009h0.007
			h0.014l0.008-0.006l0.014-0.008l0.007-0.014h0.014l0.007-0.007h0.015l0.007-0.007h0.007l0.007-0.007l0.014-0.007l0.007,0.007
			h0.015l0.008,0.007l0.006-0.007l0.008,0.014l0.014-0.007l0.007,0.007v-0.007v0.007l0.007-0.007h0.014l0.016,0.007l0.006-0.007
			l-0.006-0.007l0.006-0.014v-0.008l0.021-0.021v-0.007v-0.015l0.006-0.014v-0.007H7.799v-0.007V10.79v-0.014l0.006,0.006v-0.006
			h0.008l0.007-0.015l0.007-0.014l0.028-0.007h0.007l0.007,0.007l0.007-0.007h0.008v-0.007l0.02-0.008L7.91,10.72l0.015-0.014
			l0.006-0.008l0.008-0.007l0.007-0.007l0.027-0.027l0.007-0.014l0.007-0.008l0.043-0.014l-0.008-0.021l0.008-0.021l0.007-0.007
			l0.007-0.021l0.014-0.007h0.021l0.014-0.021L8.1,10.518v-0.014h0.006h0.008l0.014-0.015l0.027-0.007l0.015,0.007v0.015
			l0.014,0.007l-0.021,0.434H8.154L8.141,10.95l-0.014-0.006l-0.014,0.014H8.105H8.084H8.078H8.063H8.057L8.05,10.965l-0.034,0.014
			l-0.015,0.007v0.021l-0.007,0.008l-0.015,0.007v0.007l-0.007,0.007l-0.014,0.028v0.007l-0.007,0.014l-0.007,0.015l-0.028,0.034
			v0.015L7.91,11.152l-0.008,0.015v0.007v0.007l0.008,0.014l-0.008,0.008H7.91l-0.008,0.014l0.008,0.007v-0.007h0.007l0.008-0.007
			l0.006,0.007h0.015h0.007v-0.007h0.007h0.014l0.007,0.014h0.007l-0.007-0.007h0.007v0.015l0.015-0.008l0.007,0.008v0.006
			l0.008-0.006v0.006h0.006v0.008h0.008l0.007,0.007v0.007v0.007l0.007-0.007H8.05v0.007v0.008h0.007v0.006h0.007H8.07l-0.007,0.008
			H8.07v0.007L8.078,11.3l0.006,0.007L8.12,11.3h0.007l0.006,0.007L8.141,11.3h0.007v0.007h0.014l0.008,0.015l0.006-0.015
			L8.183,11.3l0.007-0.007l0.014-0.007v-0.008h0.028l0.007,0.008v-0.008h0.015v0.008L8.26,11.3l0.021,0.007v0.008h0.015l0.006-0.008
			h0.008v0.015h0.014l0.015,0.007h0.014l0.007,0.007h0.007l0.007,0.007l0.014,0.007l0.007-0.007h0.007l0.008-0.014l0.007-0.007V11.3
			H8.42v-0.007L8.428,11.3v-0.007l0.006-0.007v0.007l0.008-0.007v0.007h0.007v-0.007L8.455,11.3l0.007-0.007V11.3H8.47l0.021,0.015
			l0.021-0.008l0.02,0.008h0.008l0.007-0.008L8.574,11.3l0.041,0.007l0.021,0.008h0.008l0.014,0.007l0.014,0.007h0.007l0.007,0.014
			l0.021,0.007h0.104l-0.008,0.007l-0.006,0.008H8.791H8.762L8.756,11.37l-0.014,0.007l-0.008,0.014l0.008,0.021l0.007,0.042v0.021
			l0.021,0.062v0.027l0.007,0.028v0.042l0.035,0.035H8.84l0.014,0.008H8.86l0.007-0.028l0.035-0.021l0.034-0.008h0.029l0.048,0.014
			h0.049H9.07l0.02,0.008l0.015,0.007l0.021,0.014v0.007l0.007,0.008l-0.007,0.021L9.104,11.72L9.09,11.748l-0.041,0.006H9.027
			H9.021l-0.007,0.008v0.006l-0.006,0.028L8.986,11.81l-0.007,0.014l-0.007,0.021l-0.028,0.007L8.924,11.88v0.007l0.006,0.015v0.014
			l0.015,0.014l0.007,0.015l-0.007,0.014h0.021l0.007,0.007v0.021l0.041,0.008l0.028,0.014v0.007h0.007l0.014,0.007l0.015-0.007
			l0.027,0.014h0.021l0.015,0.008h0.021l0.013,0.006l0.036-0.014h0.007l0.035,0.008l0.006,0.006l0.016-0.006h0.027l0.007-0.008
			l0.021-0.014l0.014-0.007v-0.007h0.021l0.015,0.007v0.007l0.021,0.007l0.028,0.015h0.027l0.021,0.042v0.006l0.015,0.008v0.007
			v0.007l0.014,0.007v0.008l0.021,0.02v0.008h0.014l-0.007,0.007h0.021v0.014H9.545h0.014v0.008h0.008v0.006l0.014,0.008
			l0.015,0.007h0.014V12.18h0.021l0.014,0.008V12.18l0.014,0.015h0.029l0.014,0.008v0.006l0.007-0.006v0.006l0.014-0.006h0.007
			v0.006h0.007v0.008l0.008,0.006v0.015h0.007l0.007,0.008l0.007,0.006H9.77l0.006,0.008h0.008l0.014,0.006v-0.006l0.007,0.006
			v0.015l0.007,0.007H9.804l0.014,0.014h0.008H9.817v0.008h0.008l0.007,0.007h0.014l0.007-0.007l0.007,0.007h0.007l0.007,0.007
			v0.007V12.32l0.014,0.007h0.008l0.008,0.007l-0.008,0.007v0.007l0.008-0.007l0.006-0.007l0.008-0.007v0.007H9.93l0.007,0.007
			h0.007H9.95l-0.007-0.014l0.007,0.007l0.007,0.007h0.008h0.006v-0.007l0.008,0.007h0.014v0.007H10l0.007,0.015h0.013l0.008,0.015
			v0.006h0.007l0.007,0.014h0.007v0.008l0.014,0.014h0.008V12.41h0.007h0.007l-0.007,0.008v0.007h0.021l0.027,0.014h-0.007
			l0.014,0.008h-0.007l0.015,0.006l0.006-0.006l0.015,0.014h0.014h0.008h-0.008v0.007h0.008v0.008l0.006-0.008l0.008,0.014h0.007
			l0.007-0.006l0.007,0.006h-0.007l0.014,0.014l0.008-0.006l0.034,0.021l0.015-0.007h0.008l0.014,0.007h0.014v0.007l0.014-0.007
			l0.007-0.007h0.014v0.007h0.021l0.007,0.007h0.007h0.015l0.021,0.007h0.007v0.008l0.007,0.006h0.014l0.008-0.006l0.014,0.014
			l0.007-0.008h0.007l0.007,0.008h0.014h0.008l0.006,0.007h0.008l-0.008,0.008h0.008v0.006h0.007l0.007,0.008h0.021v0.006v0.008
			l0.007,0.007V12.6l0.021-0.007L10.6,12.6h0.029v0.021h0.007l0.007,0.007l0.007,0.007l0.007-0.007v0.014l0.021,0.007l0.008,0.007
			l0.007-0.007h0.014v-0.007h0.008h0.006l0.008,0.007l0.007-0.007v0.007h0.014l0.007,0.014l0.015,0.008h0.027l0.015,0.014h0.014
			l0.007,0.007h0.014h0.007v0.007l0.021,0.014v0.008l0.007-0.008l0.007,0.008l0.014,0.014v0.015h0.008l0.006,0.021l0.008,0.007
			v0.007l-0.014,0.008l0.021,0.006l0.006-0.006l0.008,0.006l-0.008,0.008h0.021v0.02h0.021l0.014,0.015l0.007,0.008l0.008,0.007
			v0.007l-0.015,0.007l-0.014,0.014v0.014l0.035,0.05l0.007,0.014v0.021v0.015h-0.014h-0.008l-0.021-0.007h-0.007l-0.014,0.007
			l-0.008,0.014l-0.02,0.057l-0.008,0.007l-0.014,0.027L10.9,13.131l-0.006,0.007v0.007l0.02,0.021L10.9,13.187l0.008,0.015v0.006
			l0.014,0.015v0.035v0.027l0.008,0.015l0.014,0.021v0.007v0.008v0.006l-0.021,0.05l0.014,0.034v0.028l-0.006,0.021l-0.008,0.007
			l0.014,0.021l0.008,0.015v0.014l-0.029,0.056l-0.02,0.049l-0.015,0.042l-0.007,0.015l-0.035,0.027l-0.014,0.007l-0.014,0.014
			l-0.015,0.008h-0.007l-0.021,0.006L10.74,13.76h-0.041l-0.063,0.014l-0.021,0.015l-0.021,0.014h-0.008l-0.007,0.007l-0.007,0.027
			l-0.014,0.008l-0.035,0.062v0.007L10.51,13.92l-0.028,0.021l-0.014,0.014l-0.035,0.056l-0.007,0.021l-0.021,0.021l-0.049,0.028
			l-0.007,0.008l-0.007,0.006v0.008l-0.007,0.007l-0.007,0.007l-0.035,0.076l-0.006,0.035l0.014,0.021v0.007v0.007l-0.008,0.035
			v0.035l0.008,0.021l0.014,0.014l-0.008,0.05l-0.006,0.014l-0.043,0.028h-0.007h-0.042l-0.014,0.006L10.167,14.5l-0.007,0.021
			l-0.015,0.021v0.021l-0.014,0.036l-0.021,0.007l-0.007,0.014h-0.007l-0.021,0.007h-0.028l-0.007,0.008l-0.007,0.014l0.007,0.034
			l-0.007,0.015l0.007,0.007l0.015,0.021l0.006,0.042l0.008,0.008l-0.008,0.034l-0.006,0.028v0.007v0.007v0.007l-0.008,0.007
			l-0.041,0.035L10,14.927l-0.008,0.021l-0.006,0.021L9.965,14.99L9.95,15.01l-0.007,0.008l-0.027,0.014H9.895l-0.042-0.007H9.846
			l-0.014,0.007L9.817,15.06L9.804,15.08l0.007,0.014l0.035,0.028v0.021l0.014,0.027v0.021v0.008l-0.027,0.049l-0.015,0.014
			l-0.007,0.015L9.77,15.29l-0.021,0.015l-0.021,0.048v0.014L9.72,15.389l-0.049,0.033l-0.015,0.022l-0.014,0.007v0.007H9.629
			L9.595,15.5l-0.007,0.021l-0.029,0.091L9.524,15.66l-0.014,0.015l-0.008,0.006l-0.007,0.022l-0.049,0.034L9.44,15.744L9.42,15.765
			l-0.008,0.015H9.405l-0.007,0.007l-0.021,0.007L9.35,15.807l-0.035,0.008l-0.021,0.021l-0.021,0.014l-0.016,0.008l-0.02,0.014
			l-0.042,0.014l-0.028,0.021l-0.021,0.007L9.09,15.947l-0.006,0.014l-0.035,0.028l-0.014,0.028H9.027L9,16.031l-0.056,0.014
			l-0.008,0.007H8.93l-0.041,0.021l-0.015,0.02l-0.007,0.008l-0.042,0.014l-0.007,0.007l-0.021,0.021l-0.021,0.028L8.77,16.185
			v0.007v0.007l0.007,0.007L8.756,16.24H8.749l-0.05,0.063l-0.014,0.014l-0.007,0.007H8.658H8.637v0.007H8.629l-0.062,0.021
			l-0.021,0.008l-0.015,0.007l-0.014,0.007L8.512,16.38l-0.015,0.021L8.47,16.408H8.462v0.007l-0.021,0.021L8.42,16.443
			l-0.035,0.021l-0.034,0.014l-0.014,0.008l-0.015,0.007l-0.014,0.021v0.007l-0.014,0.015L8.28,16.541L8.26,16.555l-0.007,0.028
			L8.231,16.61v0.015v0.119l-0.028,0.027v0.015l-0.028,0.041l-0.014,0.05l-0.014,0.034v0.007l-0.015,0.028L8.1,16.995l-0.008,0.007
			l-0.049,0.015l-0.063,0.042l-0.055,0.027l-0.029-0.007l-0.007,0.007l-0.014,0.007V17.1l-0.028,0.049v0.043l-0.014,0.042
			l-0.007,0.042l-0.007,0.027l-0.007,0.015l-0.008,0.021l-0.006,0.041v0.008l-0.021,0.034l-0.006,0.042l-0.009,0.021l0.009,0.007
			l-0.009,0.015l0.009,0.021v0.027L7.75,17.617l-0.008,0.014l-0.021,0.021l-0.042,0.021l-0.076,0.056l-0.028,0.006H7.567
			l-0.007,0.008l-0.028-0.021v-0.014l-0.007-0.015V17.68l-0.021-0.006L7.49,17.68l-0.014-0.014l-0.015-0.007l-0.021-0.021
			l-0.014-0.007l-0.014-0.035v-0.014l-0.007-0.007l-0.015-0.007l-0.035-0.007L7.337,17.54v0.007H7.33H7.323L7.309,17.54H7.302
			l-0.015-0.007L7.267,17.54v-0.007l0.007-0.014l-0.021-0.008v-0.014l-0.014,0.008l-0.007,0.006H7.226l-0.008-0.014H7.212
			l-0.008-0.007H7.19l-0.007-0.015H7.17L7.162,17.47l-0.014,0.021l-0.015,0.015v0.014l-0.007,0.007l-0.041,0.007V17.52H7.072
			l-0.008,0.007H7.059l-0.008,0.007H7.036v0.007l-0.014,0.007l-0.007,0.007l-0.021-0.007L6.98,17.562v0.014l-0.007-0.007
			l-0.021,0.007l-0.008-0.014H6.938l-0.007,0.014H6.918v0.015H6.903v0.006v0.008l-0.007,0.006l0.007,0.021H6.89v0.007l-0.007-0.007
			H6.875H6.862l-0.015-0.007l-0.006,0.007l-0.015-0.007L6.82,17.631l-0.015,0.007l-0.014,0.008l-0.014,0.007H6.771l-0.008,0.014
			L6.75,17.659v-0.007l-0.008,0.007l-0.014-0.007l-0.006-0.015l-0.008-0.007l-0.014,0.015H6.694v0.007l-0.014,0.007H6.674
			l-0.008-0.007l-0.008,0.007l-0.02,0.007v-0.007H6.624l-0.007,0.007v0.008H6.574l-0.02-0.008v-0.007H6.547v-0.007H6.541
			l-0.008-0.007l-0.021-0.015H6.498l-0.021,0.035H6.471l-0.014-0.007L6.45,17.652H6.436v-0.015H6.43l-0.008,0.008H6.414
			l-0.006-0.008H6.4l-0.007-0.007v-0.014v-0.008H6.38l0.007-0.014l-0.021-0.014l0.007-0.014L6.38,17.54l-0.007-0.014v-0.035v-0.007
			l-0.007-0.008l0.014-0.027v-0.021l-0.014-0.014h0.007L6.366,17.4l0.007-0.021l0.007-0.006l-0.007-0.008H6.366l-0.007,0.008
			l-0.008-0.008l-0.007-0.006l0.007-0.021l-0.007-0.007H6.338v-0.028L6.33,17.289l-0.006,0.007l-0.008-0.007l-0.014-0.008v-0.006
			l-0.021,0.006l-0.008-0.006v-0.008v-0.028l0.008-0.014v-0.007l0.007-0.007l-0.015-0.015v-0.014L6.268,17.17v-0.008l-0.007-0.021
			l-0.007-0.014H6.246v-0.007v-0.007h0.015l0.007-0.021l-0.007-0.007l0.035-0.041l0.007-0.036l-0.007-0.014H6.289V16.98L6.274,16.96
			l-0.021-0.014l0.007-0.014l-0.007-0.021v-0.007l0.021-0.007l0.015-0.015l-0.007-0.006H6.274l-0.007-0.008l0.007-0.007
			l-0.014-0.021h0.014l0.008-0.015l0.007-0.007L6.268,16.8v-0.021l-0.014-0.007L6.24,16.765H6.232l-0.02,0.007V16.75v-0.014
			l-0.009-0.015l-0.013-0.027h0.007v-0.021l-0.007-0.007l0.007-0.007l-0.007-0.008l-0.008-0.007L6.17,16.639l0.007-0.028
			L6.17,16.604l0.014-0.008L6.17,16.568v-0.006v-0.008H6.156l0.007-0.007l-0.007-0.007l0.007-0.014l-0.007-0.021v-0.014
			l-0.014-0.007l0.007-0.015L6.143,16.45l0.007-0.007v-0.021v-0.007v-0.007l0.007-0.007v-0.014L6.17,16.38v-0.014l0.007-0.007
			l0.015,0.007v-0.007l-0.008-0.008v-0.006l0.008-0.008v-0.007l0.007-0.021L6.191,16.29l0.007-0.008l-0.007-0.015v-0.02L6.184,16.24
			V16.22l-0.021-0.021l-0.021-0.014l-0.008-0.007H6.121l-0.008-0.015l-0.006-0.014l-0.028-0.014L6.059,16.08v-0.015l-0.008-0.014
			l0.008-0.014h0.007v-0.007l0.007-0.021l-0.007-0.028l-0.007-0.006l0.007-0.008l-0.007-0.007l-0.021-0.007l-0.008,0.007
			l-0.006-0.007l-0.008,0.007L6.01,15.954l-0.015-0.007l0.007-0.014v-0.008l-0.027-0.014l-0.007-0.021L5.96,15.863l-0.014-0.015
			H5.904l-0.021-0.007l-0.008,0.007l-0.007-0.007l-0.014,0.007l-0.007,0.008H5.842H5.828l-0.015-0.015l-0.021,0.007v0.015H5.785
			l-0.006-0.007l-0.028-0.008l-0.014-0.007H5.73l-0.008,0.007H5.709l-0.008,0.008l0.008-0.008H5.701H5.694l-0.021-0.014H5.667v0.007
			L5.66,15.849H5.653H5.639H5.632l-0.007,0.008l-0.008-0.008v-0.007H5.604v0.007l-0.007-0.014L5.59,15.842H5.584H5.575v-0.007
			L5.555,15.82v-0.014l-0.007-0.006H5.527l-0.007-0.008l-0.007,0.008L5.5,15.786l-0.016-0.007l-0.006-0.007l-0.008,0.007
			l-0.014-0.015v-0.006H5.451l-0.008-0.015v-0.007H5.437V15.73L5.43,15.737L5.423,15.73l-0.007-0.021v-0.006v-0.008v-0.015
			L5.4,15.675h0.008L5.4,15.667V15.66l-0.014-0.007l0.008-0.007v-0.021l-0.008,0.008H5.38H5.366v0.006l-0.007-0.006l-0.007,0.006
			l-0.007-0.006l-0.008,0.006l-0.007-0.006v0.006H5.325v-0.006H5.317v0.006l-0.007-0.006l-0.007,0.014H5.283l-0.008,0.007v0.007
			H5.262v0.015l-0.007,0.006v0.008l0.007,0.007H5.255v0.014l-0.014-0.006v0.014h0.006L5.227,15.73v0.014L5.22,15.751l0.007,0.008
			H5.22l-0.007,0.014l-0.008-0.008H5.199v0.008H5.192l-0.008,0.007l-0.007-0.007v0.007l-0.007,0.007v0.007L5.15,15.807H5.143H5.136
			l0.007,0.021H5.136L5.129,15.82l-0.014-0.006l-0.014-0.008l-0.008-0.014v-0.007v-0.007l-0.007,0.007v-0.007H5.08H5.072v0.007
			l0.008,0.007v0.008H5.072v0.006l-0.006,0.008l-0.015,0.014L5.038,15.82l0.007-0.006l-0.007-0.008l-0.007-0.006l-0.007,0.006H5.017
			H5.01v0.008L4.996,15.82H4.989v-0.006H4.982l0.007-0.008H4.982l-0.015,0.008v0.014v0.007v0.014l-0.014,0.008l-0.008,0.007
			L4.934,15.87H4.926l-0.007-0.014H4.912l-0.014-0.008l-0.008-0.007l0.008-0.014l-0.008-0.014H4.885L4.871,15.82v0.008l-0.008,0.007
			l-0.007-0.007L4.85,15.82h0.007H4.85l-0.008-0.006L4.835,15.82H4.821l-0.007-0.006l-0.007-0.014l-0.015,0.006H4.78l-0.009-0.006
			l0.009-0.008l-0.009-0.007l-0.014,0.015l-0.007-0.008l-0.007,0.008H4.73l-0.007,0.006l-0.007-0.006v-0.008H4.702l0.007,0.014
			H4.702H4.688l-0.007,0.008l-0.008-0.008l-0.006,0.008H4.66l-0.007-0.008l0.007-0.021l-0.014,0.007l-0.021-0.007l-0.014,0.007
			l-0.008-0.007l-0.007,0.007H4.591H4.584l-0.008,0.008v-0.008L4.57,15.786v-0.007l-0.008-0.007l-0.007,0.007H4.549v-0.007v0.007
			v0.007l0.007,0.007H4.543v0.008l-0.022,0.014l-0.014-0.014H4.486v-0.008l-0.007,0.008v-0.008l-0.008-0.007H4.465v-0.007
			l-0.014,0.007v0.007l-0.015,0.008l0.007,0.006H4.437l-0.014-0.006v-0.008l-0.007,0.008v-0.008H4.409l-0.007-0.007l-0.007,0.007
			H4.381v-0.007H4.374l0.007-0.014H4.367v-0.008l-0.008,0.008v-0.008l-0.021-0.006l-0.014,0.006l0.007-0.006H4.318l-0.015-0.015
			l-0.007,0.007v0.008v-0.015L4.29,15.751l-0.007-0.007L4.27,15.751H4.263v-0.007H4.248L4.234,15.73H4.228l-0.007,0.007
			l-0.015,0.007l-0.027-0.007H4.172l-0.008-0.015v-0.02v-0.008l-0.006,0.008v-0.008H4.15v-0.007H4.143v-0.008H4.137l0.006-0.006
			L4.137,15.66v-0.007v-0.007L4.108,15.66H4.081l-0.007-0.007L4.06,15.639l-0.007,0.008H4.039v0.007L4.031,15.66v0.007l-0.014-0.014
			L4.011,15.66H4.004v0.015h0.007v0.014l-0.014,0.007H3.989H3.983l-0.021-0.015l-0.007,0.008l-0.008,0.021H3.941l-0.008-0.014H3.927
			L3.92,15.681l-0.007-0.006l-0.035,0.014l0.007,0.007l-0.014-0.007H3.857L3.85,15.681H3.836H3.809l0.006-0.014L3.809,15.66
			l-0.008-0.021H3.787L3.78,15.633l-0.007,0.014H3.76l-0.008-0.008l-0.007,0.008l0.007-0.035l-0.007-0.007H3.73v-0.014l0.008-0.015
			l0.035-0.021v-0.007v-0.021l0.014-0.015l0.014-0.049v-0.014H3.794l-0.007-0.007l0.021-0.014h0.014l0.008-0.009l-0.008-0.006
			l-0.056-0.027v-0.008l0.021-0.007l0.021-0.008l0.021-0.041v-0.021H3.814L3.801,15.29l-0.007-0.007v-0.007l0.007-0.015l0.042-0.027
			l0.015-0.014v-0.008l-0.043-0.021l-0.006-0.014L3.794,15.15l0.015-0.021l0.021-0.008v-0.007l-0.016-0.014L3.78,15.088
			l-0.007-0.021v-0.021l0.007-0.021l0.014-0.007l0.015-0.021l0.006-0.014v-0.014l0.016-0.035l0.006-0.021l0.042-0.049l0.007-0.014
			l0.007-0.021l-0.007-0.008l-0.042-0.007L3.83,14.801l-0.016-0.014l0.008-0.007l0.062-0.043l0.007-0.014v-0.034l-0.014-0.056
			v-0.008l0.021-0.034l-0.021-0.035l-0.007-0.028l0.021-0.014l0.021-0.035l0.014-0.015L3.92,14.451v-0.027v-0.007H3.905
			l-0.014,0.014H3.878l-0.007-0.007l-0.014-0.028L3.85,14.389l-0.014-0.007l-0.014,0.007l-0.014-0.007l0.006-0.015l0.021-0.014
			l0.042-0.028l0.007-0.021l-0.007-0.014l-0.035-0.028H3.83l-0.021,0.015H3.794L3.78,14.27v-0.007l0.014-0.035l0.015-0.007
			l0.014-0.007l0.042,0.007h0.014v-0.007L3.871,14.2l-0.007-0.015l-0.028-0.034L3.83,14.137L3.822,14.13H3.814H3.809l-0.021,0.042
			H3.752v-0.014v-0.007L3.76,14.13l0.007-0.021v-0.007H3.745l-0.021-0.028v-0.021l0.014-0.021L3.717,13.97l0.008-0.028l0.021-0.035
			v-0.014l-0.028-0.042l-0.041-0.007l-0.029-0.021l-0.013-0.049l0.007-0.021l0.006-0.034v-0.014l-0.006-0.007L3.634,13.69H3.613
			l-0.009,0.007l-0.013,0.014v0.007L3.57,13.704l-0.007-0.028l0.007-0.007l0.007-0.015l0.027-0.006l0.009-0.015l-0.009-0.007
			L3.599,13.62H3.57l-0.007-0.007v-0.008l0.007-0.007l0.007-0.014h0.021l0.021-0.007l0.008-0.021l0.02-0.015l0.043-0.007v-0.007
			l0.014-0.035l0.014-0.007h0.021h0.014l0.015-0.007l0.014-0.028l0.014-0.007h0.007l0.014,0.007l0.021,0.021l0.014-0.028
			l0.028-0.035l0.007-0.014l-0.286-0.224L3.703,12.949z"/>
	</g>
</g>
</svg>
